{
	"agcgw":{
		"websocketbackurl":"connect-ws-dra.hispace.dbankcloud.cn",
		"backurl":"connect-dra.dbankcloud.cn",
		"websocketurl":"connect-ws-dra.hispace.dbankcloud.com",
		"url":"connect-dra.hispace.hicloud.com"
	},
	"client":{
		"appType":"1",
		"cp_id":"890052000000001698",
		"product_id":"736430079244780951",
		"client_id":"539610253231141248",
		"client_secret":"A64CE43B159DADAE65AE169CFE557C0598CACC7563F3AD1A628E72DDF5320CC5",
		"project_id":"736430079244780951",
		"app_id":"103678641",
		"api_key":"CgB6e3x9nsSMFSnjDOQLPdBaSvP2FmgQY4fg7msr1+GS92OyO2soAyRgYwRg7zelaS63l9KfP+0Gi7XmGHoihX3C",
		"package_name":"com.argustech.teapp"
	},
	"service":{
		"analytics":{
			"collector_url":"datacollector-dra.dt.hicloud.com,datacollector-dra.dt.dbankcloud.cn",
			"resource_id":"p1",
			"channel_id":""
		},
		"search":{
			"url":"https://search-dra.cloud.huawei.com"
		},
		"cloudstorage":{
			"storage_url":"https://ops-dra.agcstorage.link"
		},
		"ml":{
			"mlservice_url":"ml-api-dra.ai.dbankcloud.com,ml-api-dra.ai.dbankcloud.cn"
		}
	},
	"region":"SG",
	"configuration_version":"1.0"
}