<?xml version="1.0" encoding="utf-8"?>
<!-- Generator: Adobe Illustrator 22.1.0, SVG Export Plug-In . SVG Version: 6.00 Build 0)  -->
<svg version="1.1" id="Layer_1" xmlns="http://www.w3.org/2000/svg" xmlns:xlink="http://www.w3.org/1999/xlink" x="0px" y="0px"
	 width="64px" height="64px" viewBox="0 0 64 64" style="enable-background:new 0 0 64 64;" xml:space="preserve">
<style type="text/css">
	.st0{fill:#FF0000;}
	.st1{fill:#FFFFFF;}
</style>
<g>
	<circle class="st0" cx="32" cy="32" r="26"/>
	<g>
		<path class="st1" d="M49.8817825,24.614542c-0.6891556-1.6297169-1.587925-3.141922-2.6826439-4.516777
			c-0.7368584-0.925415-2.1076279-1.0187531-2.9454651-0.1836624l-0.0000038,0.0000019
			c-0.7163315,0.7139797-0.766468,1.8469028-0.1368866,2.6384373c2.2953339,2.8857994,3.583374,6.6068516,3.3270416,10.6264133
			c-0.4979668,7.8086052-6.8737869,14.0759926-14.6893463,14.4492035c-8.875349,0.4238167-16.230814-6.6744118-16.230814-15.458149
			c0-3.6272373,1.2545719-6.9666119,3.3521919-9.6078281c0.6235275-0.7851124,0.5625076-1.9111671-0.1464291-2.6201077
			L19.7294235,19.94207c-0.8380718-0.8380756-2.2129135-0.7456932-2.9496078,0.1827583
			c-1.0852089,1.3676834-1.9769974,2.8707542-2.6619434,4.4897137c-1.0122871,2.3942432-1.5257959,4.9357643-1.5257959,7.555151
			c0,2.619072,0.5135088,5.1612244,1.5257959,7.5551529c0.9777813,2.3114204,2.376503,4.3868065,4.1582794,6.1685524
			c1.7820625,1.7817459,3.85742,3.1808128,6.1685238,4.1582527c2.3942719,1.0126305,4.9360809,1.5260963,7.5551529,1.5260963
			c2.6194153,0,5.1609383-0.5134659,7.5551529-1.5260963c2.3114471-0.9774399,4.3865166-2.3765068,6.1685791-4.1582527
			c1.7817764-1.7817459,3.1807861-3.857132,4.1582222-6.1685524c1.0126305-2.3942451,1.5261421-4.9360809,1.5261421-7.5551529
			C51.4079247,29.5503063,50.894413,27.0084705,49.8817825,24.614542z"/>
	</g>
	<path class="st1" d="M33.9668655,23.8418655v9.7576714c0,1.0862694-0.8805923,1.9668655-1.9668617,1.9668655h-0.0000057
		c-1.0862694,0-1.9668655-0.8805962-1.9668655-1.9668655v-9.7576714c0-1.0862694,0.8805962-1.9668655,1.9668655-1.9668655h0.0000057
		C33.0862732,21.875,33.9668655,22.7555962,33.9668655,23.8418655z"/>
</g>
</svg>
