<?xml version="1.0" encoding="utf-8"?>
<!-- Generator: Adobe Illustrator 22.1.0, SVG Export Plug-In . SVG Version: 6.00 Build 0)  -->
<svg version="1.1" id="Layer_1" xmlns="http://www.w3.org/2000/svg" xmlns:xlink="http://www.w3.org/1999/xlink" x="0px" y="0px"
	 width="2048px" height="1536px" viewBox="0 0 2048 1536" style="enable-background:new 0 0 2048 1536;" xml:space="preserve">
<style type="text/css">
	.st0{fill:#A9D9F4;}
	.st1{fill:#F2EAC9;}
	.st2{fill:#9BC6DF;}
	.st3{fill:#84ACDB;}
	.st4{fill:#D1DEFF;}
	.st5{fill:#EEA73E;}
	.st6{fill:#D79837;}
	.st7{fill:#BA842F;}
	.st8{fill:#7DA4D1;}
	.st9{fill:#799EC8;}
	.st10{fill:#6F91B8;}
	.st11{fill:#FFFEF2;}
	.st12{fill:#BCBEC0;}
	.st13{fill:#2C2133;}
	.st14{fill:#A4B4B8;}
	.st15{fill:#FFFCE3;}
	.st16{opacity:0.3;fill:#CEC9C0;}
	.st17{fill:#C5D1D1;}
	.st18{opacity:0.2;}
	.st19{fill:#FFFFFF;}
	.st20{opacity:0.5;fill:none;stroke:#E2DBD3;stroke-width:0.5664428;stroke-miterlimit:10;}
	.st21{fill:#D8D3C9;}
	.st22{fill:#ABBEBD;}
	.st23{opacity:0.2;fill:#CEC9C0;}
	.st24{fill:#322739;}
	.st25{fill:none;stroke:#2C2133;stroke-width:2.5525622;stroke-miterlimit:10;}
	.st26{fill:#FDCFA2;}
	.st27{fill:#E5BD95;}
	.st28{fill:#FF8E00;}
	.st29{fill:#FECA78;}
	.st30{fill:#EA871D;}
	.st31{fill:#E0811B;}
	.st32{fill:#CB7617;}
	.st33{fill:#DBD4B7;}
	.st34{fill:#F0CA4A;}
	.st35{fill:#F1DE9A;}
	.st36{fill:#E4C046;}
	.st37{fill:#DAB844;}
	.st38{fill:#C6A83D;}
</style>
<rect y="-3.5059495" class="st26" width="2048" height="1536"/>
<g>
	<g>
		<polygon class="st28" points="767.3711548,1266.9377441 -64.2051773,1266.9377441 -64.2051773,794.8283691 
			-46.1795883,794.8283691 -46.1795883,856.3652344 -9.5902491,856.3652344 -9.5902491,907.0914307 11.1992674,907.0914307 
			11.1992674,953.6594849 25.3359108,953.6594849 25.3359108,853.0388184 46.9568138,853.0388184 46.9568138,1011.0383301 
			76.0621338,1011.0383301 76.0621338,779.0285034 191.3603516,779.0285034 191.3603516,924.5543213 232.3984375,924.5543213 
			232.3984375,813.9546509 271.4826355,813.9546509 271.4826355,882.9753418 458.5872498,882.9753418 458.5872498,800.6495972 
			531.7658081,800.6495972 531.7658081,871.3334961 552.5552979,871.3334961 552.5552979,831.6870117 590.8080444,831.6870117 
			590.8080444,866.6129761 652.3443604,866.6129761 652.3443604,1062.0334473 665.6495972,1062.0334473 665.6495972,981.3707275 
			724.6918335,981.3707275 724.6918335,1063.6968994 767.3711548,1063.6968994 		"/>
		<g>
			
				<rect x="704.526001" y="991.7652588" transform="matrix(-1 -1.224647e-16 1.224647e-16 -1 1420.2783203 1994.7570801)" class="st29" width="11.226347" height="11.2265368"/>
			
				<rect x="685.3995361" y="991.7652588" transform="matrix(-1 -1.224647e-16 1.224647e-16 -1 1382.0253906 1994.7570801)" class="st29" width="11.226347" height="11.2265368"/>
			
				<rect x="628.0210571" y="881.1657715" transform="matrix(-1 -1.224647e-16 1.224647e-16 -1 1267.2680664 1773.5578613)" class="st29" width="11.2259684" height="11.226347"/>
			
				<rect x="593.510437" y="881.1657715" transform="matrix(-1 -1.224647e-16 1.224647e-16 -1 1198.2471924 1773.5578613)" class="st29" width="11.226347" height="11.226347"/>
			
				<rect x="564.4054565" y="842.9133911" transform="matrix(-1 -1.224647e-16 1.224647e-16 -1 1140.0368652 1697.0531006)" class="st29" width="11.2259684" height="11.226347"/>
			
				<rect x="575.2159424" y="944.1578979" transform="matrix(-1 -1.224647e-16 1.224647e-16 -1 1161.6582031 1899.541748)" class="st29" width="11.2263889" height="11.2259684"/>
			
				<rect x="502.8688049" y="817.4888306" transform="matrix(-1 -1.224647e-16 1.224647e-16 -1 1016.963562 1646.2039795)" class="st29" width="11.2259684" height="11.226347"/>
			
				<rect x="482.9109192" y="839.1096802" transform="matrix(-1 -1.224647e-16 1.224647e-16 -1 977.0481567 1689.4458008)" class="st29" width="11.226347" height="11.226347"/>
			
				<rect x="127.8279114" y="795.8679199" transform="matrix(-1 -1.224647e-16 1.224647e-16 -1 266.8817749 1602.9621582)" class="st29" width="11.2259684" height="11.226347"/>
			
				<rect x="91.2383881" y="795.8679199" transform="matrix(-1 -1.224647e-16 1.224647e-16 -1 193.7030945 1602.9621582)" class="st29" width="11.2263174" height="11.226347"/>
			
				<rect x="91.2383881" y="824.9730225" transform="matrix(-1 -1.224647e-16 1.224647e-16 -1 193.7030945 1661.1722412)" class="st29" width="11.2263174" height="11.2261581"/>
			
				<rect x="91.2383881" y="854.0783691" transform="matrix(-1 -1.224647e-16 1.224647e-16 -1 193.7030945 1719.3830566)" class="st29" width="11.2263174" height="11.226347"/>
			
				<rect x="91.2383881" y="915.6150513" transform="matrix(-1 -1.224647e-16 1.224647e-16 -1 193.7030945 1842.4561768)" class="st29" width="11.2263174" height="11.2261581"/>
			
				<rect x="29.7016811" y="907.2990112" transform="matrix(-1 -1.224647e-16 1.224647e-16 -1 70.6297073 1825.8243408)" class="st29" width="11.226347" height="11.226347"/>
			
				<rect x="610.1420898" y="954.3444824" transform="matrix(-1 -1.224647e-16 1.224647e-16 -1 1231.510498 1919.9152832)" class="st29" width="11.226347" height="11.226347"/>
			
				<rect x="591.8475952" y="1020.8707886" transform="matrix(-1 -1.224647e-16 1.224647e-16 -1 1194.9211426 2052.9675293)" class="st29" width="11.2259684" height="11.2259684"/>
			
				<rect x="685.3995361" y="1027.730957" transform="matrix(-1 -1.224647e-16 1.224647e-16 -1 1382.0253906 2066.6882324)" class="st29" width="11.226347" height="11.226347"/>
		</g>
	</g>
	<g>
		<polygon class="st28" points="1310.65979,1002.0010986 1310.65979,919.6747437 1251.6176758,919.6747437 
			1251.6176758,1000.3377075 1238.3126221,1000.3377075 1238.3126221,804.9172363 1176.776001,804.9172363 1176.776001,769.991272 
			1138.5231934,769.991272 1138.5231934,866.4541016 1117.7337646,866.4541016 1117.7337646,795.7702026 1044.5551758,795.7702026 
			1044.5551758,878.0959473 857.4505615,878.0959473 857.4505615,809.0752563 818.366333,809.0752563 818.366333,919.6747437 
			777.328064,919.6747437 777.328064,830.9654541 662.0300293,830.9654541 662.0300293,1062.9753418 643.5236206,1062.9753418 
			643.5236206,1262.0583496 1353.3391113,1262.0583496 1353.3391113,1002.0010986 		"/>
		<g>
			
				<rect x="1290.4938965" y="930.069519" transform="matrix(-1 -1.224647e-16 1.224647e-16 -1 2592.2143555 1871.3656006)" class="st29" width="11.226347" height="11.2265368"/>
			
				<rect x="1271.3674316" y="930.069519" transform="matrix(-1 -1.224647e-16 1.224647e-16 -1 2553.9614258 1871.3656006)" class="st29" width="11.2265368" height="11.2265368"/>
			
				<rect x="1213.9890137" y="819.4699707" transform="matrix(-1 -1.224647e-16 1.224647e-16 -1 2439.2041016 1650.1663818)" class="st29" width="11.2261581" height="11.226347"/>
			
				<rect x="1179.4783936" y="819.4699707" transform="matrix(-1 -1.224647e-16 1.224647e-16 -1 2370.1833496 1650.1663818)" class="st29" width="11.2265368" height="11.226347"/>
			
				<rect x="1150.3734131" y="781.2175903" transform="matrix(-1 -1.224647e-16 1.224647e-16 -1 2311.9729004 1573.6616211)" class="st29" width="11.2259684" height="11.226347"/>
			
				<rect x="1161.1838379" y="882.4620972" transform="matrix(-1 -1.224647e-16 1.224647e-16 -1 2333.5939941 1776.1501465)" class="st29" width="11.2261581" height="11.2259684"/>
			
				<rect x="1088.836792" y="812.609436" transform="matrix(-1 -1.224647e-16 1.224647e-16 -1 2188.8996582 1636.4451904)" class="st29" width="11.2261581" height="11.226347"/>
			
				<rect x="1068.8789062" y="834.2303467" transform="matrix(-1 -1.224647e-16 1.224647e-16 -1 2148.9841309 1679.6870117)" class="st29" width="11.226347" height="11.226347"/>
			
				<rect x="713.7954102" y="847.8048706" transform="matrix(-1 -1.224647e-16 1.224647e-16 -1 1438.8171387 1706.8360596)" class="st29" width="11.226347" height="11.226347"/>
			
				<rect x="677.2062378" y="847.8048706" transform="matrix(-1 -1.224647e-16 1.224647e-16 -1 1365.6387939 1706.8360596)" class="st29" width="11.226347" height="11.226347"/>
			
				<rect x="677.2062378" y="876.9100342" transform="matrix(-1 -1.224647e-16 1.224647e-16 -1 1365.6387939 1765.0461426)" class="st29" width="11.226347" height="11.2261581"/>
			
				<rect x="677.2062378" y="906.0153198" transform="matrix(-1 -1.224647e-16 1.224647e-16 -1 1365.6387939 1823.2570801)" class="st29" width="11.226347" height="11.226347"/>
			
				<rect x="677.2062378" y="967.552002" transform="matrix(-1 -1.224647e-16 1.224647e-16 -1 1365.6387939 1946.3302002)" class="st29" width="11.226347" height="11.2261581"/>
			
				<rect x="1196.1099854" y="892.6487427" transform="matrix(-1 -1.224647e-16 1.224647e-16 -1 2403.4462891 1796.5238037)" class="st29" width="11.226347" height="11.226347"/>
			
				<rect x="1177.8153076" y="959.1749878" transform="matrix(-1 -1.224647e-16 1.224647e-16 -1 2366.8569336 1929.5760498)" class="st29" width="11.2261581" height="11.2259684"/>
			
				<rect x="1271.3674316" y="966.0352173" transform="matrix(-1 -1.224647e-16 1.224647e-16 -1 2553.9614258 1943.2967529)" class="st29" width="11.2265368" height="11.226347"/>
		</g>
	</g>
	<rect x="890.6994629" y="675.8132324" class="st5" width="105.8100815" height="248.9149933"/>
	<rect x="963.1917114" y="675.8132324" class="st6" width="33.3178787" height="248.9149933"/>
	<path class="st7" d="M908.979187,910.3534546L908.979187,910.3534546c-2.2201538,0-4.0199585-1.7999268-4.0199585-4.0199585
		V694.2080688c0-2.2202148,1.7998047-4.0199585,4.0199585-4.0199585l0,0c2.2202148,0,4.0199585,1.7997437,4.0199585,4.0199585
		v212.1254272C912.9991455,908.5535278,911.1994019,910.3534546,908.979187,910.3534546z"/>
	<path class="st7" d="M926.8699341,910.3534546L926.8699341,910.3534546c-2.2202148,0-4.0199585-1.7999268-4.0199585-4.0199585
		V694.2080688c0-2.2202148,1.7997437-4.0199585,4.0199585-4.0199585l0,0c2.2201538,0,4.0199585,1.7997437,4.0199585,4.0199585
		v212.1254272C930.8898926,908.5535278,929.0900879,910.3534546,926.8699341,910.3534546z"/>
	<path class="st7" d="M944.7606201,910.3534546L944.7606201,910.3534546c-2.2199707,0-4.0199585-1.7999268-4.0199585-4.0199585
		V694.2080688c0-2.2202148,1.7999878-4.0199585,4.0199585-4.0199585l0,0c2.2202148,0,4.0199585,1.7997437,4.0199585,4.0199585
		v212.1254272C948.7805786,908.5535278,946.980835,910.3534546,944.7606201,910.3534546z"/>
	<path class="st7" d="M962.6515503,910.3534546L962.6515503,910.3534546c-2.2202148,0-4.0199585-1.7999268-4.0199585-4.0199585
		V694.2080688c0-2.2202148,1.7997437-4.0199585,4.0199585-4.0199585l0,0c2.2202148,0,4.0199585,1.7997437,4.0199585,4.0199585
		v212.1254272C966.6715088,908.5535278,964.8717651,910.3534546,962.6515503,910.3534546z"/>
	<path class="st7" d="M980.5422363,910.3534546L980.5422363,910.3534546c-2.2201538,0-4.0198975-1.7999268-4.0198975-4.0199585
		V694.2080688c0-2.2202148,1.7997437-4.0199585,4.0198975-4.0199585l0,0c2.2202148,0,4.0199585,1.7997437,4.0199585,4.0199585
		v212.1254272C984.5621948,908.5535278,982.7624512,910.3534546,980.5422363,910.3534546z"/>
	<path class="st7" d="M1319.8986816,1190.2445068L1319.8986816,1190.2445068c-2.3165283,0-4.1945801-1.8779297-4.1945801-4.194458
		V964.7109985c0-2.3165894,1.8780518-4.194519,4.1945801-4.194519l0,0c2.3166504,0,4.1945801,1.8779297,4.1945801,4.194519
		v221.3390503C1324.0932617,1188.3665771,1322.215332,1190.2445068,1319.8986816,1190.2445068z"/>
	<path class="st7" d="M1338.5666504,1190.2445068L1338.5666504,1190.2445068c-2.3166504,0-4.1945801-1.8779297-4.1945801-4.194458
		V964.7109985c0-2.3165894,1.8779297-4.194519,4.1945801-4.194519l0,0c2.3166504,0,4.1945801,1.8779297,4.1945801,4.194519
		v221.3390503C1342.7612305,1188.3665771,1340.8833008,1190.2445068,1338.5666504,1190.2445068z"/>
	<path class="st7" d="M1357.2344971,1190.2445068L1357.2344971,1190.2445068c-2.3166504,0-4.1945801-1.8779297-4.1945801-4.194458
		V964.7109985c0-2.3165894,1.8779297-4.194519,4.1945801-4.194519l0,0c2.3165283,0,4.194458,1.8779297,4.194458,4.194519
		v221.3390503C1361.4289551,1188.3665771,1359.5510254,1190.2445068,1357.2344971,1190.2445068z"/>
	<path class="st7" d="M1375.9022217,1190.2445068L1375.9022217,1190.2445068c-2.3166504,0-4.1945801-1.8779297-4.1945801-4.194458
		V964.7109985c0-2.3165894,1.8779297-4.194519,4.1945801-4.194519l0,0c2.3165283,0,4.1945801,1.8779297,4.1945801,4.194519
		v221.3390503C1380.0968018,1188.3665771,1378.21875,1190.2445068,1375.9022217,1190.2445068z"/>
	<g>
		<polygon class="st28" points="2136.3237305,1262.0583496 1304.7473145,1262.0583496 1304.7473145,789.9489746 
			1322.7729492,789.9489746 1322.7729492,851.4858398 1359.3623047,851.4858398 1359.3623047,902.2120361 1380.1518555,902.2120361 
			1380.1518555,948.7800903 1394.2884521,948.7800903 1394.2884521,848.1594238 1415.9093018,848.1594238 
			1415.9093018,1006.1589355 1445.0146484,1006.1589355 1445.0146484,774.1491089 1560.3128662,774.1491089 
			1560.3128662,919.6749268 1601.3509521,919.6749268 1601.3509521,809.0752563 1640.4351807,809.0752563 1640.4351807,878.0959473 
			1827.5397949,878.0959473 1827.5397949,795.7702026 1900.7183838,795.7702026 1900.7183838,866.4541016 1921.5078125,866.4541016 
			1921.5078125,826.8076172 1959.7606201,826.8076172 1959.7606201,861.7335815 2021.296875,861.7335815 2021.296875,1057.1540527 
			2034.6021729,1057.1540527 2034.6021729,976.491333 2093.6442871,976.491333 2093.6442871,1058.8175049 
			2136.3237305,1058.8175049 		"/>
		<g>
			
				<rect x="1996.9736328" y="876.286377" transform="matrix(-1 -1.224647e-16 1.224647e-16 -1 4005.1730957 1763.7990723)" class="st29" width="11.2259684" height="11.226347"/>
			
				<rect x="1962.4630127" y="876.286377" transform="matrix(-1 -1.224647e-16 1.224647e-16 -1 3936.1523438 1763.7990723)" class="st29" width="11.226347" height="11.226347"/>
			
				<rect x="1933.3580322" y="838.0339966" transform="matrix(-1 -1.224647e-16 1.224647e-16 -1 3877.9418945 1687.2943115)" class="st29" width="11.2259684" height="11.226347"/>
			
				<rect x="1944.168457" y="939.2785034" transform="matrix(-1 -1.224647e-16 1.224647e-16 -1 3899.5632324 1889.782959)" class="st29" width="11.2263889" height="11.2259684"/>
			
				<rect x="1871.8212891" y="812.609436" transform="matrix(-1 -1.224647e-16 1.224647e-16 -1 3754.8686523 1636.4451904)" class="st29" width="11.2259684" height="11.226347"/>
			
				<rect x="1851.8634033" y="834.2303467" transform="matrix(-1 -1.224647e-16 1.224647e-16 -1 3714.9533691 1679.6870117)" class="st29" width="11.226347" height="11.226347"/>
			
				<rect x="1496.7803955" y="790.9885254" transform="matrix(-1 -1.224647e-16 1.224647e-16 -1 3004.7868652 1593.2033691)" class="st29" width="11.2259684" height="11.226347"/>
			
				<rect x="1460.190918" y="790.9885254" transform="matrix(-1 -1.224647e-16 1.224647e-16 -1 2931.6081543 1593.2033691)" class="st29" width="11.2263174" height="11.226347"/>
			
				<rect x="1460.190918" y="820.0936279" transform="matrix(-1 -1.224647e-16 1.224647e-16 -1 2931.6081543 1651.4134521)" class="st29" width="11.2263174" height="11.2261581"/>
			
				<rect x="1460.190918" y="849.1989746" transform="matrix(-1 -1.224647e-16 1.224647e-16 -1 2931.6081543 1709.6242676)" class="st29" width="11.2263174" height="11.226347"/>
			
				<rect x="1460.190918" y="910.7356567" transform="matrix(-1 -1.224647e-16 1.224647e-16 -1 2931.6081543 1832.6975098)" class="st29" width="11.2263174" height="11.2261581"/>
			
				<rect x="1354.5806885" y="975.5985718" transform="matrix(-1 -1.224647e-16 1.224647e-16 -1 2720.3876953 1962.4232178)" class="st29" width="11.2263203" height="11.2261581"/>
			
				<rect x="1326.3071289" y="910.7356567" transform="matrix(-1 -1.224647e-16 1.224647e-16 -1 2663.8405762 1832.6975098)" class="st29" width="11.226347" height="11.2261581"/>
			
				<rect x="1398.6541748" y="902.4196167" transform="matrix(-1 -1.224647e-16 1.224647e-16 -1 2808.534668 1816.0655518)" class="st29" width="11.226347" height="11.226347"/>
			
				<rect x="1322.980835" y="1013.0195312" transform="matrix(-1 -1.224647e-16 1.224647e-16 -1 2657.1879883 2037.2650146)" class="st29" width="11.226347" height="11.2259684"/>
			
				<rect x="1979.0946045" y="949.4650879" transform="matrix(-1 -1.224647e-16 1.224647e-16 -1 3969.4155273 1910.1564941)" class="st29" width="11.226347" height="11.226347"/>
			
				<rect x="1960.8001709" y="1015.991394" transform="matrix(-1 -1.224647e-16 1.224647e-16 -1 3932.8261719 2043.2087402)" class="st29" width="11.2259684" height="11.2259684"/>
		</g>
	</g>
	<rect x="890.7227783" y="675.8132324" class="st30" width="105.6807327" height="248.6105347"/>
	<rect x="963.1262207" y="676.1176758" class="st31" width="33.2772865" height="248.6105347"/>
	<path class="st32" d="M908.9800415,910.0665283L908.9800415,910.0665283c-2.2174072,0-4.0150146-1.7976074-4.0150146-4.0150757
		V694.1854248c0-2.2174072,1.7976074-4.0150146,4.0150146-4.0150146l0,0c2.2174683,0,4.0150757,1.7976074,4.0150757,4.0150146
		v211.8660278C912.9951172,908.2689209,911.1975098,910.0665283,908.9800415,910.0665283z"/>
	<path class="st32" d="M926.848877,910.0665283L926.848877,910.0665283c-2.2174072,0-4.0150146-1.7976074-4.0150146-4.0150757
		V694.1854248c0-2.2174072,1.7976074-4.0150146,4.0150146-4.0150146l0,0c2.2174683,0,4.0150757,1.7976074,4.0150757,4.0150146
		v211.8660278C930.8639526,908.2689209,929.0663452,910.0665283,926.848877,910.0665283z"/>
	<path class="st32" d="M944.7178955,910.0665283L944.7178955,910.0665283c-2.2174683,0-4.0150146-1.7976074-4.0150146-4.0150757
		V694.1854248c0-2.2174072,1.7975464-4.0150146,4.0150146-4.0150146l0,0c2.2174683,0,4.0150757,1.7976074,4.0150757,4.0150146
		v211.8660278C948.7329712,908.2689209,946.9353638,910.0665283,944.7178955,910.0665283z"/>
	<path class="st32" d="M962.586731,910.0665283L962.586731,910.0665283c-2.2174683,0-4.0150757-1.7976074-4.0150757-4.0150757
		V694.1854248c0-2.2174072,1.7976074-4.0150146,4.0150757-4.0150146l0,0c2.2174683,0,4.0150146,1.7976074,4.0150146,4.0150146
		v211.8660278C966.6017456,908.2689209,964.8041992,910.0665283,962.586731,910.0665283z"/>
	<path class="st32" d="M980.4555664,910.0665283L980.4555664,910.0665283c-2.2174683,0-4.0150757-1.7976074-4.0150757-4.0150757
		V694.1854248c0-2.2174072,1.7976074-4.0150146,4.0150757-4.0150146l0,0c2.2174072,0,4.0150146,1.7976074,4.0150146,4.0150146
		v211.8660278C984.4705811,908.2689209,982.6729736,910.0665283,980.4555664,910.0665283z"/>
	<rect x="872.6987305" y="872.1884155" class="st30" width="141.5388641" height="332.9656067"/>
	<rect x="969.6691284" y="872.5961304" class="st31" width="44.5684776" height="332.9656067"/>
	<path class="st32" d="M897.1508179,1185.925293L897.1508179,1185.925293c-2.9697876,0-5.3773804-2.4074707-5.3773804-5.3773193
		v-283.75354c0-2.9698486,2.4075928-5.3773804,5.3773804-5.3773804l0,0c2.9698486,0,5.3774414,2.4075317,5.3774414,5.3773804
		v283.75354C902.5282593,1183.5178223,900.1206665,1185.925293,897.1508179,1185.925293z"/>
	<path class="st32" d="M921.0826416,1185.925293L921.0826416,1185.925293c-2.9698486,0-5.3773804-2.4074707-5.3773804-5.3773193
		v-283.75354c0-2.9698486,2.4075317-5.3773804,5.3773804-5.3773804l0,0c2.9698486,0,5.3773804,2.4075317,5.3773804,5.3773804
		v283.75354C926.460022,1183.5178223,924.0524902,1185.925293,921.0826416,1185.925293z"/>
	<path class="st32" d="M945.0147095,1185.925293L945.0147095,1185.925293c-2.9697876,0-5.3773193-2.4074707-5.3773193-5.3773193
		v-283.75354c0-2.9698486,2.4075317-5.3773804,5.3773193-5.3773804l0,0c2.9698486,0,5.3773804,2.4075317,5.3773804,5.3773804
		v283.75354C950.3920898,1183.5178223,947.9845581,1185.925293,945.0147095,1185.925293z"/>
	<path class="st32" d="M968.9465942,1185.925293L968.9465942,1185.925293c-2.9698486,0-5.3773804-2.4074707-5.3773804-5.3773193
		v-283.75354c0-2.9698486,2.4075317-5.3773804,5.3773804-5.3773804l0,0c2.9697876,0,5.3773193,2.4075317,5.3773193,5.3773804
		v283.75354C974.3239136,1183.5178223,971.9163818,1185.925293,968.9465942,1185.925293z"/>
	<path class="st32" d="M992.878418,1185.925293L992.878418,1185.925293c-2.9698486,0-5.3773804-2.4074707-5.3773804-5.3773193
		v-283.75354c0-2.9698486,2.4075317-5.3773804,5.3773804-5.3773804l0,0c2.9697876,0,5.3773193,2.4075317,5.3773193,5.3773804
		v283.75354C998.2557373,1183.5178223,995.8482056,1185.925293,992.878418,1185.925293z"/>
	<rect x="236.5852356" y="727.1534424" class="st30" width="198.3828888" height="482.3066101"/>
	<rect x="376.7271729" y="727.1534424" class="st31" width="58.2409477" height="482.3066101"/>
	<rect x="251.7142944" y="741.1947021" class="st32" width="168.1247559" height="15.9038496"/>
	<rect x="251.7142944" y="771.5283813" class="st32" width="168.1247559" height="15.9038496"/>
	<rect x="251.7142944" y="801.8622437" class="st32" width="168.1247559" height="15.9038496"/>
	<rect x="251.7142944" y="832.1959229" class="st32" width="168.1247559" height="15.9038496"/>
	<rect x="251.7142944" y="862.5296631" class="st32" width="168.1247559" height="15.9038496"/>
	<rect x="251.7142944" y="892.8633423" class="st32" width="168.1247559" height="15.9040394"/>
	<rect x="251.7142944" y="923.1972046" class="st32" width="168.1247559" height="15.9038496"/>
	<rect x="251.7142944" y="953.5308838" class="st32" width="168.1247559" height="15.9038496"/>
	<rect x="251.7142944" y="983.864624" class="st32" width="168.1247559" height="15.9040394"/>
	<rect x="251.7142944" y="1014.1984863" class="st32" width="168.1247559" height="15.9038496"/>
	<rect x="251.7142944" y="1044.5322266" class="st32" width="168.1247559" height="15.9038496"/>
	<rect x="251.7142944" y="1074.8658447" class="st32" width="168.1247559" height="15.9040394"/>
	<rect x="251.7142944" y="1105.199707" class="st32" width="168.1247559" height="15.9038496"/>
	<rect x="251.7142944" y="1135.5334473" class="st32" width="168.1247559" height="15.9038496"/>
	<rect x="251.7142944" y="1165.8671875" class="st32" width="168.1247559" height="15.9038496"/>
	<path class="st7" d="M3.1877539,1190.2445068L3.1877539,1190.2445068c-2.3165927,0-4.1945634-1.8779297-4.1945634-4.194458
		V964.7109985c0-2.3165894,1.8779705-4.194519,4.1945634-4.194519l0,0c2.3165929,0,4.1945629,1.8779297,4.1945629,4.194519
		v221.3390503C7.3823171,1188.3665771,5.5043468,1190.2445068,3.1877539,1190.2445068z"/>
	<rect x="-89.2205582" y="945.517334" class="st30" width="110.4059296" height="259.7263794"/>
	<rect x="-13.5798073" y="945.8353882" class="st31" width="34.7651787" height="259.7263794"/>
	<path class="st32" d="M4.5243506,1190.2445068L4.5243506,1190.2445068c-2.3165929,0-4.1945634-1.8779297-4.1945634-4.194458
		V964.7109985c0-2.3165894,1.8779705-4.194519,4.1945634-4.194519l0,0c2.3165927,0,4.1945634,1.8779297,4.1945634,4.194519
		v221.3390503C8.718914,1188.3665771,6.8409433,1190.2445068,4.5243506,1190.2445068z"/>
	<rect x="1282.8035889" y="945.8357544" class="st5" width="110.4056778" height="259.7259827"/>
	<rect x="1358.4443359" y="945.8357544" class="st6" width="34.7649574" height="259.7259827"/>
	<path class="st7" d="M1301.8773193,1190.5627441L1301.8773193,1190.5627441c-2.3166504,0-4.1945801-1.8781738-4.1945801-4.1945801
		v-221.338562c0-2.3166504,1.8779297-4.1945801,4.1945801-4.1945801l0,0c2.3166504,0,4.1945801,1.8779297,4.1945801,4.1945801
		v221.338562C1306.0718994,1188.6845703,1304.1939697,1190.5627441,1301.8773193,1190.5627441z"/>
	<path class="st7" d="M1320.5450439,1190.5627441L1320.5450439,1190.5627441c-2.3166504,0-4.1945801-1.8781738-4.1945801-4.1945801
		v-221.338562c0-2.3166504,1.8779297-4.1945801,4.1945801-4.1945801l0,0c2.3166504,0,4.1945801,1.8779297,4.1945801,4.1945801
		v221.338562C1324.739624,1188.6845703,1322.8616943,1190.5627441,1320.5450439,1190.5627441z"/>
	<path class="st7" d="M1339.2127686,1190.5627441L1339.2127686,1190.5627441c-2.3164062,0-4.194458-1.8781738-4.194458-4.1945801
		v-221.338562c0-2.3166504,1.8780518-4.1945801,4.194458-4.1945801l0,0c2.3166504,0,4.1945801,1.8779297,4.1945801,4.1945801
		v221.338562C1343.4073486,1188.6845703,1341.5294189,1190.5627441,1339.2127686,1190.5627441z"/>
	<path class="st7" d="M1357.8807373,1190.5627441L1357.8807373,1190.5627441c-2.3166504,0-4.194458-1.8781738-4.194458-4.1945801
		v-221.338562c0-2.3166504,1.8778076-4.1945801,4.194458-4.1945801l0,0c2.3166504,0,4.1945801,1.8779297,4.1945801,4.1945801
		v221.338562C1362.0753174,1188.6845703,1360.1973877,1190.5627441,1357.8807373,1190.5627441z"/>
	<path class="st7" d="M1376.548584,1190.5627441L1376.548584,1190.5627441c-2.3166504,0-4.1945801-1.8781738-4.1945801-4.1945801
		v-221.338562c0-2.3166504,1.8779297-4.1945801,4.1945801-4.1945801l0,0c2.3165283,0,4.194458,1.8779297,4.194458,4.1945801
		v221.338562C1380.743042,1188.6845703,1378.8651123,1190.5627441,1376.548584,1190.5627441z"/>
	<rect x="1282.8280029" y="945.8357544" class="st30" width="110.2707138" height="259.4082947"/>
	<rect x="1358.3760986" y="946.1534424" class="st31" width="34.7226028" height="259.4082947"/>
	<path class="st32" d="M1301.8781738,1190.2633057L1301.8781738,1190.2633057c-2.3137207,0-4.1894531-1.8756104-4.1894531-4.1894531
		V965.0059814c0-2.3137817,1.8757324-4.1894531,4.1894531-4.1894531l0,0c2.3137207,0,4.1894531,1.8756714,4.1894531,4.1894531
		v221.0678711C1306.067627,1188.3876953,1304.1918945,1190.2633057,1301.8781738,1190.2633057z"/>
	<path class="st32" d="M1320.5230713,1190.2633057L1320.5230713,1190.2633057c-2.3137207,0-4.1893311-1.8756104-4.1893311-4.1894531
		V965.0059814c0-2.3137817,1.8756104-4.1894531,4.1893311-4.1894531l0,0c2.3138428,0,4.1894531,1.8756714,4.1894531,4.1894531
		v221.0678711C1324.7125244,1188.3876953,1322.8369141,1190.2633057,1320.5230713,1190.2633057z"/>
	<path class="st32" d="M1339.1682129,1190.2633057L1339.1682129,1190.2633057c-2.3137207,0-4.1894531-1.8756104-4.1894531-4.1894531
		V965.0059814c0-2.3137817,1.8757324-4.1894531,4.1894531-4.1894531l0,0c2.3137207,0,4.1894531,1.8756714,4.1894531,4.1894531
		v221.0678711C1343.357666,1188.3876953,1341.4819336,1190.2633057,1339.1682129,1190.2633057z"/>
	<path class="st32" d="M1357.8131104,1190.2633057L1357.8131104,1190.2633057c-2.3137207,0-4.1894531-1.8756104-4.1894531-4.1894531
		V965.0059814c0-2.3137817,1.8757324-4.1894531,4.1894531-4.1894531l0,0c2.3137207,0,4.1894531,1.8756714,4.1894531,4.1894531
		v221.0678711C1362.0025635,1188.3876953,1360.1268311,1190.2633057,1357.8131104,1190.2633057z"/>
	<path class="st32" d="M1376.4580078,1190.2633057L1376.4580078,1190.2633057c-2.3137207,0-4.1893311-1.8756104-4.1893311-4.1894531
		V965.0059814c0-2.3137817,1.8756104-4.1894531,4.1893311-4.1894531l0,0c2.3138428,0,4.1894531,1.8756714,4.1894531,4.1894531
		v221.0678711C1380.6474609,1188.3876953,1378.7718506,1190.2633057,1376.4580078,1190.2633057z"/>
	<rect x="1039.8676758" y="899.1900024" class="st30" width="128.4432831" height="312.2701111"/>
	<rect x="1130.6027832" y="899.1900024" class="st31" width="37.7081871" height="312.2701111"/>
	<rect x="1049.6629639" y="908.2810059" class="st32" width="108.8526154" height="10.2969704"/>
	<rect x="1049.6629639" y="927.9205933" class="st32" width="108.8526154" height="10.2969704"/>
	<rect x="1049.6629639" y="947.5603027" class="st32" width="108.8526154" height="10.2969704"/>
	<rect x="1049.6629639" y="967.1998901" class="st32" width="108.8526154" height="10.2969704"/>
	<rect x="1049.6629639" y="986.8394775" class="st32" width="108.8526154" height="10.2969704"/>
	<rect x="1049.6629639" y="1006.4790649" class="st32" width="108.8526154" height="10.2970934"/>
	<rect x="1049.6629639" y="1026.1187744" class="st32" width="108.8526154" height="10.2969704"/>
	<rect x="1049.6629639" y="1045.7584229" class="st32" width="108.8526154" height="10.2969704"/>
	<rect x="1049.6629639" y="1065.3979492" class="st32" width="108.8526154" height="10.2970934"/>
	<rect x="1049.6629639" y="1085.0377197" class="st32" width="108.8526154" height="10.2969704"/>
	<rect x="1049.6629639" y="1104.6772461" class="st32" width="108.8526154" height="10.2969704"/>
	<rect x="1049.6629639" y="1124.3168945" class="st32" width="108.8526154" height="10.2970934"/>
	<rect x="1049.6629639" y="1143.956543" class="st32" width="108.8526154" height="10.2969704"/>
	<rect x="1049.6629639" y="1163.5961914" class="st32" width="108.8526154" height="10.2969704"/>
	<rect x="1049.6629639" y="1183.2358398" class="st32" width="108.8526154" height="10.2969704"/>
	<rect x="1608.402832" y="727.986145" class="st30" width="198.8630219" height="483.473938"/>
	<rect x="1748.8839111" y="727.986145" class="st31" width="58.3819046" height="483.473938"/>
	<rect x="1623.5684814" y="742.0613403" class="st32" width="168.531662" height="15.9423418"/>
	<rect x="1623.5684814" y="772.4684448" class="st32" width="168.531662" height="15.9423418"/>
	<rect x="1623.5684814" y="802.8757935" class="st32" width="168.531662" height="15.9423418"/>
	<rect x="1623.5684814" y="833.2828979" class="st32" width="168.531662" height="15.9423418"/>
	<rect x="1623.5684814" y="863.6900024" class="st32" width="168.531662" height="15.9423418"/>
	<rect x="1623.5684814" y="894.0971069" class="st32" width="168.531662" height="15.9425316"/>
	<rect x="1623.5684814" y="924.5043945" class="st32" width="168.531662" height="15.9423418"/>
	<rect x="1623.5684814" y="954.911499" class="st32" width="168.531662" height="15.9423418"/>
	<rect x="1623.5684814" y="985.3186035" class="st32" width="168.531662" height="15.9425316"/>
	<rect x="1623.5684814" y="1015.7258911" class="st32" width="168.531662" height="15.9423418"/>
	<rect x="1623.5684814" y="1046.1330566" class="st32" width="168.531662" height="15.9423418"/>
	<rect x="1623.5684814" y="1076.5401611" class="st32" width="168.531662" height="15.9425316"/>
	<rect x="1623.5684814" y="1106.9473877" class="st32" width="168.531662" height="15.9423418"/>
	<rect x="1623.5684814" y="1137.3544922" class="st32" width="168.531662" height="15.9423418"/>
	<rect x="1623.5684814" y="1167.7615967" class="st32" width="168.531662" height="15.9423418"/>
</g>
<path class="st11" d="M1996.9736328,485.3377686c-7.1306152-16.5695801-23.5986328-28.1740112-42.7821045-28.1740112
	c-3.5509033,0-7.0037842,0.4107361-10.3269043,1.1636658c-11.5239258-11.3812256-27.3536377-18.4128723-44.8299561-18.4128723
	c-10.2451172,0-19.9178467,2.4282837-28.4971924,6.7192688c-13.7009277-27.5231018-42.0999756-46.4434204-74.9320068-46.4434204
	c-30.1046143,0-56.4854736,15.9062195-71.2248535,39.7653503c-0.5437012-0.0134583-1.0838623-0.0411987-1.6308594-0.0411987
	c-28.84729,0-53.2122803,19.1476135-61.1074219,45.4232178H1996.9736328z"/>
<path class="st11" d="M1093.0716553,420.0446167c-8.4975586-19.7460632-28.1225586-33.5751648-50.9837646-33.5751648
	c-4.2315674,0-8.3464355,0.489502-12.3065186,1.3868713c-13.7331543-13.5630188-32.5975952-21.9427795-53.4240723-21.9427795
	c-12.2092285,0-23.7365112,2.8937073-33.9603882,8.0073853c-16.3273926-32.7995911-50.1706543-55.3469543-89.296936-55.3469543
	c-35.8759155,0-67.3141479,18.9554138-84.8790283,47.3887329c-0.6480713-0.0163269-1.2918091-0.0491638-1.9437256-0.0491638
	c-34.3774414,0-63.413269,22.8183289-72.8220215,54.131073H1093.0716553z"/>
<path class="st11" d="M1623.5784912,285.3775024c-8.4975586-19.7460632-28.1225586-33.5751495-50.9837646-33.5751495
	c-4.2315674,0-8.3465576,0.4895325-12.3065186,1.386795c-13.7331543-13.5629883-32.5976562-21.9427032-53.4240723-21.9427032
	c-12.2092285,0-23.7365723,2.8936615-33.9604492,8.007309c-16.3273926-32.79953-50.1706543-55.3468781-89.296875-55.3468781
	c-35.8759766,0-67.314209,18.9554138-84.8791504,47.3887482c-0.6479492-0.0162964-1.291748-0.0491791-1.9437256-0.0491791
	c-34.3774414,0-63.413208,22.8182983-72.8218994,54.1310577H1623.5784912z"/>
<path class="st11" d="M495.2313843,560.8329468c-8.4975281-19.7460938-28.1226196-33.5751343-50.9837646-33.5751343
	c-4.2316284,0-8.3465271,0.489502-12.3065491,1.3868408c-13.7331543-13.5629883-32.5975952-21.9427795-53.4240723-21.9427795
	c-12.209198,0-23.7365112,2.8937073-33.9603882,8.0074158c-16.3273621-32.7996216-50.1706238-55.3469849-89.296936-55.3469849
	c-35.8759308,0-67.3141479,18.9554138-84.8790436,47.3887329c-0.6480255-0.0162964-1.2917786-0.0491638-1.9436951-0.0491638
	c-34.3774414,0-63.4132996,22.8183289-72.8220215,54.131073H495.2313843z"/>
<rect x="1.236915" y="1205.5617676" class="st1" width="2045.526123" height="104.8626022"/>
<rect x="1.236915" y="1205.5617676" class="st12" width="2045.526123" height="35.7349319"/>
</svg>
