<?xml version="1.0" encoding="utf-8"?>
<!-- Generator: Adobe Illustrator 22.1.0, SVG Export Plug-In . SVG Version: 6.00 Build 0)  -->
<svg version="1.1" id="Layer_1" xmlns="http://www.w3.org/2000/svg" xmlns:xlink="http://www.w3.org/1999/xlink" x="0px" y="0px"
	 width="540.2808228px" height="295.8944397px" viewBox="0 0 540.2808228 295.8944397"
	 style="enable-background:new 0 0 540.2808228 295.8944397;" xml:space="preserve">
<style type="text/css">
	.st0{fill:#A9D9F4;}
	.st1{fill:#F2EAC9;}
	.st2{fill:#9BC6DF;}
	.st3{fill:#84ACDB;}
	.st4{fill:#D1DEFF;}
	.st5{fill:#EEA73E;}
	.st6{fill:#D79837;}
	.st7{fill:#BA842F;}
	.st8{fill:#7DA4D1;}
	.st9{fill:#799EC8;}
	.st10{fill:#6F91B8;}
	.st11{fill:#FFFEF2;}
	.st12{fill:#BCBEC0;}
	.st13{fill:#2C2133;}
	.st14{fill:#A4B4B8;}
	.st15{fill:#FFFCE3;}
	.st16{opacity:0.3;fill:#CEC9C0;}
	.st17{fill:#C5D1D1;}
	.st18{opacity:0.2;}
	.st19{fill:#FFFFFF;}
	.st20{opacity:0.5;fill:none;stroke:#E2DBD3;stroke-width:0.5664428;stroke-miterlimit:10;}
	.st21{fill:#D8D3C9;}
	.st22{fill:#ABBEBD;}
	.st23{opacity:0.2;fill:#CEC9C0;}
	.st24{fill:#322739;}
	.st25{fill:none;stroke:#2C2133;stroke-width:2.5525622;stroke-miterlimit:10;}
	.st26{fill:#FDCFA2;}
	.st27{fill:#E5BD95;}
	.st28{fill:#FF8E00;}
	.st29{fill:#FECA78;}
	.st30{fill:#EA871D;}
	.st31{fill:#E0811B;}
	.st32{fill:#CB7617;}
	.st33{fill:#DBD4B7;}
	.st34{fill:#F0CA4A;}
	.st35{fill:#F1DE9A;}
	.st36{fill:#E4C046;}
	.st37{fill:#DAB844;}
	.st38{fill:#C6A83D;}
</style>
<path class="st2" d="M494.6968994,234.4967041c0,3.6748505,13.637207,7.0288544-33.0360107,9.5764923
	c-54.5414429,2.9771118-129.3850403,4.8530731-197.4996033,4.8530731c-86.9674835,0-175.6068878-3.0581207-214.3376465-7.5617523
	c-17.5624466-2.0421753-11.620388-4.3815613-11.620388-6.8678131s-5.9420738-4.8256531,11.6203461-6.8678131
	c38.7307396-4.5036316,127.370163-7.5617676,214.337677-7.5617676c68.1147461,0,142.9585571,1.8759613,197.5000305,4.8531036
	C508.3343201,227.4678497,494.6968994,230.8218536,494.6968994,234.4967041z"/>
<g>
	<path class="st13" d="M101.1528244,162.275177c-21.167984,0-38.3280754,17.1600952-38.3280754,38.3281403h76.65625
		C139.4810028,179.4352722,122.3209152,162.275177,101.1528244,162.275177z"/>
	<path class="st13" d="M418.5765686,162.275177c-21.1679688,0-38.328064,17.1600952-38.328064,38.3281403h76.65625
		C456.9047546,179.4352722,439.7446594,162.275177,418.5765686,162.275177z"/>
	<circle class="st13" cx="101.1528778" cy="209.0918121" r="34.9885788"/>
	<circle class="st14" cx="101.1528778" cy="209.0918121" r="9.4334421"/>
	<circle class="st13" cx="417.5301208" cy="209.0918121" r="34.9885788"/>
	<g>
		<path class="st15" d="M394.5830078,122.9551392c-22.3317871-1.0661926-48.3181458-78.9451294-150.4772034-78.9451294h-141.677948
			c-10.341835,0-19.3831635,6.9735832-22.0099258,16.9762611L48.4357491,182.7739716
			c-2.2456474,8.5513916,3.7930832,17.2697296,12.623085,17.7173309c0.243187,0.0123291,0.4879799,0.0185699,0.73423,0.0185699
			h1.7233543c3.9095078-17.3594818,19.4104843-30.330246,37.9508667-30.330246s34.0413666,12.9707642,37.9509125,30.330246
			h240.7187042c3.9094849-17.3594818,19.4104614-30.330246,37.9508057-30.330246
			c18.5404358,0,34.0414124,12.9707642,37.9509888,30.330246l33.3815308-15.1604309v-32.1390533
			c0-11.8632507-8.8635254-21.8560638-20.6419678-23.2719727
			C468.7782593,129.9384155,398.3389893,123.1344604,394.5830078,122.9551392z"/>
	</g>
	<path class="st16" d="M355.7619629,190.4450684H183.928421c-10.020813,0-18.1442871-8.0640717-18.1442871-18.0116272v-0.0000153
		H354.913269c4.4326477,0,7.5029602,3.5670929,7.5029602,7.9673309v0.0000153
		C362.4162292,185.9480896,361.3501282,190.4450684,355.7619629,190.4450684z"/>
	<circle class="st14" cx="418.5766296" cy="209.0918121" r="9.4334421"/>
	<g>
		<path class="st17" d="M462.7582092,129.2033539l0.0000305,0.0000153c0,10.9703369,8.8931885,19.8635406,19.8635254,19.8635406
			h6.3983459C485.2345886,134.0221252,476.0348206,130.0761261,462.7582092,129.2033539z"/>
	</g>
	<g class="st18">
		<path class="st19" d="M466.3343811,131.9082489l0.0000305,0.0000153c0,7.9825897,6.4711609,14.4537506,14.4537354,14.4537506
			h4.6557617C482.6893921,135.4146423,475.9951477,132.5433197,466.3343811,131.9082489z"/>
	</g>
	<path class="st13" d="M286.2592163,146.8819427h-16.060791v-2.7121124c0-2.0770416,1.6837463-3.7608032,3.7608032-3.7608032
		h5.8270569C283.3611755,140.4090271,286.2592163,143.3070526,286.2592163,146.8819427L286.2592163,146.8819427z"/>
	<path class="st16" d="M270.9222717,146.8819427v2.2045593c0,2.0806427,1.6867065,3.767334,3.7673645,3.767334h5.5976868
		c3.2981873,0,5.9718933-2.6737061,5.9718933-5.9718933l0,0"/>
	<path class="st16" d="M252.4007568,140.4559021h-4.4972839c-3.3986816,0-6.1538544,2.755188-6.1538544,6.1538696v0.0000153
		c0,3.3986816,2.7551727,6.1538696,6.1538544,6.1538696h5.145462c1.4448853,0,2.6161957-1.1713104,2.6161957-2.6161957v-6.4271851
		C255.6651306,141.9174194,254.2036133,140.4559021,252.4007568,140.4559021z"/>
	<path class="st16" d="M160.3693848,156.0782623h-78.255043c-1.3123169,0-2.3761597-1.0638428-2.3761597-2.3761597v-0.0000153
		c0-1.3123016,1.0638428-2.3761444,2.3761597-2.3761444h78.8465042L160.3693848,156.0782623z"/>
	<path class="st13" d="M252.6713562,152.7636566h-5.5026703c-0.8068542,0-1.4609375-0.6540833-1.4609375-1.4609375v-9.1795959
		c0-0.9207764,0.7464294-1.6672211,1.6672058-1.6672211h5.296402V152.7636566z"/>
	<path class="st13" d="M271.6554871,189.4065857h-89.0613556c-9.0634613,0-16.4108429-7.3473816-16.4108429-16.4108429v-0.0000153
		c0-0.884079,0.7166901-1.600769,1.6007843-1.600769h99.8889313"/>
	<path class="st13" d="M267.2490845,171.3949585H355.0112c4.0896912,0,7.4050293,3.3153381,7.4050293,7.4050293v3.2015686
		c0,4.0896912-3.3153381,7.4050293-7.4050293,7.4050293h-83.3557129"/>
	<line class="st20" x1="291.4831238" y1="77.182106" x2="281.7796631" y2="86.885582"/>
	<line class="st20" x1="290.6047668" y1="84.4128647" x2="276.1693726" y2="98.8482437"/>
	<g>
		<path class="st21" d="M56.7551918,193.2210846c1.4765625-4.5966797,3.7593994-8.9375,6.612793-12.8642578
			c2.8890343-3.9038086,6.3917198-7.3623047,10.3391075-10.2226562c7.8991699-5.7397461,17.668335-8.8203125,27.4462891-8.8642578
			c9.7779541,0.0444336,19.5471191,3.125,27.4460449,8.8647461c3.9472656,2.8603516,7.4499512,6.3193359,10.3388672,10.2231445
			c2.8532715,3.9262695,5.1359863,8.2675781,6.6125488,12.8642578l-0.5334473,0.190918
			c-1.7470703-4.4326172-4.1022949-8.6113281-7.0629883-12.3056641c-2.9216309-3.7202148-6.4018555-6.9887695-10.2885742-9.6499023
			c-3.8935547-2.6455078-8.140625-4.7739258-12.6330566-6.1630859c-4.4852295-1.4008789-9.1831055-2.0981445-13.8793945-2.0864258
			c-4.6962891-0.0117188-9.394165,0.6850586-13.8795166,2.0864258c-4.4925537,1.3886719-8.739502,3.5170898-12.6331787,6.1625977
			c-3.8867188,2.6611328-7.3670654,5.9291992-10.2888184,9.6494141c-2.9605675,3.6948242-5.3160362,7.8730469-7.0632286,12.3056641
			L56.7551918,193.2210846z"/>
	</g>
	<g>
		<path class="st21" d="M382.4685669,177.5868073c2.6027832-3.1162109,5.6379395-5.8999023,8.9995117-8.2329102
			c3.390625-2.2851562,7.0605469-4.1962891,10.9458008-5.5449219c3.8967285-1.3066406,7.9604492-2.1206055,12.0649414-2.4150391
			c1.0256348-0.0791016,2.0554199-0.0834961,3.0837402-0.1235352c1.0288086,0.0234375,2.0576172,0.0390625,3.0837402,0.121582
			c2.0517578,0.1469727,4.0981445,0.4008789,6.1142578,0.8125c8.0637207,1.6147461,15.7182617,5.34375,21.828125,10.8217773
			c6.1652832,5.40625,10.8166504,12.4746094,13.3393555,20.1958008l-0.5334473,0.190918
			c-2.9262695-7.4702148-7.6989746-14.1459961-13.7851562-19.2509766
			c-6.0847168-5.0947266-13.4348145-8.6503906-21.2060547-10.1333008c-7.7700195-1.4516602-15.8981934-0.9951172-23.4365234,1.4375
			c-3.7568359,1.2412109-7.3950195,2.8862305-10.7683105,4.9995117c-3.3649902,2.1225586-6.484375,4.6469727-9.3088379,7.5
			L382.4685669,177.5868073z"/>
	</g>
	<g>
		<path class="st13" d="M92.2197723,171.4118805H48.7033501c-1.0715218,0-2.008297,0.7111969-2.2804565,1.7313385
			l-2.3972054,8.9854431c-2.3644142,8.8625336,3.9937019,17.898056,13.2906799,18.361969
			c0.2560463,0.0127563,5.1832962,0.0192413,5.442585,0.0192413h2.9237633
			C68.7807312,186.9693298,79.1342163,176.007782,92.2197723,171.4118805z"/>
	</g>
	<path class="st13" d="M473.4607239,200.6552887h-17.4359741l-15.1161804-22.497406h48.4188843
		c1.5335693,0,2.7767639,1.2431946,2.7767639,2.7767487v1.077179
		C492.1042175,192.3083191,483.7572327,200.6552887,473.4607239,200.6552887z"/>
	<path class="st22" d="M272.9979858,76.2865753l-1.5853882,50.1395874
		c-0.1765747,4.0154572,2.9354553,7.4137878,6.9508972,7.5903778l84.2270813-0.0041656
		c7.7557983,0.3410797,11.1568604-5.8886261,6.5564575-12.4116211c-2.023407-2.8690338-53.5946045-51.0003815-82.3000183-51.7961578
		C279.8832703,69.6115341,273.3040466,69.326889,272.9979858,76.2865753z"/>
	<path class="st16" d="M363.6396484,134.0123596l-86.3110352,0.0041809c-3.725647-0.1598969-6.683136-2.9634857-7.0765991-6.4723587
		l-0.0462646,1.4264755c-0.1809692,4.0154724,3.0080872,7.4138184,7.1228638,7.5903931l86.3110352-0.0041504
		c6.0728455,0.2606049,9.5350342-3.3165131,8.7297363-7.9281616
		C371.7335815,131.9377747,368.5351868,134.2224579,363.6396484,134.0123596z"/>
	<path class="st23" d="M72.9937515,151.325943l28.1591263-75.1082535c2.5801163-4.8170547,7.4004288-8.0226059,12.8404922-8.539032
		l62.1551895-3.6826134l0,0l-74.9956818,1.7185402L72.9937515,151.325943z"/>
	<g>
		<path class="st21" d="M72.453186,151.1566315c1.8929443-6.7744141,3.897583-13.5141602,5.8476562-20.2709961l6.0310059-20.2143478
			c1.9943848-6.7426758,4.0598145-13.4638672,6.1407471-20.1796875l6.2143555-20.1567383l0.0256348-0.0830078l0.0443115-0.0996094
			c1.5535889-3.4912109,4.7158203-6.2299805,8.4110107-7.2353516c0.9180908-0.2666016,1.8684082-0.4047852,2.8189697-0.4697266
			l0.7149658-0.0239258l0.6383057-0.0004883l1.260498,0.0029297l5.0422363,0.0131836l20.168457,0.152832l20.1687012,0.3066406
			c6.7229004,0.1625977,13.4455566,0.2875977,20.168457,0.53125v1.1328125
			c-6.7229004,0.2436523-13.4455566,0.3691406-20.168457,0.53125l-20.1687012,0.3066406l-20.168457,0.152832l-5.0422363,0.0131836
			l-1.260498,0.003418l-0.6223145,0.003418l-0.5446777,0.0219727c-0.7233887,0.0556641-1.4458008,0.1601562-2.1420898,0.3681641
			c-2.7945557,0.793457-5.2155762,2.8320312-6.4213867,5.4902344l0.0697021-0.1826172l-6.3803711,20.1049805
			c-2.1171875,6.7045898-4.2501221,13.4042969-6.4538574,20.081543L80.281311,131.504776
			c-2.2481689,6.6635742-4.4416504,13.3447266-6.7469482,19.9902344L72.453186,151.1566315z"/>
	</g>
	<g>
		<path class="st21" d="M345.6690063,94.0619125c-18.4755859-16.7197266-42.223877-27.5839844-67.0146484-30.2612305
			c-6.199707-0.7084961-12.3972168-0.8969727-18.6796875-0.7075195l-18.802002,0.2973633l-37.6035156,0.59375l-9.4008789,0.1484375
			c-2.9331055,0.0185547-5.6540527,1.4125977-7.3964844,3.8652344c-3.8847656,4.7558594-6.7646484,10.3266602-9.177002,16.0419922
			c-2.4016113,5.7368164-4.3249512,11.6826172-5.9975586,17.6943359c-1.6662598,6.015625-3.0749512,12.1079102-4.3076172,18.2368164
			c-4.9213867,24.5297775-7.4360352,49.5356369-8.8679199,74.5214767l-0.0002441,0.0053711l-0.5700684-0.5859375
			l83.6914062-0.4145508l83.6904297-0.5385742l41.8452148-0.2695312l2.6152344-0.0166016
			c0.8791504,0.0029297,1.7421875-0.0092773,2.5744629-0.0830078c1.6784668-0.1958008,3.3063965-0.7773438,4.7321777-1.6826172
			c2.8786621-1.7895508,4.8046875-4.9760742,5.1323242-8.3398438c0.0581055-0.8339844,0.0625-1.7041016,0.0559082-2.5800781
			l0.0009766-2.6152344l0.0019531-5.230957l0.0041504-10.4614258l-0.0402832-20.9228516l-0.0168457-5.230957l-0.0117188-2.6152344
			c-0.0153809-0.8803711,0.0195312-1.7426758-0.0891113-2.5649414c-0.199707-1.6650391-0.7766113-3.2831955-1.6916504-4.6830978
			c-0.4523926-0.6977539-0.9926758-1.3579102-1.5812988-1.9243164l-1.9492188-1.7431641L345.6690063,94.0619125z
			 M346.7000122,92.9266586l30.8188477,28.3222656l1.9233398,1.7729492
			c0.6582031,0.6523438,1.2167969,1.3608398,1.7023926,2.1318359c0.9707031,1.5356445,1.5683594,3.2968674,1.7565918,5.0961838
			c0.1035156,0.9121094,0.0522461,1.7988281,0.0551758,2.6606445l-0.0117188,2.6152344l-0.0168457,5.230957l-0.0402832,20.9228516
			l0.0041504,10.4614258l0.0019531,5.230957l0.0009766,2.6152344c0.0065918,0.8681641,0.0056152,1.7412109-0.0571289,2.6479492
			c-0.3444824,3.5791016-2.3920898,6.9692383-5.4519043,8.8754883c-1.5158691,0.9648438-3.2502441,1.5854492-5.0366211,1.7949219
			c-0.904541,0.0810547-1.7861328,0.0913086-2.6508789,0.0888672l-2.6152344,0.019043l-41.8449707,0.3017578l-83.6896973,0.6030273
			l-83.6887207,0.7270508l-0.5891113,0.0048828l0.0187988-0.5908203l0.0002441-0.0058594
			c0.4116211-12.5595703,1.3525391-25.078125,2.704834-37.5644531c1.3552246-12.4829102,3.1157227-24.9311523,5.5268555-37.2729416
			c1.2470703-6.1621094,2.6721191-12.2929688,4.3603516-18.359375c1.6945801-6.0625,3.6442871-12.0698242,6.0922852-17.8989258
			c2.4631348-5.8085938,5.3991699-11.503418,9.4638672-16.4707031c0.2563477-0.3134766,0.4829102-0.6259766,0.7641602-0.9394531
			c0.286377-0.3154297,0.5881348-0.6176758,0.9123535-0.894043c0.6425781-0.5600586,1.3500977-1.0463867,2.1088867-1.4350586
			c1.5041504-0.7851562,3.2336426-1.2041016,4.8969727-1.2099609l9.4057617-0.137207l37.6237793-0.5493164l18.8115234-0.2749023
			c6.2502441-0.1826172,12.6188965,0.0136719,18.8754883,0.7402344
			C303.961731,64.9320297,328.0090942,75.9701157,346.7000122,92.9266586z"/>
	</g>
	<path class="st23" d="M161.9883881,194.478653c0,0,5.1983795-98.6947098,30.7203674-127.8330841
		c1.8166351-2.0740433,4.4143982-3.293644,7.1704559-3.3713188c0,0-12.125824-3.5242119-18.826004,11.5724373
		s-22.3405457,56.1315536-23.197937,119.6319656H161.9883881z"/>
	<path class="st24" d="M362.4162292,177.7781067H166.8500519l-1.0155945-4.2004547
		c-0.2688751-1.1121063,0.5737152-2.1826935,1.7178497-2.1826935h188.5207214c3.5032654,0,6.3432007,2.8399506,6.3432007,6.3432159
		V177.7781067z"/>
	<g>
		<path class="st21" d="M268.1304321,62.217186c-0.7229004,5.4702148-1.3659668,10.949707-1.8239746,16.4462891
			c-0.526123,5.4892578-0.9177246,10.9897461-1.2290039,16.4931641
			c-0.6164551,11.0073242-0.8681641,22.0322266-0.6435547,33.0483322
			c0.0961914,11.0229492,0.9782715,22.0161133,2.1645508,32.9663086l1.088623,8.1928711
			c0.1550293,1.3701172,0.4086914,2.7236328,0.6625977,4.0776367l0.7402344,4.0664062l0.7185059,4.0727539
			c0.2199707,1.3623047,0.604248,2.6884766,0.8984375,4.0351562l1.8706055,8.0634766
			c-3.1140137-10.5908203-5.4716797-21.421875-6.9379883-32.3862305c-0.4414062-2.7304688-0.651123-5.4892578-0.9599609-8.2368164
			l-0.4287109-4.125c-0.1386719-1.3754883-0.1955566-2.7573242-0.2973633-4.1357422
			c-0.1743164-2.7587891-0.3833008-5.5166016-0.5288086-8.2768555l-0.2729492-8.2885742
			c-0.1533203-11.0551682,0.0991211-22.1162033,0.8950195-33.1401291
			c0.8254395-11.019043,2.0253906-22.0175781,3.9855957-32.8896484L268.1304321,62.217186z"/>
	</g>
	<path class="st13" d="M160.1463928,155.4027252H82.1143417c-1.3123169,0-2.3761597-1.0638428-2.3761597-2.3761444v-0.0000153
		c0-1.3123169,1.0638428-2.3761597,2.3761597-2.3761597h78.5667343L160.1463928,155.4027252z"/>
	<path class="st25" d="M272.9979858,76.2865753l-1.5853882,50.1395874
		c-0.1765747,4.0154572,2.9354553,7.4137878,6.9508972,7.5903778l84.2270813-0.0041656
		c7.7557983,0.3410797,11.1568604-5.8886261,6.5564575-12.4116211c-2.023407-2.8690338-53.5946045-51.0003815-82.3000183-51.7961578
		C279.8832703,69.6115341,273.3040466,69.326889,272.9979858,76.2865753z"/>
	<g>
		<path class="st13" d="M350.5783081,104.8142166v29.1987381l12.0122986-0.0005951
			c7.7557373,0.341095,11.1568298-5.8886261,6.556427-12.4116058
			C368.4068909,120.5512924,361.0332336,113.4438629,350.5783081,104.8142166z"/>
	</g>
</g>
</svg>
