{
  "project_info": {
    "project_number": "60844097773",
    "firebase_url": "https://zeek-mi-auto-beta.firebaseio.com",
    "project_id": "zeek-mi-auto-beta",
    "storage_bucket": "zeek-mi-auto-beta.appspot.com"
  },
  "client": [
    {
      "client_info": {
        "mobilesdk_app_id": "1:60844097773:android:f6226cdfcc146c7d",
        "android_client_info": {
          "package_name": "com.zeekgps.app"
        }
      },
      "oauth_client": [
        {
          "client_id": "60844097773-l53sf8g72t0faag6u2g7mrq3pa177cds.apps.googleusercontent.com",
          "client_type": 3
        }
      ],
      "api_key": [
        {
          "current_key": "AIzaSyBACXa8f2JjIatmLbUr6oi0RFfK3oqt73M"
        }
      ],
      "services": {
        "analytics_service": {
          "status": 1
        },
        "appinvite_service": {
          "status": 1,
          "other_platform_oauth_client": []
        },
        "ads_service": {
          "status": 2
        }
      }
    }
  ],
  "configuration_version": "1"
}