<?xml version="1.0" encoding="utf-8"?>
<!-- Generator: Adobe Illustrator 17.0.0, SVG Export Plug-In . SVG Version: 6.00 Build 0)  -->
<!DOCTYPE svg PUBLIC "-//W3C//DTD SVG 1.1//EN" "http://www.w3.org/Graphics/SVG/1.1/DTD/svg11.dtd">
<svg version="1.1" id="Layer_1" xmlns="http://www.w3.org/2000/svg" xmlns:xlink="http://www.w3.org/1999/xlink" x="0px" y="0px"
	 width="41px" height="41px" viewBox="0 0 41 41" style="enable-background:new 0 0 41 41;" xml:space="preserve">
<style type="text/css">
	.st0{opacity:0.5;}
	.st1{fill:url(#SVGID_1_);stroke:#056A38;stroke-width:0.9355;stroke-linecap:round;stroke-linejoin:round;stroke-miterlimit:10;}
	.st2{fill:#FFFFFF;}
	.st3{fill:#E6E6E6;}
	.st4{fill:#FFFFFF;stroke:#404040;stroke-width:0.1842;stroke-linecap:round;stroke-linejoin:round;stroke-miterlimit:10;}
	.st5{fill:#74BAC2;fill-opacity:0.5;}
	.st6{fill:#27AAE1;}
	.st7{fill:#1C75BC;}
	.st8{fill:#FFFFFF;stroke:#FFFFFF;stroke-width:0.3684;stroke-linecap:round;stroke-linejoin:round;stroke-miterlimit:10;}
	.st9{fill:url(#SVGID_2_);stroke:#8D313A;stroke-width:0.6188;stroke-linecap:round;stroke-linejoin:round;stroke-miterlimit:10;}
	.st10{fill:#CB4234;}
	.st11{fill:#C94233;}
	.st12{fill:#B43A2C;}
	.st13{fill:#AEC5E7;stroke:#293896;stroke-width:0.6038;stroke-linecap:round;stroke-linejoin:round;stroke-miterlimit:10;}
	.st14{fill:url(#SVGID_3_);}
	.st15{clip-path:url(#SVGID_5_);}
	.st16{opacity:0.2;fill:url(#SVGID_6_);}
	.st17{fill:url(#SVGID_7_);}
	.st18{opacity:0.3;fill:url(#SVGID_8_);}
	.st19{fill:#58595B;}
	.st20{fill:#E6E7E8;}
	.st21{fill:none;stroke:#D1D3D4;stroke-width:0.3197;stroke-miterlimit:10;}
	.st22{fill:url(#SVGID_9_);}
	.st23{fill:none;stroke:#FFFFFF;stroke-width:0.5506;stroke-linecap:round;stroke-linejoin:round;stroke-miterlimit:10;}
	.st24{fill:none;}
	.st25{fill:none;stroke:#13588F;stroke-width:0.6038;stroke-linecap:round;stroke-linejoin:round;stroke-miterlimit:10;}
	.st26{fill:#AEC5E7;stroke:#293896;stroke-width:0.6055;stroke-linecap:round;stroke-linejoin:round;stroke-miterlimit:10;}
	.st27{fill:url(#SVGID_10_);}
	.st28{clip-path:url(#SVGID_12_);}
	.st29{opacity:0.2;fill:url(#SVGID_13_);}
	.st30{fill:url(#SVGID_14_);}
	.st31{opacity:0.2;fill:url(#SVGID_15_);}
	.st32{fill:#F1F2F2;}
	.st33{fill:#BCBEC0;}
	.st34{clip-path:url(#SVGID_17_);}
	.st35{fill:#414042;}
	.st36{clip-path:url(#SVGID_19_);fill:#BCBEC0;}
	.st37{opacity:0.1;fill:url(#SVGID_20_);}
	.st38{fill:none;stroke:#13588F;stroke-width:0.6055;stroke-linecap:round;stroke-linejoin:round;stroke-miterlimit:10;}
	.st39{fill:#AEC5E7;stroke:#293896;stroke-width:0.6058;stroke-linecap:round;stroke-linejoin:round;stroke-miterlimit:10;}
	.st40{fill:url(#SVGID_21_);stroke:#056A38;stroke-width:0.9361;stroke-linecap:round;stroke-linejoin:round;stroke-miterlimit:10;}
	.st41{fill:none;stroke:#13588F;stroke-width:0.6058;stroke-linecap:round;stroke-linejoin:round;stroke-miterlimit:10;}
	.st42{clip-path:url(#SVGID_25_);}
	.st43{opacity:0.2;fill:url(#SVGID_26_);}
	.st44{fill:url(#SVGID_27_);}
	.st45{opacity:0.2;fill:url(#SVGID_28_);}
	.st46{clip-path:url(#SVGID_30_);}
	.st47{clip-path:url(#SVGID_32_);fill:#BCBEC0;}
	.st48{fill:#D1D3D4;}
	.st49{opacity:0.2;}
	.st50{fill:#A7A9AC;}
	.st51{opacity:0.1;fill:url(#SVGID_33_);}
	.st52{fill:none;stroke:#056A38;stroke-width:0.9361;stroke-linecap:round;stroke-linejoin:round;stroke-miterlimit:10;}
	.st53{fill:url(#SVGID_34_);stroke:#8D313A;stroke-width:0.6219;stroke-linecap:round;stroke-linejoin:round;stroke-miterlimit:10;}
	.st54{opacity:0.2;clip-path:url(#SVGID_36_);fill:url(#SVGID_37_);}
	.st55{clip-path:url(#SVGID_36_);fill:url(#SVGID_38_);}
	.st56{opacity:0.2;clip-path:url(#SVGID_36_);fill:url(#SVGID_39_);}
	.st57{clip-path:url(#SVGID_36_);fill:#F1F2F2;}
	.st58{clip-path:url(#SVGID_36_);fill:#BCBEC0;}
	.st59{clip-path:url(#SVGID_36_);}
	.st60{clip-path:url(#SVGID_41_);}
	.st61{clip-path:url(#SVGID_43_);fill:#BCBEC0;}
	.st62{opacity:0.5;clip-path:url(#SVGID_36_);}
	.st63{clip-path:url(#SVGID_36_);fill:#414042;}
	.st64{opacity:0.2;clip-path:url(#SVGID_36_);fill:url(#SVGID_44_);}
	.st65{clip-path:url(#SVGID_36_);fill:#E6E7E8;}
	.st66{clip-path:url(#SVGID_36_);fill:#D1D3D4;}
	.st67{clip-path:url(#SVGID_36_);fill:#A7A9AC;}
	.st68{opacity:0.1;clip-path:url(#SVGID_36_);fill:url(#SVGID_45_);}
	.st69{fill:none;stroke:#8D313A;stroke-width:0.6219;stroke-linecap:round;stroke-linejoin:round;stroke-miterlimit:10;}
	.st70{clip-path:url(#SVGID_47_);}
	.st71{fill:url(#SVGID_48_);stroke:#8D313A;stroke-width:0.6236;stroke-linecap:round;stroke-linejoin:round;stroke-miterlimit:10;}
	.st72{opacity:0.2;fill:url(#SVGID_49_);}
	.st73{fill:#414042;stroke:#000000;stroke-width:0.1876;stroke-miterlimit:10;}
	.st74{opacity:0.2;fill:url(#SVGID_50_);}
	.st75{opacity:0.2;fill:url(#SVGID_51_);}
	.st76{opacity:0.2;fill:url(#SVGID_52_);}
	.st77{fill:#919396;}
	.st78{fill:url(#SVGID_53_);}
	.st79{fill:none;stroke:#656769;stroke-width:0.1465;stroke-miterlimit:10;}
	.st80{fill:#464C52;}
	.st81{fill:url(#SVGID_54_);}
	.st82{fill:#FBFBFB;}
	.st83{fill:none;stroke:#3CBEEE;stroke-width:0.0662;stroke-miterlimit:10;}
	.st84{fill:none;stroke:#8D313A;stroke-width:0.6203;stroke-linecap:round;stroke-linejoin:round;stroke-miterlimit:10;}
	.st85{clip-path:url(#SVGID_56_);}
	.st86{fill:#AEC5E7;stroke:#293896;stroke-width:0.61;stroke-linecap:round;stroke-linejoin:round;stroke-miterlimit:10;}
	.st87{fill:url(#SVGID_57_);stroke:#056A38;stroke-width:0.9427;stroke-linecap:round;stroke-linejoin:round;stroke-miterlimit:10;}
	.st88{fill:none;stroke:#13588F;stroke-width:0.61;stroke-linecap:round;stroke-linejoin:round;stroke-miterlimit:10;}
	.st89{opacity:0.2;fill:url(#SVGID_60_);}
	.st90{fill:url(#SVGID_61_);}
	.st91{fill:url(#SVGID_62_);}
	.st92{fill:none;stroke:#3CBEEE;stroke-width:0.0686;stroke-miterlimit:10;}
	.st93{fill:none;stroke:#515254;stroke-width:0.1518;stroke-miterlimit:10;}
	.st94{fill:#3D3D3E;}
	.st95{fill:none;stroke:#056A38;stroke-width:0.9427;stroke-linecap:round;stroke-linejoin:round;stroke-miterlimit:10;}
</style>
<g>
	<circle class="st0" cx="20.982" cy="20.982" r="19.518"/>
	<radialGradient id="SVGID_1_" cx="20.0181" cy="20.0181" r="22.8903" gradientUnits="userSpaceOnUse">
		<stop  offset="0.5" style="stop-color:#8DC642"/>
		<stop  offset="1" style="stop-color:#059348"/>
	</radialGradient>
	<circle class="st1" cx="20.018" cy="20.019" r="19.518"/>
	<g>
		<path class="st2" d="M22.362,26.872V6.777c0-1.483-1.182-2.698-2.626-2.698c-1.445,0-2.626,1.214-2.626,2.698v20.095
			c-1.314,0.884-2.182,2.408-2.182,4.141c0,2.732,2.151,4.945,4.808,4.945c2.656,0,4.808-2.213,4.808-4.945
			C24.545,29.28,23.677,27.756,22.362,26.872z M19.737,34.787c-2.027,0-3.671-1.69-3.671-3.774c0-1.422,0.766-2.66,1.895-3.302
			v-3.394c0-1.004,0.799-1.823,1.775-1.823s1.775,0.819,1.775,1.823v3.394c1.129,0.643,1.895,1.881,1.895,3.302
			C23.407,33.097,21.764,34.787,19.737,34.787z"/>
		<path class="st3" d="M22.362,26.872V6.777c0-1.483-1.182-2.698-2.626-2.698l0,0v31.879l0,0c2.656,0,4.808-2.213,4.808-4.945
			C24.545,29.28,23.677,27.756,22.362,26.872z"/>
		<path class="st4" d="M20.089,11.493"/>
		<path class="st5" d="M21.512,27.711V7.169c0-1.003-0.799-1.64-1.775-1.64s-1.775,0.82-1.775,1.64v20.359
			c-1.129,0.826-1.895,2.064-1.895,3.485c0,2.084,1.643,3.774,3.671,3.774c2.027,0,3.67-1.69,3.67-3.774
			C23.407,29.591,22.641,28.353,21.512,27.711z"/>
		<path class="st6" d="M21.512,27.711v-3.394c0-1.004-0.799-1.823-1.775-1.823s-1.775,0.819-1.775,1.823v3.394
			c-1.129,0.643-1.895,1.881-1.895,3.302c0,2.084,1.643,3.774,3.671,3.774c2.027,0,3.67-1.69,3.67-3.774
			C23.407,29.591,22.641,28.353,21.512,27.711z"/>
		<g>
			<path class="st7" d="M21.512,27.711v-3.394c0-1.004-0.8-1.823-1.775-1.823v12.294c2.026,0,3.67-1.69,3.67-3.774
				C23.407,29.591,22.641,28.353,21.512,27.711z"/>
		</g>
		<g>
			<line class="st2" x1="20.018" y1="7.762" x2="22.182" y2="7.762"/>
			<path class="st2" d="M22.182,7.947h-2.164c-0.102,0-0.184-0.083-0.184-0.185c0-0.101,0.082-0.184,0.184-0.184h2.164
				c0.103,0,0.185,0.083,0.185,0.184C22.367,7.864,22.285,7.947,22.182,7.947z"/>
		</g>
		<g>
			<line class="st2" x1="20.018" y1="11.493" x2="22.182" y2="11.493"/>
			<path class="st2" d="M22.182,11.678h-2.164c-0.102,0-0.184-0.084-0.184-0.185c0-0.103,0.082-0.183,0.184-0.183h2.164
				c0.103,0,0.185,0.08,0.185,0.183C22.367,11.594,22.285,11.678,22.182,11.678z"/>
		</g>
		<g>
			<line class="st2" x1="20.544" y1="8.591" x2="22.182" y2="8.591"/>
			<path class="st2" d="M22.182,8.776h-1.638c-0.102,0-0.183-0.084-0.183-0.185c0-0.103,0.081-0.183,0.183-0.183h1.638
				c0.103,0,0.185,0.08,0.185,0.183C22.367,8.692,22.285,8.776,22.182,8.776z"/>
		</g>
		<g>
			<line class="st2" x1="20.544" y1="9.511" x2="22.182" y2="9.511"/>
			<path class="st2" d="M22.182,9.696h-1.638c-0.102,0-0.183-0.082-0.183-0.185c0-0.099,0.081-0.183,0.183-0.183h1.638
				c0.103,0,0.185,0.084,0.185,0.183C22.367,9.614,22.285,9.696,22.182,9.696z"/>
		</g>
		<g>
			<line class="st2" x1="20.544" y1="10.434" x2="22.182" y2="10.434"/>
			<path class="st2" d="M22.182,10.617h-1.638c-0.102,0-0.183-0.083-0.183-0.183c0-0.104,0.081-0.187,0.183-0.187h1.638
				c0.103,0,0.185,0.083,0.185,0.187C22.367,10.534,22.285,10.617,22.182,10.617z"/>
		</g>
		<g>
			<path class="st8" d="M22.182,11.493"/>
		</g>
		<g>
			<line class="st2" x1="20.018" y1="15.223" x2="22.182" y2="15.223"/>
			<path class="st2" d="M22.182,15.408h-2.164c-0.102,0-0.184-0.084-0.184-0.185c0-0.101,0.082-0.185,0.184-0.185h2.164
				c0.103,0,0.185,0.084,0.185,0.185C22.367,15.324,22.285,15.408,22.182,15.408z"/>
		</g>
		<g>
			<line class="st2" x1="20.544" y1="12.323" x2="22.182" y2="12.323"/>
			<path class="st2" d="M22.182,12.505h-1.638c-0.102,0-0.183-0.083-0.183-0.183c0-0.103,0.081-0.185,0.183-0.185h1.638
				c0.103,0,0.185,0.082,0.185,0.185C22.367,12.422,22.285,12.505,22.182,12.505z"/>
		</g>
		<g>
			<line class="st2" x1="20.544" y1="13.244" x2="22.182" y2="13.244"/>
			<path class="st2" d="M22.182,13.426h-1.638c-0.102,0-0.183-0.081-0.183-0.182c0-0.103,0.081-0.185,0.183-0.185h1.638
				c0.103,0,0.185,0.082,0.185,0.185C22.367,13.345,22.285,13.426,22.182,13.426z"/>
		</g>
		<g>
			<line class="st2" x1="20.544" y1="14.164" x2="22.182" y2="14.164"/>
			<path class="st2" d="M22.182,14.348h-1.638c-0.102,0-0.183-0.084-0.183-0.184c0-0.102,0.081-0.184,0.183-0.184h1.638
				c0.103,0,0.185,0.082,0.185,0.184C22.367,14.264,22.285,14.348,22.182,14.348z"/>
		</g>
	</g>
</g>
</svg>
