<?xml version="1.0" encoding="utf-8"?>
<!-- Generator: Adobe Illustrator 17.0.0, SVG Export Plug-In . SVG Version: 6.00 Build 0)  -->
<!DOCTYPE svg PUBLIC "-//W3C//DTD SVG 1.1//EN" "http://www.w3.org/Graphics/SVG/1.1/DTD/svg11.dtd">
<svg version="1.1" id="Layer_1" xmlns="http://www.w3.org/2000/svg" xmlns:xlink="http://www.w3.org/1999/xlink" x="0px" y="0px"
	 width="41px" height="41px" viewBox="0 0 41 41" style="enable-background:new 0 0 41 41;" xml:space="preserve">
<style type="text/css">
	.st0{opacity:0.5;}
	.st1{fill:url(#SVGID_1_);stroke:#056A38;stroke-width:0.9355;stroke-linecap:round;stroke-linejoin:round;stroke-miterlimit:10;}
	.st2{fill:#FFFFFF;}
	.st3{fill:#E6E6E6;}
	.st4{fill:#FFFFFF;stroke:#404040;stroke-width:0.1842;stroke-linecap:round;stroke-linejoin:round;stroke-miterlimit:10;}
	.st5{fill:#74BAC2;fill-opacity:0.5;}
	.st6{fill:#27AAE1;}
	.st7{fill:#1C75BC;}
	.st8{fill:#FFFFFF;stroke:#FFFFFF;stroke-width:0.3684;stroke-linecap:round;stroke-linejoin:round;stroke-miterlimit:10;}
	.st9{fill:url(#SVGID_2_);stroke:#8D313A;stroke-width:0.6188;stroke-linecap:round;stroke-linejoin:round;stroke-miterlimit:10;}
	.st10{fill:#CB4234;}
	.st11{fill:#C94233;}
	.st12{fill:#B43A2C;}
	.st13{fill:#AEC5E7;stroke:#293896;stroke-width:0.6038;stroke-linecap:round;stroke-linejoin:round;stroke-miterlimit:10;}
	.st14{fill:url(#SVGID_3_);}
	.st15{clip-path:url(#SVGID_5_);}
	.st16{opacity:0.2;fill:url(#SVGID_6_);}
	.st17{fill:url(#SVGID_7_);}
	.st18{opacity:0.3;fill:url(#SVGID_8_);}
	.st19{fill:#58595B;}
	.st20{fill:#E6E7E8;}
	.st21{fill:none;stroke:#D1D3D4;stroke-width:0.3197;stroke-miterlimit:10;}
	.st22{fill:url(#SVGID_9_);}
	.st23{fill:none;stroke:#FFFFFF;stroke-width:0.5506;stroke-linecap:round;stroke-linejoin:round;stroke-miterlimit:10;}
	.st24{fill:none;}
	.st25{fill:none;stroke:#13588F;stroke-width:0.6038;stroke-linecap:round;stroke-linejoin:round;stroke-miterlimit:10;}
	.st26{fill:#AEC5E7;stroke:#293896;stroke-width:0.6055;stroke-linecap:round;stroke-linejoin:round;stroke-miterlimit:10;}
	.st27{fill:url(#SVGID_10_);}
	.st28{clip-path:url(#SVGID_12_);}
	.st29{opacity:0.2;fill:url(#SVGID_13_);}
	.st30{fill:url(#SVGID_14_);}
	.st31{opacity:0.2;fill:url(#SVGID_15_);}
	.st32{fill:#F1F2F2;}
	.st33{fill:#BCBEC0;}
	.st34{clip-path:url(#SVGID_17_);}
	.st35{fill:#414042;}
	.st36{clip-path:url(#SVGID_19_);fill:#BCBEC0;}
	.st37{opacity:0.1;fill:url(#SVGID_20_);}
	.st38{fill:none;stroke:#13588F;stroke-width:0.6055;stroke-linecap:round;stroke-linejoin:round;stroke-miterlimit:10;}
	.st39{fill:#AEC5E7;stroke:#293896;stroke-width:0.6058;stroke-linecap:round;stroke-linejoin:round;stroke-miterlimit:10;}
	.st40{fill:url(#SVGID_21_);stroke:#056A38;stroke-width:0.9361;stroke-linecap:round;stroke-linejoin:round;stroke-miterlimit:10;}
	.st41{fill:none;stroke:#13588F;stroke-width:0.6058;stroke-linecap:round;stroke-linejoin:round;stroke-miterlimit:10;}
	.st42{clip-path:url(#SVGID_25_);}
	.st43{opacity:0.2;fill:url(#SVGID_26_);}
	.st44{fill:url(#SVGID_27_);}
	.st45{opacity:0.2;fill:url(#SVGID_28_);}
	.st46{clip-path:url(#SVGID_30_);}
	.st47{clip-path:url(#SVGID_32_);fill:#BCBEC0;}
	.st48{fill:#D1D3D4;}
	.st49{opacity:0.2;}
	.st50{fill:#A7A9AC;}
	.st51{opacity:0.1;fill:url(#SVGID_33_);}
	.st52{fill:none;stroke:#056A38;stroke-width:0.9361;stroke-linecap:round;stroke-linejoin:round;stroke-miterlimit:10;}
	.st53{fill:url(#SVGID_34_);stroke:#8D313A;stroke-width:0.6219;stroke-linecap:round;stroke-linejoin:round;stroke-miterlimit:10;}
	.st54{opacity:0.2;clip-path:url(#SVGID_36_);fill:url(#SVGID_37_);}
	.st55{clip-path:url(#SVGID_36_);fill:url(#SVGID_38_);}
	.st56{opacity:0.2;clip-path:url(#SVGID_36_);fill:url(#SVGID_39_);}
	.st57{clip-path:url(#SVGID_36_);fill:#F1F2F2;}
	.st58{clip-path:url(#SVGID_36_);fill:#BCBEC0;}
	.st59{clip-path:url(#SVGID_36_);}
	.st60{clip-path:url(#SVGID_41_);}
	.st61{clip-path:url(#SVGID_43_);fill:#BCBEC0;}
	.st62{opacity:0.5;clip-path:url(#SVGID_36_);}
	.st63{clip-path:url(#SVGID_36_);fill:#414042;}
	.st64{opacity:0.2;clip-path:url(#SVGID_36_);fill:url(#SVGID_44_);}
	.st65{clip-path:url(#SVGID_36_);fill:#E6E7E8;}
	.st66{clip-path:url(#SVGID_36_);fill:#D1D3D4;}
	.st67{clip-path:url(#SVGID_36_);fill:#A7A9AC;}
	.st68{opacity:0.1;clip-path:url(#SVGID_36_);fill:url(#SVGID_45_);}
	.st69{fill:none;stroke:#8D313A;stroke-width:0.6219;stroke-linecap:round;stroke-linejoin:round;stroke-miterlimit:10;}
	.st70{clip-path:url(#SVGID_47_);}
	.st71{fill:url(#SVGID_48_);stroke:#8D313A;stroke-width:0.6236;stroke-linecap:round;stroke-linejoin:round;stroke-miterlimit:10;}
	.st72{opacity:0.2;fill:url(#SVGID_49_);}
	.st73{fill:#414042;stroke:#000000;stroke-width:0.1876;stroke-miterlimit:10;}
	.st74{opacity:0.2;fill:url(#SVGID_50_);}
	.st75{opacity:0.2;fill:url(#SVGID_51_);}
	.st76{opacity:0.2;fill:url(#SVGID_52_);}
	.st77{fill:#919396;}
	.st78{fill:url(#SVGID_53_);}
	.st79{fill:none;stroke:#656769;stroke-width:0.1465;stroke-miterlimit:10;}
	.st80{fill:#464C52;}
	.st81{fill:url(#SVGID_54_);}
	.st82{fill:#FBFBFB;}
	.st83{fill:none;stroke:#3CBEEE;stroke-width:0.0662;stroke-miterlimit:10;}
	.st84{fill:none;stroke:#8D313A;stroke-width:0.6203;stroke-linecap:round;stroke-linejoin:round;stroke-miterlimit:10;}
	.st85{clip-path:url(#SVGID_56_);}
	.st86{fill:#AEC5E7;stroke:#293896;stroke-width:0.61;stroke-linecap:round;stroke-linejoin:round;stroke-miterlimit:10;}
	.st87{fill:url(#SVGID_57_);stroke:#056A38;stroke-width:0.9427;stroke-linecap:round;stroke-linejoin:round;stroke-miterlimit:10;}
	.st88{fill:none;stroke:#13588F;stroke-width:0.61;stroke-linecap:round;stroke-linejoin:round;stroke-miterlimit:10;}
	.st89{opacity:0.2;fill:url(#SVGID_60_);}
	.st90{fill:url(#SVGID_61_);}
	.st91{fill:url(#SVGID_62_);}
	.st92{fill:none;stroke:#3CBEEE;stroke-width:0.0686;stroke-miterlimit:10;}
	.st93{fill:none;stroke:#515254;stroke-width:0.1518;stroke-miterlimit:10;}
	.st94{fill:#3D3D3E;}
	.st95{fill:none;stroke:#056A38;stroke-width:0.9427;stroke-linecap:round;stroke-linejoin:round;stroke-miterlimit:10;}
</style>
<g>
	<g>
		<defs>
			<ellipse id="SVGID_55_" cx="20.5" cy="20.5" rx="20" ry="20.056"/>
		</defs>
		<clipPath id="SVGID_1_">
			<use xlink:href="#SVGID_55_"  style="overflow:visible;"/>
		</clipPath>
		<g style="clip-path:url(#SVGID_1_);">
			<ellipse class="st86" cx="20.527" cy="20.5" rx="20" ry="20.056"/>
			<radialGradient id="SVGID_2_" cx="20.6392" cy="20.5" r="20.0282" gradientUnits="userSpaceOnUse">
				<stop  offset="0.5" style="stop-color:#8DC642"/>
				<stop  offset="1" style="stop-color:#059348"/>
			</radialGradient>
			
				<ellipse style="fill:url(#SVGID_2_);stroke:#056A38;stroke-width:0.9427;stroke-linecap:round;stroke-linejoin:round;stroke-miterlimit:10;" cx="20.639" cy="20.5" rx="20" ry="20.056"/>
			<ellipse class="st24" cx="20.639" cy="20.5" rx="20" ry="20.056"/>
			<ellipse class="st88" cx="20.569" cy="20.5" rx="20" ry="20.056"/>
			<g>
				<defs>
					<circle id="SVGID_58_" cx="20.417" cy="20.5" r="20.056"/>
				</defs>
				<clipPath id="SVGID_3_">
					<use xlink:href="#SVGID_58_"  style="overflow:visible;"/>
				</clipPath>
			</g>
			<ellipse class="st24" cx="20.639" cy="20.5" rx="20" ry="20.056"/>
			<g>
				<g>
					<linearGradient id="SVGID_5_" gradientUnits="userSpaceOnUse" x1="5.0759" y1="20.8662" x2="35.328" y2="20.8662">
						<stop  offset="0" style="stop-color:#FFFFFF;stop-opacity:0"/>
						<stop  offset="0.0738" style="stop-color:#D8D7D7;stop-opacity:0.0702"/>
						<stop  offset="0.2169" style="stop-color:#A3A1A2;stop-opacity:0.2061"/>
						<stop  offset="0.36" style="stop-color:#797878;stop-opacity:0.342"/>
						<stop  offset="0.4999" style="stop-color:#5A5859;stop-opacity:0.4749"/>
						<stop  offset="0.6359" style="stop-color:#403D3E;stop-opacity:0.6041"/>
						<stop  offset="0.7669" style="stop-color:#282526;stop-opacity:0.7285"/>
						<stop  offset="0.8907" style="stop-color:#0D0C0C;stop-opacity:0.8462"/>
						<stop  offset="1" style="stop-color:#000000;stop-opacity:0.95"/>
					</linearGradient>
					<polygon style="opacity:0.2;fill:url(#SVGID_5_);" points="35.322,33.468 35.322,4.062 5.082,4.062 5.082,33.468 5.076,33.468 
						5.076,34.847 5.076,34.847 5.076,37.671 15.597,37.671 15.596,36.261 27.356,36.259 27.356,37.671 35.328,37.671 
						35.328,34.847 35.328,34.847 35.328,33.468 					"/>
					<rect x="6.536" y="4.497" class="st32" width="28.436" height="28.105"/>
					<rect x="7.374" y="4.811" class="st33" width="27.063" height="27.293"/>
					<rect x="6.536" y="32.602" class="st77" width="28.436" height="1.332"/>
					<linearGradient id="SVGID_6_" gradientUnits="userSpaceOnUse" x1="20.9054" y1="32.069" x2="20.9054" y2="5.1715">
						<stop  offset="0" style="stop-color:#0F0F0F;stop-opacity:0.4"/>
						<stop  offset="0.475" style="stop-color:#040404;stop-opacity:0.4977"/>
						<stop  offset="0.9721" style="stop-color:#000000;stop-opacity:0.6"/>
					</linearGradient>
					<rect x="7.374" y="5.171" style="fill:url(#SVGID_6_);" width="27.063" height="26.898"/>
					<rect x="7.374" y="4.849" class="st80" width="27.063" height="1.563"/>
					<polygon points="35.039,37.29 27.832,37.29 27.832,35.769 14.905,35.771 14.906,37.29 6.525,37.29 6.525,33.934 35.039,33.934 
											"/>
					
						<linearGradient id="SVGID_7_" gradientUnits="userSpaceOnUse" x1="1022.2573" y1="-1352.9303" x2="1022.2573" y2="-1354.2625" gradientTransform="matrix(-1 0 0 -1 1043.0391 -1320.3281)">
						<stop  offset="0" style="stop-color:#0F0F0F;stop-opacity:0"/>
						<stop  offset="0.4151" style="stop-color:#131313;stop-opacity:0.2562"/>
						<stop  offset="0.7945" style="stop-color:#1E1E1E;stop-opacity:0.4904"/>
						<stop  offset="0.9721" style="stop-color:#262626;stop-opacity:0.6"/>
					</linearGradient>
					<rect x="6.525" y="32.602" class="st17" width="28.514" height="1.332"/>
					<g>
						<path class="st82" d="M22.367,34.257c0,0.189-0.154,0.343-0.343,0.343h-2.54c-0.189,0-0.343-0.154-0.343-0.343v-0.645
							c0-0.189,0.154-0.343,0.343-0.343h2.54c0.189,0,0.343,0.154,0.343,0.343V34.257z"/>
						<path class="st92" d="M22.367,34.257c0,0.189-0.154,0.343-0.343,0.343h-2.54c-0.189,0-0.343-0.154-0.343-0.343v-0.645
							c0-0.189,0.154-0.343,0.343-0.343h2.54c0.189,0,0.343,0.154,0.343,0.343V34.257z"/>
					</g>
					<g>
						<line class="st93" x1="7.414" y1="7.481" x2="34.335" y2="7.481"/>
						<path class="st93" d="M34.335,9.243"/>
						<path class="st93" d="M7.414,9.243"/>
						<g>
							<path class="st0" d="M34.306,7.04c-0.065,0-0.119,0.053-0.119,0.118v0.076l-0.73,0.168c-0.033,0-0.061,0.027-0.061,0.061V7.7
								c0,0.033,0.027,0.06,0.061,0.06l0.73,0.169v0.076c0,0.066,0.053,0.118,0.119,0.118c0.065,0,0.119-0.053,0.119-0.118V7.158
								C34.425,7.093,34.372,7.04,34.306,7.04z"/>
							<path class="st50" d="M34.306,6.994c-0.065,0-0.119,0.053-0.119,0.119v0.076l-0.73,0.168c-0.033,0-0.061,0.027-0.061,0.061
								v0.236c0,0.034,0.027,0.06,0.061,0.06l0.73,0.169V7.96c0,0.066,0.053,0.119,0.119,0.119c0.065,0,0.119-0.053,0.119-0.119
								V7.113C34.425,7.047,34.372,6.994,34.306,6.994z"/>
						</g>
						<g>
							<path class="st0" d="M7.509,7.043c0.068,0,0.123,0.055,0.123,0.123v0.079L8.39,7.42c0.035,0,0.063,0.028,0.063,0.063v0.245
								c0,0.035-0.028,0.063-0.063,0.063L7.632,7.967v0.079c0,0.068-0.055,0.123-0.123,0.123c-0.068,0-0.123-0.055-0.123-0.123
								v-0.88C7.386,7.098,7.441,7.043,7.509,7.043z"/>
							<path class="st50" d="M7.509,6.995c0.068,0,0.123,0.055,0.123,0.123v0.079L8.39,7.372c0.035,0,0.063,0.028,0.063,0.063v0.246
								c0,0.035-0.028,0.063-0.063,0.063L7.632,7.919v0.08c0,0.068-0.055,0.123-0.123,0.123c-0.068,0-0.123-0.055-0.123-0.123v-0.88
								C7.386,7.05,7.441,6.995,7.509,6.995z"/>
						</g>
					</g>
					<g>
						<line class="st93" x1="7.414" y1="11.063" x2="34.335" y2="11.063"/>
						<path class="st93" d="M34.335,12.825"/>
						<path class="st93" d="M7.414,12.825"/>
						<g>
							<path class="st0" d="M34.306,10.622c-0.065,0-0.119,0.053-0.119,0.118v0.076l-0.73,0.168c-0.033,0-0.061,0.027-0.061,0.06
								v0.237c0,0.033,0.027,0.06,0.061,0.06l0.73,0.169v0.077c0,0.065,0.053,0.118,0.119,0.118c0.065,0,0.119-0.053,0.119-0.118
								V10.74C34.425,10.675,34.372,10.622,34.306,10.622z"/>
							<path class="st50" d="M34.306,10.576c-0.065,0-0.119,0.053-0.119,0.118v0.076l-0.73,0.169c-0.033,0-0.061,0.027-0.061,0.06
								v0.236c0,0.034,0.027,0.061,0.061,0.061l0.73,0.168v0.077c0,0.065,0.053,0.118,0.119,0.118c0.065,0,0.119-0.053,0.119-0.118
								v-0.847C34.425,10.63,34.372,10.576,34.306,10.576z"/>
						</g>
						<g>
							<path class="st0" d="M7.509,10.625c0.068,0,0.123,0.055,0.123,0.123v0.079l0.758,0.175c0.035,0,0.063,0.028,0.063,0.063
								v0.246c0,0.035-0.028,0.063-0.063,0.063l-0.758,0.175v0.08c0,0.068-0.055,0.123-0.123,0.123
								c-0.068,0-0.123-0.055-0.123-0.123v-0.88C7.386,10.68,7.441,10.625,7.509,10.625z"/>
							<path class="st50" d="M7.509,10.577c0.068,0,0.123,0.055,0.123,0.123v0.079l0.758,0.175c0.035,0,0.063,0.028,0.063,0.063
								v0.245c0,0.035-0.028,0.063-0.063,0.063l-0.758,0.175v0.079c0,0.068-0.055,0.123-0.123,0.123
								c-0.068,0-0.123-0.055-0.123-0.123V10.7C7.386,10.632,7.441,10.577,7.509,10.577z"/>
						</g>
					</g>
					<g>
						<line class="st93" x1="7.414" y1="14.829" x2="34.335" y2="14.829"/>
						<path class="st93" d="M34.335,16.591"/>
						<path class="st93" d="M7.414,16.591"/>
						<g>
							<path class="st0" d="M34.306,14.387c-0.065,0-0.119,0.053-0.119,0.118v0.076l-0.73,0.169c-0.033,0-0.061,0.027-0.061,0.06
								v0.236c0,0.034,0.027,0.06,0.061,0.06l0.73,0.169v0.076c0,0.066,0.053,0.118,0.119,0.118c0.065,0,0.119-0.053,0.119-0.118
								v-0.847C34.425,14.441,34.372,14.387,34.306,14.387z"/>
							<path class="st50" d="M34.306,14.342c-0.065,0-0.119,0.053-0.119,0.118v0.076l-0.73,0.169c-0.033,0-0.061,0.027-0.061,0.06
								v0.236c0,0.034,0.027,0.061,0.061,0.061l0.73,0.168v0.077c0,0.065,0.053,0.118,0.119,0.118c0.065,0,0.119-0.053,0.119-0.118
								V14.46C34.425,14.395,34.372,14.342,34.306,14.342z"/>
						</g>
						<g>
							<path class="st0" d="M7.509,14.39c0.068,0,0.123,0.055,0.123,0.123v0.079l0.758,0.175c0.035,0,0.063,0.028,0.063,0.063v0.246
								c0,0.035-0.028,0.063-0.063,0.063l-0.758,0.175v0.08c0,0.068-0.055,0.123-0.123,0.123c-0.068,0-0.123-0.055-0.123-0.123
								v-0.88C7.386,14.445,7.441,14.39,7.509,14.39z"/>
							<path class="st50" d="M7.509,14.343c0.068,0,0.123,0.055,0.123,0.123v0.079L8.39,14.72c0.035,0,0.063,0.028,0.063,0.063
								v0.245c0,0.035-0.028,0.063-0.063,0.063l-0.758,0.175v0.079c0,0.068-0.055,0.123-0.123,0.123
								c-0.068,0-0.123-0.055-0.123-0.123v-0.88C7.386,14.398,7.441,14.343,7.509,14.343z"/>
						</g>
					</g>
					<g>
						<line class="st93" x1="7.414" y1="18.594" x2="34.335" y2="18.594"/>
						<path class="st93" d="M34.335,20.356"/>
						<path class="st93" d="M7.414,20.356"/>
						<g>
							<path class="st0" d="M34.306,18.153c-0.065,0-0.119,0.053-0.119,0.118v0.076l-0.73,0.169c-0.033,0-0.061,0.027-0.061,0.06
								v0.236c0,0.034,0.027,0.06,0.061,0.06l0.73,0.169v0.077c0,0.065,0.053,0.118,0.119,0.118c0.065,0,0.119-0.053,0.119-0.118
								v-0.847C34.425,18.206,34.372,18.153,34.306,18.153z"/>
							<path class="st50" d="M34.306,18.108c-0.065,0-0.119,0.053-0.119,0.118v0.076l-0.73,0.169c-0.033,0-0.061,0.027-0.061,0.06
								v0.237c0,0.033,0.027,0.06,0.061,0.06l0.73,0.169v0.077c0,0.065,0.053,0.118,0.119,0.118c0.065,0,0.119-0.053,0.119-0.118
								v-0.847C34.425,18.161,34.372,18.108,34.306,18.108z"/>
						</g>
						<g>
							<path class="st0" d="M7.509,18.156c0.068,0,0.123,0.055,0.123,0.123v0.079l0.758,0.175c0.035,0,0.063,0.028,0.063,0.063
								v0.246c0,0.035-0.028,0.063-0.063,0.063L7.632,19.08v0.08c0,0.068-0.055,0.123-0.123,0.123c-0.068,0-0.123-0.055-0.123-0.123
								v-0.88C7.386,18.211,7.441,18.156,7.509,18.156z"/>
							<path class="st50" d="M7.509,18.108c0.068,0,0.123,0.055,0.123,0.123v0.079l0.758,0.175c0.035,0,0.063,0.028,0.063,0.063
								v0.245c0,0.035-0.028,0.063-0.063,0.063l-0.758,0.175v0.079c0,0.068-0.055,0.123-0.123,0.123
								c-0.068,0-0.123-0.055-0.123-0.123v-0.88C7.386,18.163,7.441,18.108,7.509,18.108z"/>
						</g>
					</g>
					<g>
						<line class="st93" x1="7.414" y1="22.36" x2="34.335" y2="22.36"/>
						<g>
							<path class="st0" d="M34.306,21.919c-0.065,0-0.119,0.053-0.119,0.118v0.076l-0.73,0.169c-0.033,0-0.061,0.027-0.061,0.06
								v0.237c0,0.034,0.027,0.06,0.061,0.06l0.73,0.169v0.076c0,0.066,0.053,0.119,0.119,0.119c0.065,0,0.119-0.053,0.119-0.119
								v-0.847C34.425,21.972,34.372,21.919,34.306,21.919z"/>
							<path class="st50" d="M34.306,21.873c-0.065,0-0.119,0.053-0.119,0.118v0.076l-0.73,0.169c-0.033,0-0.061,0.027-0.061,0.06
								v0.236c0,0.034,0.027,0.06,0.061,0.06l0.73,0.169v0.077c0,0.065,0.053,0.118,0.119,0.118c0.065,0,0.119-0.053,0.119-0.118
								v-0.847C34.425,21.926,34.372,21.873,34.306,21.873z"/>
						</g>
						<g>
							<path class="st0" d="M7.509,21.921c0.068,0,0.123,0.055,0.123,0.123v0.079l0.758,0.175c0.035,0,0.063,0.028,0.063,0.063
								v0.246c0,0.035-0.028,0.063-0.063,0.063l-0.758,0.175v0.08c0,0.068-0.055,0.123-0.123,0.123
								c-0.068,0-0.123-0.055-0.123-0.123v-0.88C7.386,21.976,7.441,21.921,7.509,21.921z"/>
							<path class="st50" d="M7.509,21.874c0.068,0,0.123,0.055,0.123,0.123v0.079l0.758,0.175c0.035,0,0.063,0.028,0.063,0.063
								v0.245c0,0.035-0.028,0.063-0.063,0.063l-0.758,0.175v0.079C7.632,22.945,7.577,23,7.509,23
								c-0.068,0-0.123-0.055-0.123-0.123v-0.88C7.386,21.929,7.441,21.874,7.509,21.874z"/>
						</g>
					</g>
					<g>
						<line class="st93" x1="7.414" y1="26.125" x2="34.335" y2="26.125"/>
						<path class="st93" d="M34.335,27.887"/>
						<path class="st93" d="M7.414,27.887"/>
						<g>
							<path class="st0" d="M34.306,25.684c-0.065,0-0.119,0.053-0.119,0.118v0.076l-0.73,0.168c-0.033,0-0.061,0.027-0.061,0.06
								v0.236c0,0.033,0.027,0.06,0.061,0.06l0.73,0.169v0.076c0,0.066,0.053,0.119,0.119,0.119c0.065,0,0.119-0.053,0.119-0.119
								v-0.847C34.425,25.737,34.372,25.684,34.306,25.684z"/>
							<path class="st50" d="M34.306,25.639c-0.065,0-0.119,0.053-0.119,0.118v0.076l-0.73,0.169c-0.033,0-0.061,0.027-0.061,0.06
								v0.236c0,0.033,0.027,0.06,0.061,0.06l0.73,0.169v0.077c0,0.065,0.053,0.118,0.119,0.118c0.065,0,0.119-0.053,0.119-0.118
								v-0.847C34.425,25.692,34.372,25.639,34.306,25.639z"/>
						</g>
						<g>
							<path class="st0" d="M7.509,25.687c0.068,0,0.123,0.055,0.123,0.123v0.079l0.758,0.175c0.035,0,0.063,0.028,0.063,0.063
								v0.246c0,0.035-0.028,0.063-0.063,0.063l-0.758,0.175v0.079c0,0.068-0.055,0.123-0.123,0.123
								c-0.068,0-0.123-0.055-0.123-0.123v-0.88C7.386,25.742,7.441,25.687,7.509,25.687z"/>
							<path class="st50" d="M7.509,25.639c0.068,0,0.123,0.055,0.123,0.123v0.079l0.758,0.175c0.035,0,0.063,0.028,0.063,0.063
								v0.245c0,0.035-0.028,0.063-0.063,0.063l-0.758,0.175v0.079c0,0.068-0.055,0.123-0.123,0.123
								c-0.068,0-0.123-0.055-0.123-0.123v-0.88C7.386,25.695,7.441,25.639,7.509,25.639z"/>
						</g>
					</g>
					<g>
						<line class="st93" x1="7.414" y1="29.891" x2="34.335" y2="29.891"/>
						<g>
							<path class="st0" d="M34.306,29.45c-0.065,0-0.119,0.053-0.119,0.118v0.076l-0.73,0.168c-0.033,0-0.061,0.027-0.061,0.06
								v0.236c0,0.033,0.027,0.06,0.061,0.06l0.73,0.169v0.076c0,0.066,0.053,0.119,0.119,0.119c0.065,0,0.119-0.053,0.119-0.119
								v-0.847C34.425,29.503,34.372,29.45,34.306,29.45z"/>
							<path class="st50" d="M34.306,29.404c-0.065,0-0.119,0.053-0.119,0.118v0.076l-0.73,0.169c-0.033,0-0.061,0.027-0.061,0.06
								v0.236c0,0.034,0.027,0.06,0.061,0.06l0.73,0.169v0.077c0,0.065,0.053,0.118,0.119,0.118c0.065,0,0.119-0.053,0.119-0.118
								v-0.847C34.425,29.457,34.372,29.404,34.306,29.404z"/>
						</g>
						<g>
							<path class="st0" d="M7.509,29.452c0.068,0,0.123,0.055,0.123,0.123v0.079L8.39,29.83c0.035,0,0.063,0.028,0.063,0.063v0.246
								c0,0.035-0.028,0.063-0.063,0.063l-0.758,0.175v0.079c0,0.068-0.055,0.123-0.123,0.123c-0.068,0-0.123-0.055-0.123-0.123
								v-0.88C7.386,29.507,7.441,29.452,7.509,29.452z"/>
							<path class="st50" d="M7.509,29.405c0.068,0,0.123,0.055,0.123,0.123v0.079l0.758,0.175c0.035,0,0.063,0.028,0.063,0.063
								v0.245c0,0.035-0.028,0.063-0.063,0.063l-0.758,0.175v0.079c0,0.068-0.055,0.123-0.123,0.123
								c-0.068,0-0.123-0.055-0.123-0.123v-0.88C7.386,29.46,7.441,29.405,7.509,29.405z"/>
						</g>
					</g>
					<g>
						<rect x="19.452" y="31.612" class="st0" width="2.931" height="0.997"/>
						<rect x="19.452" y="31.53" class="st50" width="2.849" height="0.997"/>
					</g>
					<g>
						<circle class="st94" cx="33.56" cy="9.243" r="0.163"/>
						<circle class="st94" cx="8.082" cy="9.243" r="0.163"/>
					</g>
					<g>
						<circle class="st94" cx="33.56" cy="12.988" r="0.163"/>
						<circle class="st94" cx="8.082" cy="12.988" r="0.163"/>
					</g>
					<g>
						<circle class="st94" cx="33.56" cy="16.733" r="0.163"/>
						<circle class="st94" cx="8.082" cy="16.733" r="0.163"/>
					</g>
					<g>
						<circle class="st94" cx="33.56" cy="20.477" r="0.163"/>
						<circle class="st94" cx="8.082" cy="20.477" r="0.163"/>
					</g>
					<g>
						<circle class="st94" cx="33.56" cy="24.222" r="0.163"/>
						<circle class="st94" cx="8.082" cy="24.222" r="0.163"/>
					</g>
					<g>
						<circle class="st94" cx="33.56" cy="27.967" r="0.163"/>
						<circle class="st94" cx="8.082" cy="27.967" r="0.163"/>
					</g>
					<g>
						<circle class="st94" cx="33.56" cy="31.223" r="0.163"/>
						<circle class="st94" cx="8.082" cy="31.223" r="0.163"/>
					</g>
				</g>
				<g class="st0">
					<path class="st2" d="M12.116,31.373c0,0.165-0.135,0.299-0.299,0.299H9.471c-0.165,0-0.299-0.135-0.299-0.299v-0.3
						c0-0.165,0.135-0.299,0.299-0.299h2.346c0.165,0,0.299,0.135,0.299,0.299V31.373z"/>
				</g>
			</g>
		</g>
	</g>
	<ellipse class="st95" cx="20.5" cy="20.5" rx="20" ry="20.056"/>
</g>
</svg>
