<?xml version="1.0" encoding="utf-8"?>
<!-- Generator: Adobe Illustrator 16.0.0, SVG Export Plug-In . SVG Version: 6.00 Build 0)  -->
<!DOCTYPE svg PUBLIC "-//W3C//DTD SVG 1.1//EN" "http://www.w3.org/Graphics/SVG/1.1/DTD/svg11.dtd">
<svg version="1.1" id="Layer_1" xmlns="http://www.w3.org/2000/svg" xmlns:xlink="http://www.w3.org/1999/xlink" x="0px" y="0px"
	 width="40.32px" height="40.32px" viewBox="0 0 40.32 40.32" style="enable-background:new 0 0 40.32 40.32;" xml:space="preserve"
	>
<circle style="opacity:0.5;" cx="20.533" cy="20.533" r="18.627"/>
<linearGradient id="SVGID_1_" gradientUnits="userSpaceOnUse" x1="19.814" y1="41.0674" x2="19.814" y2="-4.8908">
	<stop  offset="0" style="stop-color:#F7941E"/>
	<stop  offset="1" style="stop-color:#F9ED32"/>
</linearGradient>
<circle style="fill:url(#SVGID_1_);stroke:#905501;stroke-width:0.6494;stroke-linecap:round;stroke-linejoin:round;stroke-miterlimit:10;" cx="19.813" cy="20.161" r="18.627"/>
<g>
	<path style="opacity:0.5;" d="M54.174,29.635c-2.943,0-5.188,0.83-6.666,2.479c-2.467,2.752-2.013,6.942-1.84,8.519
		c0,0.024,0.007,0.052,0.007,0.077c-0.907,1.109-0.88,2.837-0.425,4.098c0.336,0.912,0.876,1.559,1.521,1.847
		c0.619,2.702,2.311,4.782,2.99,5.536c-0.039,0.545-0.151,1.094-0.271,1.317c-2.938,0.563-13.97,5.221-13.97,10.97v0.9h0.902h17.751
		h17.751h0.902v-0.9c0-5.746-11.03-10.406-13.972-10.97c-0.118-0.221-0.233-0.78-0.271-1.317c0.679-0.754,2.368-2.834,2.99-5.536
		c0.645-0.288,1.185-0.935,1.521-1.847c0.454-1.261,0.48-2.988-0.425-4.098c0-0.025,0.008-0.053,0.008-0.077
		c0.173-1.576,0.626-5.767-1.841-8.519C59.359,30.465,57.115,29.635,54.174,29.635L54.174,29.635z"/>
	<linearGradient id="SVGID_2_" gradientUnits="userSpaceOnUse" x1="53.4805" y1="66.293" x2="53.4805" y2="18.2605">
		<stop  offset="0" style="stop-color:#BE1E2D"/>
		<stop  offset="0.4302" style="stop-color:#EF4130"/>
	</linearGradient>
	
		<path style="fill:url(#SVGID_2_);stroke:#8D3038;stroke-width:0.7162;stroke-linecap:round;stroke-linejoin:round;stroke-miterlimit:10;" d="
		M53.48,28.943c-2.944,0-5.188,0.83-6.666,2.479c-2.467,2.751-2.012,6.941-1.84,8.518c0,0.024,0.007,0.052,0.007,0.077
		c-0.907,1.109-0.88,2.837-0.423,4.099c0.334,0.911,0.874,1.559,1.52,1.846c0.62,2.704,2.311,4.784,2.99,5.535
		c-0.039,0.545-0.152,1.097-0.271,1.317c-2.938,0.563-13.97,5.221-13.97,10.97v0.902h0.902H53.48h17.752h0.901v-0.902
		c0-5.746-11.029-10.406-13.972-10.97c-0.118-0.221-0.231-0.777-0.271-1.317c0.68-0.751,2.368-2.831,2.99-5.535
		c0.646-0.287,1.184-0.935,1.52-1.846c0.455-1.262,0.481-2.989-0.423-4.099c0-0.025,0.007-0.053,0.007-0.077
		c0.173-1.576,0.625-5.767-1.842-8.518C58.666,29.773,56.422,28.943,53.48,28.943L53.48,28.943z"/>
</g>
<g>
</g>
<g>
	<path style="opacity:0.8;" d="M19.813,30.739l-3.687-3.687c2.036-2.036,5.337-2.036,7.373,0L19.813,30.739z"/>
	<path style="opacity:0.8;" d="M25.343,25.207c-3.05-3.05-8.014-3.047-11.061,0.002l-3.686-3.689
		c5.083-5.078,13.353-5.08,18.434,0.002L25.343,25.207z"/>
	<path style="opacity:0.8;" d="M30.875,19.678c-6.1-6.097-16.023-6.097-22.122,0l-3.687-3.685c8.133-8.129,21.366-8.129,29.494,0
		L30.875,19.678z"/>
	<path style="fill:#281E18;" d="M19.813,30.426l-3.687-3.687c2.036-2.036,5.337-2.036,7.373,0L19.813,30.426z"/>
	<path style="fill:#281E18;" d="M25.343,24.893c-3.05-3.05-8.014-3.047-11.061,0.003l-3.686-3.69
		c5.083-5.077,13.353-5.08,18.434,0.002L25.343,24.893z"/>
	<path style="fill:#281E18;" d="M30.875,19.364c-6.1-6.097-16.023-6.097-22.122,0l-3.687-3.686c8.133-8.129,21.366-8.129,29.494,0
		L30.875,19.364z"/>
</g>
</svg>
