<?xml version="1.0" encoding="utf-8"?>
<!-- Generator: Adobe Illustrator 17.0.0, SVG Export Plug-In . SVG Version: 6.00 Build 0)  -->
<!DOCTYPE svg PUBLIC "-//W3C//DTD SVG 1.1//EN" "http://www.w3.org/Graphics/SVG/1.1/DTD/svg11.dtd">
<svg version="1.1" id="Layer_1" xmlns="http://www.w3.org/2000/svg" xmlns:xlink="http://www.w3.org/1999/xlink" x="0px" y="0px"
	 width="45.953px" height="45.953px" viewBox="0 0 45.953 45.953" enable-background="new 0 0 45.953 45.953" xml:space="preserve">
<g>
	<linearGradient id="SVGID_1_" gradientUnits="userSpaceOnUse" x1="22.9767" y1="45.5087" x2="22.9767" y2="0.6046">
		<stop  offset="0" style="stop-color:#059347"/>
		<stop  offset="0.4302" style="stop-color:#8CC541"/>
	</linearGradient>
	
		<circle fill="url(#SVGID_1_)" stroke="#046938" stroke-width="0.7873" stroke-linecap="round" stroke-linejoin="round" stroke-miterlimit="10" cx="22.976" cy="22.976" r="22.583"/>
	<g>
		<defs>
			<circle id="SVGID_2_" cx="22.976" cy="22.976" r="22.129"/>
		</defs>
		<clipPath id="SVGID_3_">
			<use xlink:href="#SVGID_2_"  overflow="visible"/>
		</clipPath>
		<g clip-path="url(#SVGID_3_)">
			<path opacity="0.5" d="M21.406,4.411c0-0.391-0.317-0.708-0.708-0.708H-5.885c-0.391,0-0.708,0.317-0.708,0.708v37.825
				c0,0.391,0.317,0.708,0.708,0.708h26.583c0.391,0,0.708-0.317,0.708-0.708V4.411z"/>
			<linearGradient id="SVGID_4_" gradientUnits="userSpaceOnUse" x1="6.4787" y1="44.2276" x2="6.4787" y2="1.4234">
				<stop  offset="0" style="stop-color:#D1D2D3"/>
				<stop  offset="1" style="stop-color:#F2F2F2"/>
			</linearGradient>
			<path fill="url(#SVGID_4_)" stroke="#E7E7E7" stroke-width="0.4973" stroke-miterlimit="10" d="M20.478,4.201
				c0-0.391-0.317-0.708-0.708-0.708H-6.813c-0.391,0-0.708,0.317-0.708,0.708v37.825c0,0.391,0.317,0.708,0.708,0.708H19.77
				c0.391,0,0.708-0.317,0.708-0.708V4.201z"/>
			<rect x="-5.92" y="11.657" fill="#BCBEC0" width="24.797" height="1.194"/>
			<rect x="-5.92" y="13.767" fill="#BCBEC0" width="24.797" height="1.194"/>
			<rect x="6.202" y="5.382" fill="#BCBEC0" width="12.675" height="1.194"/>
			<rect x="6.202" y="7.491" fill="#BCBEC0" width="12.675" height="1.194"/>
			<rect x="-5.92" y="15.876" fill="#BCBEC0" width="24.797" height="1.194"/>
			<rect x="-5.92" y="17.986" fill="#BCBEC0" width="24.797" height="1.194"/>
			<rect x="-5.92" y="20.096" fill="#BCBEC0" width="24.797" height="1.194"/>
			<rect x="-5.92" y="22.206" fill="#BCBEC0" width="24.797" height="1.194"/>
			<rect x="10.744" y="24.668" fill="#A7A9AC" width="8.133" height="1.194"/>
			<rect x="10.744" y="26.778" fill="#A7A9AC" width="8.133" height="1.194"/>
			<rect x="10.744" y="28.888" fill="#A7A9AC" width="8.133" height="1.194"/>
			<linearGradient id="SVGID_5_" gradientUnits="userSpaceOnUse" x1="6.1909" y1="42.5715" x2="6.1909" y2="3.5865">
				<stop  offset="0" style="stop-color:#D1D2D3"/>
				<stop  offset="1" style="stop-color:#F2F2F2"/>
			</linearGradient>
			<path fill="url(#SVGID_5_)" d="M8.119,35.223H4.62c-0.49,0-0.846-0.356-0.846-0.846v-2.038c-0.792-0.123-1.663-0.343-2.754-0.691
				L-0.702,31.1c-0.002-0.001-0.004-0.001-0.007-0.002c-0.475-0.158-0.687-0.54-0.566-1.021c0.004-0.017,0.009-0.033,0.015-0.049
				l1.044-2.898c0.001-0.002,0.002-0.004,0.002-0.006c0.192-0.512,0.586-0.567,0.747-0.567c0.099,0,0.201,0.019,0.305,0.055
				l1.814,0.544c1.391,0.424,2.487,0.605,3.666,0.605c1.854,0,2.104-0.615,2.104-1.216c0-0.567-1.1-1.106-2.024-1.459l-2.193-0.835
				c-1.961-0.73-3.189-1.442-3.976-2.306c-0.841-0.922-1.232-2.082-1.232-3.65c0-1.488,0.443-2.74,1.316-3.721
				c0.768-0.862,1.834-1.474,3.174-1.823v-2.21c0-0.49,0.356-0.846,0.846-0.846h3.472c0.49,0,0.846,0.356,0.846,0.846v2.109
				c0.668,0.129,1.305,0.293,1.899,0.491l1.723,0.574c0.475,0.158,0.686,0.54,0.566,1.021c-0.004,0.017-0.01,0.035-0.016,0.051
				l-1.07,2.924c-0.193,0.516-0.588,0.571-0.748,0.571c-0.099,0-0.202-0.019-0.306-0.056l-1.527-0.466
				c-0.91-0.273-1.9-0.526-2.959-0.526c-1.147,0-1.947,0.436-1.947,1.06c0,0.528,0.441,0.843,1.966,1.404l2.193,0.809
				c1.986,0.743,3.227,1.47,4.029,2.358c0.844,0.936,1.237,2.104,1.237,3.678c0,1.594-0.45,2.906-1.336,3.898
				c-0.801,0.896-1.94,1.508-3.389,1.82v2.114C8.965,34.867,8.609,35.223,8.119,35.223z"/>
			<path fill="#8DC63F" d="M8.249,20.984c3.629,1.358,4.934,2.715,4.934,5.561c0,2.95-1.645,4.778-4.726,5.3v2.532
				c0,0.209-0.13,0.339-0.339,0.339H4.62c-0.209,0-0.339-0.13-0.339-0.339v-2.48c-0.914-0.104-1.88-0.339-3.107-0.731l-1.723-0.548
				c-0.235-0.078-0.287-0.209-0.235-0.418l1.044-2.898c0.078-0.209,0.209-0.287,0.418-0.209l1.828,0.548
				c1.54,0.47,2.689,0.626,3.812,0.626c1.41,0,2.611-0.339,2.611-1.723c0-0.783-0.914-1.384-2.349-1.932l-2.193-0.835
				c-3.577-1.332-4.882-2.637-4.882-5.483c0-2.767,1.671-4.543,4.49-5.143v-2.611c0-0.209,0.131-0.339,0.34-0.339h3.472
				c0.209,0,0.339,0.131,0.339,0.339v2.532c0.783,0.131,1.54,0.313,2.245,0.548l1.723,0.574c0.235,0.078,0.287,0.209,0.235,0.418
				l-1.07,2.924c-0.078,0.209-0.209,0.287-0.418,0.209l-1.54-0.47c-1.044-0.313-2.037-0.548-3.107-0.548
				c-1.462,0-2.454,0.627-2.454,1.566c0,0.914,0.809,1.332,2.297,1.88L8.249,20.984z"/>
		</g>
	</g>
	<path opacity="0.5" d="M35.322,15.822l-1.302,1.303l6.186,6.186l-6.002,6.002l1.302,1.302l7.313-7.313L41.516,22l-0.009,0.009
		L35.322,15.822z M23.956,22.429v1.841h12.756v-1.841H23.956z"/>
	<linearGradient id="SVGID_6_" gradientUnits="userSpaceOnUse" x1="33.3875" y1="31.1237" x2="33.3875" y2="15.371">
		<stop  offset="0" style="stop-color:#D1D2D3"/>
		<stop  offset="1" style="stop-color:#F2F2F2"/>
	</linearGradient>
	<path fill="url(#SVGID_6_)" stroke="#E7E7E7" stroke-width="0.3903" stroke-miterlimit="10" d="M35.322,15.221l-1.302,1.303
		l6.186,6.186l-6.002,6.002l1.302,1.302l7.313-7.313l-1.303-1.302l-0.009,0.009L35.322,15.221z M23.956,21.828v1.841h12.756v-1.841
		H23.956z"/>
</g>
</svg>
