<?xml version="1.0" encoding="utf-8"?>
<!-- Generator: Adobe Illustrator 17.0.0, SVG Export Plug-In . SVG Version: 6.00 Build 0)  -->
<!DOCTYPE svg PUBLIC "-//W3C//DTD SVG 1.1//EN" "http://www.w3.org/Graphics/SVG/1.1/DTD/svg11.dtd">
<svg version="1.1" id="Layer_1" xmlns="http://www.w3.org/2000/svg" xmlns:xlink="http://www.w3.org/1999/xlink" x="0px" y="0px"
	 width="50px" height="50px" viewBox="0 0 50 50" style="enable-background:new 0 0 50 50;" xml:space="preserve">
<style type="text/css">
	.st0{fill:#58595B;}
	.st1{fill:#808285;}
	.st2{fill:#F1F2F2;}
	.st3{fill:#EF4136;}
	.st4{fill:#39B54A;}
	.st5{fill:#FBB040;}
	.st6{fill:#BE1E2D;}
	.st7{fill:#F15A29;}
	.st8{fill:#D72027;}
	.st9{fill:#ED1C24;}
	.st10{clip-path:url(#SVGID_2_);}
	.st11{opacity:0.8;}
	.st12{fill:#010101;}
	.st13{opacity:0.3;}
	.st14{clip-path:url(#SVGID_4_);}
	.st15{fill:#F15F4F;}
	.st16{opacity:0.5;fill:#FFFEF2;}
	.st17{fill:#E6E7E8;}
	.st18{fill:url(#SVGID_5_);}
	.st19{fill:url(#SVGID_6_);}
	.st20{fill:url(#SVGID_7_);}
	.st21{opacity:0.9;}
	.st22{clip-path:url(#SVGID_9_);}
	.st23{opacity:0.3;fill:#F1F2F2;}
	.st24{opacity:0.2;}
	.st25{clip-path:url(#SVGID_11_);}
	.st26{fill-rule:evenodd;clip-rule:evenodd;fill:#00A79D;}
	.st27{fill-rule:evenodd;clip-rule:evenodd;fill:#00645E;}
	.st28{fill-rule:evenodd;clip-rule:evenodd;fill:#061918;}
	.st29{fill-rule:evenodd;clip-rule:evenodd;fill:#032828;}
	.st30{fill-rule:evenodd;clip-rule:evenodd;fill:#252626;}
	.st31{fill-rule:evenodd;clip-rule:evenodd;fill:#D8D9D9;}
	.st32{fill-rule:evenodd;clip-rule:evenodd;fill:#3C3B39;}
	.st33{fill:#474646;}
	.st34{fill:#626363;}
	.st35{fill:#FFFFFF;}
	.st36{fill-rule:evenodd;clip-rule:evenodd;fill:#E1F4FD;}
	.st37{fill:#FFCB06;}
	.st38{fill-rule:evenodd;clip-rule:evenodd;fill:#D34527;}
	.st39{fill-rule:evenodd;clip-rule:evenodd;fill:#2B3990;}
	.st40{fill-rule:evenodd;clip-rule:evenodd;fill:#111356;}
	.st41{fill-rule:evenodd;clip-rule:evenodd;fill:#FFD540;}
	.st42{fill-rule:evenodd;clip-rule:evenodd;fill:#EF413D;}
	.st43{opacity:0.5;}
	.st44{opacity:0.5;clip-path:url(#SVGID_13_);fill-rule:evenodd;clip-rule:evenodd;}
	.st45{opacity:0.2;clip-path:url(#SVGID_13_);fill-rule:evenodd;clip-rule:evenodd;}
	.st46{opacity:0.3;clip-path:url(#SVGID_13_);fill-rule:evenodd;clip-rule:evenodd;}
	.st47{opacity:0.6;clip-path:url(#SVGID_13_);fill-rule:evenodd;clip-rule:evenodd;}
	.st48{opacity:0.1;clip-path:url(#SVGID_15_);fill:#F1F2F2;}
	.st49{opacity:0.2;clip-path:url(#SVGID_15_);}
	.st50{fill:#414042;}
	.st51{fill:#D1D3D4;}
	
		.st52{opacity:0.8;fill:none;stroke:#FFF200;stroke-width:0.8036;stroke-linecap:round;stroke-linejoin:round;stroke-miterlimit:10;}
	.st53{fill:none;}
	.st54{opacity:0.7;clip-path:url(#SVGID_17_);}
	.st55{opacity:0.5;clip-path:url(#SVGID_17_);}
	.st56{opacity:0.1;clip-path:url(#SVGID_19_);fill:#F1F2F2;}
	.st57{opacity:0.2;clip-path:url(#SVGID_19_);}
	.st58{opacity:0.7;clip-path:url(#SVGID_21_);}
	.st59{opacity:0.5;clip-path:url(#SVGID_21_);}
	.st60{opacity:0.4;clip-path:url(#SVGID_23_);}
	.st61{fill:url(#SVGID_24_);}
	.st62{clip-path:url(#SVGID_26_);}
	.st63{fill:#EF413D;}
	.st64{fill:url(#SVGID_27_);}
	.st65{clip-path:url(#SVGID_29_);}
	.st66{fill:#14192D;}
	.st67{fill:url(#SVGID_30_);}
	.st68{clip-path:url(#SVGID_32_);}
	.st69{fill:url(#SVGID_33_);}
	.st70{clip-path:url(#SVGID_35_);}
	.st71{clip-path:url(#SVGID_37_);}
	.st72{opacity:0.2;fill:#414042;}
	.st73{clip-path:url(#SVGID_39_);fill:#58595B;}
	.st74{opacity:0.3;clip-path:url(#SVGID_41_);}
	.st75{fill:#00A79D;}
	.st76{fill:#281E18;}
	.st77{clip-path:url(#SVGID_43_);}
	.st78{fill:#594A42;}
	.st79{clip-path:url(#SVGID_45_);}
	.st80{fill:#323C55;}
	.st81{fill:none;stroke:#262262;stroke-width:0.1695;stroke-linecap:round;stroke-linejoin:round;}
	.st82{fill:none;stroke:#262262;stroke-width:0.1695;stroke-linecap:round;stroke-linejoin:round;stroke-dasharray:0.3331,0.3331;}
	.st83{clip-path:url(#SVGID_47_);}
	.st84{opacity:0.5;clip-path:url(#SVGID_47_);}
	.st85{clip-path:url(#SVGID_49_);}
	.st86{opacity:0.1;}
	.st87{clip-path:url(#SVGID_51_);}
	.st88{fill:#8DC63F;}
	.st89{clip-path:url(#SVGID_53_);}
	.st90{clip-path:url(#SVGID_55_);fill:#58595B;}
	.st91{opacity:0.3;clip-path:url(#SVGID_57_);}
	.st92{clip-path:url(#SVGID_59_);}
	.st93{clip-path:url(#SVGID_61_);}
	.st94{fill:none;stroke:#262262;stroke-width:0.1695;stroke-linecap:round;stroke-linejoin:round;stroke-dasharray:0.3332,0.3332;}
	.st95{clip-path:url(#SVGID_63_);}
	.st96{opacity:0.5;clip-path:url(#SVGID_63_);}
	.st97{clip-path:url(#SVGID_65_);}
	.st98{clip-path:url(#SVGID_67_);}
	.st99{fill:url(#SVGID_68_);}
	.st100{clip-path:url(#SVGID_70_);}
	.st101{fill:url(#SVGID_71_);}
	.st102{clip-path:url(#SVGID_73_);}
	.st103{fill:url(#SVGID_74_);}
	.st104{clip-path:url(#SVGID_76_);}
</style>
<g>
	<defs>
		<path id="SVGID_10_" d="M50,39.1c0,6-4.9,10.9-10.9,10.9H10.9C4.9,50,0,45.1,0,39.1V10.9C0,4.9,4.9,0,10.9,0h28.2
			C45.1,0,50,4.9,50,10.9V39.1z"/>
	</defs>
	<clipPath id="SVGID_2_">
		<use xlink:href="#SVGID_10_"  style="overflow:visible;"/>
	</clipPath>
	<g class="st10">
		<path class="st26" d="M56,13.8c2.2-1.6,4.3-3.3,6.5-4.9c7-5.3,14.3-5.7,26.8-5.7c15.6,0,21.4,2,31.5,6.5c3.7,1.6,5.6,3.3,9.6,4.2
			c3.6,0.8,8.3,1.5,8.3,5.2v10.1c0,3.7-3.1,6.8-6.8,6.8H32.3c-1.9,0-3.6-0.8-4.8-2c-1.2-1.2-2-2.9-2-4.8l0-6.3
			C25.6,13.7,48.5,14.7,56,13.8z"/>
		<path class="st26" d="M56,13.8c2.2-1.6,4.3-3.3,6.5-4.9c7-5.3,14.3-5.7,26.8-5.7c15.6,0,21.4,2,31.5,6.5c3.7,1.6,5.6,3.3,9.6,4.2
			c3.3,0.7,7.5,1.4,8.2,4.3h-110C35.1,14.1,50.2,14.5,56,13.8z"/>
		<path class="st27" d="M59.8,35.9h-27c-0.1-0.6-0.1-1.1-0.1-1.7c0-7.5,6.1-13.6,13.6-13.6c7.5,0,13.6,6.1,13.6,13.6
			C59.9,34.8,59.8,35.3,59.8,35.9z"/>
		<path class="st27" d="M138.7,29.1c0,3.7-3.1,6.8-6.8,6.8H32.3c-3.7,0-6.8-3-6.8-6.8H138.7z"/>
		<path class="st28" d="M128,35.9h-20.7H56.6H35.9h-3.6c-2,0-3.7-0.9-5-2.2v-0.3h8.5c0.4-5.4,4.9-9.6,10.4-9.6
			c5.5,0,10,4.2,10.4,9.6h50.5c0.4-5.4,4.9-9.6,10.4-9.6c5.5,0,10,4.2,10.4,9.6h9.1c-1.2,1.5-3.2,2.5-5.3,2.5H128z"/>
		<path class="st30" d="M46.8,42.8c4.7,0,8.5-3.8,8.5-8.5s-3.8-8.5-8.5-8.5c-4.7,0-8.5,3.8-8.5,8.5S42.1,42.8,46.8,42.8z"/>
		<path class="st31" d="M46.3,39.4c2.8,0,5.2-2.3,5.2-5.2S49.1,29,46.3,29c-2.8,0-5.2,2.3-5.2,5.2S43.4,39.4,46.3,39.4z"/>
		<path class="st32" d="M43.7,34.2c0,1.4,1.2,2.6,2.6,2.6c1.4,0,2.6-1.2,2.6-2.6h0c0-1.4-1.2-2.6-2.6-2.6
			C44.8,31.6,43.7,32.8,43.7,34.2z"/>
		<path class="st32" d="M46.3,29.8c-0.3,0-0.5,0.2-0.5,0.5c0,0.3,0.2,0.5,0.5,0.5l0,0c0.3,0,0.5-0.2,0.5-0.5
			C46.8,30,46.6,29.8,46.3,29.8z"/>
		<path class="st32" d="M46.3,37.6c-0.3,0-0.5,0.2-0.5,0.5c0,0.3,0.2,0.5,0.5,0.5l0,0c0.3,0,0.5-0.2,0.5-0.5
			C46.8,37.8,46.6,37.6,46.3,37.6z"/>
		<path class="st32" d="M50.7,34.2c0-0.3-0.2-0.5-0.5-0.5c-0.3,0-0.5,0.2-0.5,0.5l0,0c0,0.3,0.2,0.5,0.5,0.5
			C50.4,34.7,50.7,34.5,50.7,34.2z"/>
		<path class="st32" d="M42.9,34.2c0-0.3-0.2-0.5-0.5-0.5c-0.3,0-0.5,0.2-0.5,0.5l0,0c0,0.3,0.2,0.5,0.5,0.5
			C42.7,34.7,42.9,34.5,42.9,34.2z"/>
		<path class="st32" d="M49.4,31.1c-0.2-0.2-0.5-0.2-0.7,0c-0.2,0.2-0.2,0.5,0,0.7h0c0.2,0.2,0.5,0.2,0.7,0
			C49.6,31.6,49.6,31.3,49.4,31.1z"/>
		<path class="st32" d="M43.9,36.6c-0.2-0.2-0.5-0.2-0.7,0c-0.2,0.2-0.2,0.5,0,0.7v0c0.2,0.2,0.5,0.2,0.7,0
			C44.1,37.1,44.1,36.8,43.9,36.6z"/>
		<path class="st32" d="M43.2,31.1c0.2-0.2,0.5-0.2,0.7,0c0.2,0.2,0.2,0.5,0,0.7l0,0c-0.2,0.2-0.5,0.2-0.7,0
			C43,31.6,43,31.3,43.2,31.1z"/>
		<path class="st32" d="M48.6,36.6c0.2-0.2,0.5-0.2,0.7,0c0.2,0.2,0.2,0.5,0,0.7v0c-0.2,0.2-0.5,0.2-0.7,0
			C48.4,37.1,48.4,36.8,48.6,36.6z"/>
		<path class="st33" d="M39.8,31.9c-0.1,0-0.1,0-0.2,0c-0.2-0.1-0.3-0.3-0.2-0.5c0.4-0.9,0.9-1.7,1.6-2.4c0.7-0.7,1.5-1.2,2.4-1.6
			c0.9-0.4,1.9-0.6,2.9-0.6c1,0,2,0.2,2.9,0.6c0.9,0.4,1.7,0.9,2.4,1.6c0.7,0.7,1.2,1.5,1.6,2.4c0.1,0.2,0,0.4-0.2,0.5
			c-0.2,0.1-0.4,0-0.5-0.2c-0.3-0.8-0.8-1.5-1.4-2.1c-0.6-0.6-1.3-1.1-2.1-1.4c-0.8-0.3-1.7-0.5-2.6-0.5c-0.9,0-1.8,0.2-2.6,0.5
			c-0.8,0.3-1.5,0.8-2.1,1.4c-0.6,0.6-1.1,1.3-1.4,2.1C40.1,31.8,40,31.9,39.8,31.9z"/>
		<path class="st34" d="M46.3,35.8c-0.9,0-1.6-0.7-1.6-1.6c0-0.9,0.7-1.6,1.6-1.6c0.8,0,1.4,0.5,1.6,1.2h0l0,0.4
			C47.9,35.1,47.2,35.8,46.3,35.8z M46.3,33.4c-0.5,0-0.8,0.4-0.8,0.8c0,0.5,0.4,0.8,0.8,0.8c0.4,0,0.8-0.4,0.8-0.8v0
			C47.1,33.8,46.7,33.4,46.3,33.4z"/>
		<path class="st35" d="M135.4,18.7H35c-0.4,0-0.7-0.3-0.7-0.7c0-0.4,0.3-0.7,0.7-0.7h100.4c0.4,0,0.7,0.3,0.7,0.7
			C136,18.4,135.7,18.7,135.4,18.7z"/>
		<path class="st36" d="M26,22.8c0-0.9,0-1,0.4-1.8H30c3.1,0,0.2,3.6-0.8,3.6H26V22.8z"/>
		<path class="st37" d="M29.5,23.9c-0.1,0-0.1,0-0.2-0.1c-0.2-0.1-0.2-0.4-0.1-0.5L30,22c0.1-0.2,0.4-0.2,0.5-0.1
			c0.2,0.1,0.2,0.4,0.1,0.5l-0.8,1.3C29.8,23.8,29.7,23.9,29.5,23.9z"/>
		<path class="st39" d="M-5.4,13.8c-2.2-1.6-4.3-3.3-6.5-4.9c-7-5.3-14.3-5.7-26.8-5.7c-15.6,0-21.4,2-31.5,6.5
			c-3.7,1.6-5.6,3.3-9.6,4.2c-3.6,0.8-8.3,1.5-8.3,5.2v10.1c0,3.7,3.1,6.8,6.8,6.8h99.6c1.9,0,3.6-0.8,4.8-2c1.2-1.2,2-2.9,2-4.8
			l0-6.3C25,13.7,2,14.7-5.4,13.8z"/>
		<path class="st39" d="M-5.4,13.8c-2.2-1.6-4.3-3.3-6.5-4.9c-7-5.3-14.3-5.7-26.8-5.7c-15.6,0-21.4,2-31.5,6.5
			c-3.7,1.6-5.6,3.3-9.6,4.2c-3.3,0.7-7.5,1.4-8.2,4.3H22C15.5,14.1,0.4,14.5-5.4,13.8z"/>
		<path class="st40" d="M-9.2,35.9h27c0.1-0.6,0.1-1.1,0.1-1.7c0-7.5-6.1-13.6-13.6-13.6c-7.5,0-13.6,6.1-13.6,13.6
			C-9.3,34.8-9.3,35.3-9.2,35.9z"/>
		<path class="st40" d="M-88.1,29.1c0,3.7,3.1,6.8,6.8,6.8h99.6c3.7,0,6.8-3,6.8-6.8H-88.1z"/>
		<path class="st28" d="M-77.4,35.9h20.7H-6h20.7h3.6c2,0,3.7-0.9,5-2.2v-0.3h-8.5c-0.4-5.4-4.9-9.6-10.4-9.6
			c-5.5,0-10,4.2-10.4,9.6h-50.5C-57,28-61.5,23.7-67,23.7c-5.5,0-10,4.2-10.4,9.6h-9.1c1.2,1.5,3.2,2.5,5.3,2.5H-77.4z"/>
		<path class="st30" d="M4.3,42.7c-4.7,0-8.5-3.8-8.5-8.5s3.8-8.5,8.5-8.5c4.7,0,8.5,3.8,8.5,8.5S9,42.7,4.3,42.7z"/>
		<path class="st31" d="M4.3,39.4c-2.8,0-5.2-2.3-5.2-5.2S1.5,29,4.3,29c2.8,0,5.2,2.3,5.2,5.2S7.2,39.4,4.3,39.4z"/>
		<path class="st32" d="M6.9,34.2c0,1.4-1.2,2.6-2.6,2.6c-1.4,0-2.6-1.2-2.6-2.6h0c0-1.4,1.2-2.6,2.6-2.6
			C5.8,31.6,6.9,32.8,6.9,34.2z"/>
		<path class="st32" d="M4.3,29.8c0.3,0,0.5,0.2,0.5,0.5c0,0.3-0.2,0.5-0.5,0.5l0,0c-0.3,0-0.5-0.2-0.5-0.5C3.8,30,4,29.8,4.3,29.8z
			"/>
		<path class="st32" d="M4.3,37.6c0.3,0,0.5,0.2,0.5,0.5c0,0.3-0.2,0.5-0.5,0.5l0,0c-0.3,0-0.5-0.2-0.5-0.5
			C3.8,37.8,4,37.6,4.3,37.6z"/>
		<path class="st32" d="M-0.1,34.2c0-0.3,0.2-0.5,0.5-0.5c0.3,0,0.5,0.2,0.5,0.5l0,0c0,0.3-0.2,0.5-0.5,0.5
			C0.2,34.7-0.1,34.5-0.1,34.2z"/>
		<path class="st32" d="M7.7,34.2c0-0.3,0.2-0.5,0.5-0.5c0.3,0,0.5,0.2,0.5,0.5l0,0c0,0.3-0.2,0.5-0.5,0.5
			C7.9,34.7,7.7,34.5,7.7,34.2z"/>
		<path class="st32" d="M1.2,31.1c0.2-0.2,0.5-0.2,0.7,0c0.2,0.2,0.2,0.5,0,0.7h0c-0.2,0.2-0.5,0.2-0.7,0C1,31.6,1,31.3,1.2,31.1z"
			/>
		<path class="st32" d="M6.7,36.6c0.2-0.2,0.5-0.2,0.7,0c0.2,0.2,0.2,0.5,0,0.7v0c-0.2,0.2-0.5,0.2-0.7,0
			C6.5,37.1,6.5,36.8,6.7,36.6z"/>
		<path class="st32" d="M7.4,31.1c-0.2-0.2-0.5-0.2-0.7,0c-0.2,0.2-0.2,0.5,0,0.7l0,0c0.2,0.2,0.5,0.2,0.7,0
			C7.6,31.6,7.6,31.3,7.4,31.1z"/>
		<path class="st32" d="M1.9,36.6c-0.2-0.2-0.5-0.2-0.7,0c-0.2,0.2-0.2,0.5,0,0.7v0c0.2,0.2,0.5,0.2,0.7,0
			C2.1,37.1,2.1,36.8,1.9,36.6z"/>
		<path class="st33" d="M10.8,31.9c0.1,0,0.1,0,0.2,0c0.2-0.1,0.3-0.3,0.2-0.5c-0.4-0.9-0.9-1.7-1.6-2.4c-0.7-0.7-1.5-1.2-2.4-1.6
			c-0.9-0.4-1.9-0.6-2.9-0.6c-1,0-2,0.2-2.9,0.6c-0.9,0.4-1.7,0.9-2.4,1.6c-0.7,0.7-1.2,1.5-1.6,2.4c-0.1,0.2,0,0.4,0.2,0.5
			c0.2,0.1,0.4,0,0.5-0.2c0.3-0.8,0.8-1.5,1.4-2.1c0.6-0.6,1.3-1.1,2.1-1.4c0.8-0.3,1.7-0.5,2.6-0.5c0.9,0,1.8,0.2,2.6,0.5
			c0.8,0.3,1.5,0.8,2.1,1.4c0.6,0.6,1.1,1.3,1.4,2.1C10.5,31.8,10.6,31.9,10.8,31.9z"/>
		<path class="st34" d="M2.7,34.2l0-0.4h0c0.2-0.7,0.8-1.2,1.6-1.2c0.9,0,1.6,0.7,1.6,1.6c0,0.9-0.7,1.6-1.6,1.6
			C3.4,35.8,2.7,35.1,2.7,34.2z M3.5,34.2L3.5,34.2c0,0.5,0.4,0.8,0.8,0.8c0.5,0,0.8-0.4,0.8-0.8c0-0.5-0.4-0.8-0.8-0.8
			C3.9,33.4,3.5,33.8,3.5,34.2z"/>
		<path class="st35" d="M-84.8,18.7H15.6c0.4,0,0.7-0.3,0.7-0.7c0-0.4-0.3-0.7-0.7-0.7H-84.8c-0.4,0-0.7,0.3-0.7,0.7
			C-85.4,18.4-85.1,18.7-84.8,18.7z"/>
		<path class="st36" d="M25,22.8c0-0.9,0-1-0.4-1.8h-3.6c-3.1,0-0.2,3.6,0.8,3.6H25V22.8z"/>
		<path class="st37" d="M21.5,23.9c0.1,0,0.1,0,0.2-0.1c0.2-0.1,0.2-0.4,0.1-0.5L21.1,22c-0.1-0.2-0.4-0.2-0.5-0.1
			c-0.2,0.1-0.2,0.4-0.1,0.5l0.8,1.3C21.3,23.8,21.4,23.9,21.5,23.9z"/>
		<g>
			<path class="st41" d="M24.5,8.3c0.3-1.5,0.8-1.5,1.2,0l0.5,2.4c0.3,1.5,1.3,1.7,2.3,0.5l1.5-1.9c0.9-1.2,1.4-1,1,0.5l-0.6,2.3
				c-0.3,1.5,0.5,2.1,1.8,1.4l2.2-1.1c1.3-0.7,1.7-0.3,0.7,0.9l-1.5,1.9c-0.9,1.2-0.5,2.1,1,2.1l2.4,0c1.5,0,1.6,0.5,0.3,1.1l-2.2,1
				c-1.4,0.6-1.4,1.7,0,2.3l2.2,1c1.4,0.6,1.2,1.1-0.3,1.1l-2.4,0c-1.5,0-2,0.9-1,2.1l1.5,1.9c0.9,1.2,0.6,1.6-0.7,0.9l-2.2-1.1
				c-1.3-0.7-2.2,0-1.8,1.4l0.6,2.3c0.3,1.5-0.1,1.7-1,0.5L28.4,30c-0.9-1.2-1.9-1-2.3,0.5l-0.5,2.4c-0.3,1.5-0.8,1.5-1.2,0
				l-0.5-2.4c-0.3-1.5-1.3-1.7-2.3-0.5l-1.5,1.9c-0.9,1.2-1.4,1-1-0.5l0.6-2.3c0.3-1.5-0.5-2.1-1.8-1.4l-2.2,1.1
				c-1.3,0.7-1.7,0.3-0.7-0.9l1.5-1.9c0.9-1.2,0.5-2.1-1-2.1l-2.4,0c-1.5,0-1.6-0.5-0.3-1.1l2.2-1c1.4-0.6,1.4-1.7,0-2.3l-2.2-1
				c-1.4-0.6-1.2-1.1,0.3-1.1l2.4,0c1.5,0,2-0.9,1-2.1L15,13.4c-0.9-1.2-0.6-1.6,0.7-0.9l2.2,1.1c1.3,0.7,2.2,0,1.8-1.4l-0.6-2.3
				c-0.3-1.5,0.1-1.7,1-0.5l1.5,1.9c0.9,1.2,1.9,1,2.3-0.5L24.5,8.3z"/>
		</g>
		<g>
			<path class="st42" d="M20,14.6c-0.4-0.9-0.1-1.1,0.6-0.4l1.2,1c0.7,0.6,1.3,0.3,1.3-0.6l0-1.5c0-0.9,0.3-1,0.7-0.1l0.6,1.4
				c0.4,0.9,1,0.9,1.5,0l0.7-1.4c0.4-0.8,0.7-0.8,0.7,0.2l0,1.5c0,0.9,0.6,1.2,1.3,0.7l1.2-0.9c0.7-0.6,1-0.4,0.6,0.5l-0.7,1.3
				c-0.4,0.8,0,1.4,0.9,1.2l1.5-0.3c0.9-0.2,1.1,0.1,0.3,0.7L31,18.6c-0.8,0.6-0.6,1.2,0.3,1.4l1.5,0.4c0.9,0.2,0.9,0.5,0,0.7
				l-1.5,0.3c-0.9,0.2-1.1,0.8-0.4,1.4l1.2,1c0.7,0.6,0.6,0.9-0.3,0.6L30.3,24c-0.9-0.2-1.3,0.3-0.9,1.1l0.6,1.4
				c0.4,0.9,0.1,1.1-0.6,0.4l-1.2-1c-0.7-0.6-1.3-0.3-1.3,0.6l0,1.5c0,0.9-0.3,1-0.7,0.1l-0.6-1.4c-0.4-0.9-1-0.9-1.5,0l-0.7,1.4
				C23.1,29,22.8,29,22.8,28l0-1.5c0-0.9-0.6-1.2-1.3-0.7l-1.2,0.9c-0.7,0.6-1,0.4-0.6-0.5l0.7-1.3c0.4-0.8,0-1.4-0.9-1.2l-1.5,0.3
				c-0.9,0.2-1.1-0.1-0.3-0.7l1.2-0.9c0.8-0.6,0.6-1.2-0.3-1.4l-1.5-0.4c-0.9-0.2-0.9-0.5,0-0.7l1.5-0.3c0.9-0.2,1.1-0.8,0.4-1.4
				l-1.2-1c-0.7-0.6-0.6-0.9,0.3-0.6l1.5,0.4c0.9,0.2,1.3-0.3,0.9-1.1L20,14.6z"/>
		</g>
		<g class="st43">
			<defs>
				<path id="SVGID_12_" class="st43" d="M24.5,8.3c0.3-1.5,0.8-1.5,1.2,0l0.5,2.4c0.3,1.5,1.3,1.7,2.3,0.5l1.5-1.9
					c0.9-1.2,1.4-1,1,0.5l-0.6,2.3c-0.3,1.5,0.5,2.1,1.8,1.4l2.2-1.1c1.3-0.7,1.7-0.3,0.7,0.9l-1.5,1.9c-0.9,1.2-0.5,2.1,1,2.1
					l2.4,0c1.5,0,1.6,0.5,0.3,1.1l-2.2,1c-1.4,0.6-1.4,1.7,0,2.3l2.2,1c1.4,0.6,1.2,1.1-0.3,1.1l-2.4,0c-1.5,0-2,0.9-1,2.1l1.5,1.9
					c0.9,1.2,0.6,1.6-0.7,0.9l-2.2-1.1c-1.3-0.7-2.2,0-1.8,1.4l0.6,2.3c0.3,1.5-0.1,1.7-1,0.5L28.4,30c-0.9-1.2-1.9-1-2.3,0.5
					l-0.5,2.4c-0.3,1.5-0.8,1.5-1.2,0l-0.5-2.4c-0.3-1.5-1.3-1.7-2.3-0.5l-1.5,1.9c-0.9,1.2-1.4,1-1-0.5l0.6-2.3
					c0.3-1.5-0.5-2.1-1.8-1.4l-2.2,1.1c-1.3,0.7-1.7,0.3-0.7-0.9l1.5-1.9c0.9-1.2,0.5-2.1-1-2.1l-2.4,0c-1.5,0-1.6-0.5-0.3-1.1
					l2.2-1c1.4-0.6,1.4-1.7,0-2.3l-2.2-1c-1.4-0.6-1.2-1.1,0.3-1.1l2.4,0c1.5,0,2-0.9,1-2.1L15,13.4c-0.9-1.2-0.6-1.6,0.7-0.9
					l2.2,1.1c1.3,0.7,2.2,0,1.8-1.4l-0.6-2.3c-0.3-1.5,0.1-1.7,1-0.5l1.5,1.9c0.9,1.2,1.9,1,2.3-0.5L24.5,8.3z"/>
			</defs>
			<clipPath id="SVGID_4_">
				<use xlink:href="#SVGID_12_"  style="overflow:visible;"/>
			</clipPath>
			<polygon style="opacity:0.5;clip-path:url(#SVGID_4_);fill-rule:evenodd;clip-rule:evenodd;" points="25,20.6 9.4,33.2 4.9,15.9 
							"/>
			<polygon style="opacity:0.2;clip-path:url(#SVGID_4_);fill-rule:evenodd;clip-rule:evenodd;" points="25,20.6 25.2,40.6 
				8.9,33.6 			"/>
			<polygon style="opacity:0.5;clip-path:url(#SVGID_4_);fill-rule:evenodd;clip-rule:evenodd;" points="25,20.6 40.1,32.9 
				25.1,40.5 			"/>
			<polygon style="opacity:0.2;clip-path:url(#SVGID_4_);fill-rule:evenodd;clip-rule:evenodd;" points="25,20.6 44.2,16.2 
				40.5,33.1 			"/>
			<polygon style="opacity:0.3;clip-path:url(#SVGID_4_);fill-rule:evenodd;clip-rule:evenodd;" points="25,20.6 34.3,1.5 15.7,1.5 
							"/>
			<polygon style="opacity:0.6;clip-path:url(#SVGID_4_);fill-rule:evenodd;clip-rule:evenodd;" points="25,20.6 16.3,2.6 4.3,15.8 
							"/>
		</g>
	</g>
</g>
</svg>
