<?xml version="1.0" encoding="utf-8"?>
<!-- Generator: Adobe Illustrator 16.0.0, SVG Export Plug-In . SVG Version: 6.00 Build 0)  -->
<!DOCTYPE svg PUBLIC "-//W3C//DTD SVG 1.1//EN" "http://www.w3.org/Graphics/SVG/1.1/DTD/svg11.dtd">
<svg version="1.1" id="Layer_1" xmlns="http://www.w3.org/2000/svg" xmlns:xlink="http://www.w3.org/1999/xlink" x="0px" y="0px"
	 width="40.32px" height="40.32px" viewBox="0 0 40.32 40.32" style="enable-background:new 0 0 40.32 40.32;" xml:space="preserve"
	>
<g>
	<path style="opacity:0.5;" d="M38.795,31.438c-0.66-0.202-1.359,0.168-1.563,0.828c-0.277,0.897-1.039,1.605-2.031,1.762h0.002
		c-0.135,0.021-0.266,0.03-0.398,0.03c-1.221,0-2.305-0.894-2.496-2.141c-0.023-0.136-0.031-0.268-0.031-0.399
		c0-1.22,0.895-2.303,2.141-2.496c0.33-0.052,0.621-0.228,0.816-0.497c0.197-0.271,0.275-0.601,0.225-0.93
		c0-0.002-0.105-0.666-0.229-1.464c0.42-0.436,0.643-1.049,0.541-1.692c-0.092-0.578-0.207-1.31-0.299-1.896
		c-0.045-0.293-0.086-0.55-0.115-0.736c-0.016-0.091-0.027-0.165-0.033-0.216l-0.01-0.06l-0.004-0.019c0-0.004,0-0.009-0.004-0.014
		c-0.002-0.021-0.006-0.041-0.01-0.063c-0.002-0.004-0.004-0.008-0.004-0.013c-0.014-0.065-0.029-0.139-0.063-0.238
		c-0.004-0.004-0.004-0.009-0.008-0.013c-0.004-0.018-0.014-0.035-0.02-0.052c-0.004-0.008-0.01-0.017-0.014-0.027
		c-0.008-0.022-0.018-0.046-0.027-0.069c-0.02-0.047-0.039-0.088-0.066-0.141c-0.023-0.039-0.047-0.076-0.07-0.112
		c-0.025-0.043-0.055-0.084-0.082-0.123c-0.012-0.017-0.021-0.031-0.033-0.047c-0.01-0.016-0.014-0.026-0.025-0.041
		c0-0.002-0.002-0.003-0.004-0.006c-0.006-0.008-0.016-0.015-0.021-0.022c-0.018-0.02-0.039-0.04-0.057-0.06
		c-0.02-0.019-0.031-0.043-0.053-0.062c-0.012-0.013-0.029-0.023-0.043-0.037c-0.021-0.021-0.039-0.04-0.063-0.063
		c-0.039-0.03-0.08-0.058-0.123-0.086c-0.039-0.028-0.076-0.059-0.117-0.086c-0.023-0.014-0.041-0.028-0.063-0.042
		c-0.006-0.001-0.01-0.005-0.014-0.009c-0.014-0.007-0.027-0.01-0.041-0.017c-0.035-0.02-0.072-0.034-0.105-0.051
		c-0.035-0.016-0.068-0.036-0.104-0.05c-0.057-0.022-0.111-0.039-0.168-0.056c-0.039-0.011-0.072-0.021-0.111-0.031
		c-0.002,0-0.002-0.001-0.006-0.001s-0.006-0.001-0.01-0.003L32.188,9.73l0.004-0.006c0.133-0.197,0.234-0.354,0.283-0.438
		c0.934-1.56,1.07-3.79-0.494-4.797c-2.592-1.67-5.047,1.14-5.047,1.14C22.23,11.279,11.015,24.034,6.049,29.665
		c-2.811,1.35-4.727,3.956-4.768,6.96H19.6c-0.026-2.084-0.963-3.97-2.47-5.385c3.178-4.506,10.587-15.017,13.822-19.704
		l1.349,8.583c-0.137,0.083-0.264,0.176-0.379,0.29c-0.371,0.372-0.586,0.886-0.586,1.414c0,0.022,0,0.047,0.002,0.074
		c0.002,0.034,0.004,0.058,0.004,0.078c0.002,0.013,0.004,0.029,0.006,0.045l0.006,0.06l0.006,0.038
		c0.004,0.031,0.012,0.067,0.029,0.171c0,0.002,0,0.003,0,0.005c0.068,0.448,0.283,1.805,0.432,2.763
		c0.094,0.602,0.451,1.088,0.93,1.384c0.025,0.168,0.051,0.327,0.074,0.479c-1.822,0.787-3.045,2.578-3.045,4.598
		c0,0.26,0.021,0.522,0.063,0.787c0.393,2.482,2.525,4.252,4.965,4.252c0.26,0,0.523-0.021,0.785-0.061l0,0
		c1.965-0.31,3.484-1.717,4.033-3.497C39.824,32.34,39.455,31.642,38.795,31.438z"/>
	<g>
		<linearGradient id="SVGID_1_" gradientUnits="userSpaceOnUse" x1="30.5225" y1="8.689" x2="34.8976" y2="37.2314">
			<stop  offset="0" style="stop-color:#808285"/>
			<stop  offset="1" style="stop-color:#A7A9AC"/>
		</linearGradient>
		<path style="fill:url(#SVGID_1_);stroke:#808285;stroke-width:0.58;stroke-miterlimit:10;" d="M38.155,31.173
			c-0.66-0.202-1.359,0.168-1.563,0.828c-0.278,0.897-1.039,1.605-2.031,1.762h0.001c-0.135,0.021-0.266,0.03-0.398,0.03
			c-1.22,0-2.305-0.894-2.496-2.141c-0.023-0.136-0.03-0.268-0.03-0.399c0-1.22,0.894-2.303,2.14-2.496
			c0.33-0.052,0.622-0.228,0.817-0.497c0.196-0.271,0.275-0.601,0.225-0.93c0-0.002-0.106-0.666-0.229-1.464
			c0.42-0.436,0.643-1.049,0.542-1.692c-0.092-0.578-0.208-1.31-0.299-1.896c-0.046-0.293-0.087-0.55-0.115-0.736
			c-0.017-0.091-0.027-0.165-0.034-0.216l-0.009-0.06l-0.004-0.019c0-0.004-0.001-0.009-0.005-0.014
			c-0.001-0.021-0.006-0.041-0.01-0.063c-0.002-0.004-0.004-0.008-0.004-0.012c-0.014-0.065-0.028-0.139-0.063-0.238
			c-0.003-0.004-0.003-0.009-0.007-0.013c-0.004-0.019-0.014-0.035-0.021-0.053c-0.004-0.008-0.009-0.017-0.013-0.027
			c-0.009-0.022-0.018-0.046-0.028-0.069c-0.019-0.047-0.039-0.088-0.066-0.141c-0.023-0.039-0.046-0.076-0.069-0.112
			c-0.026-0.043-0.056-0.084-0.083-0.123c-0.011-0.017-0.021-0.031-0.032-0.047s-0.015-0.026-0.026-0.041
			c0-0.002-0.001-0.003-0.003-0.006c-0.006-0.008-0.017-0.015-0.022-0.022c-0.017-0.02-0.039-0.04-0.057-0.06
			c-0.02-0.019-0.031-0.043-0.052-0.062c-0.013-0.013-0.03-0.023-0.044-0.037c-0.021-0.021-0.038-0.04-0.063-0.063
			c-0.038-0.03-0.08-0.058-0.122-0.086c-0.039-0.028-0.076-0.059-0.118-0.086c-0.022-0.014-0.041-0.028-0.062-0.042
			c-0.006-0.001-0.011-0.005-0.014-0.009c-0.015-0.007-0.028-0.01-0.042-0.017c-0.035-0.02-0.071-0.034-0.105-0.051
			c-0.035-0.016-0.068-0.036-0.104-0.05c-0.056-0.022-0.111-0.039-0.168-0.056c-0.039-0.011-0.072-0.021-0.11-0.031
			c-0.002,0-0.003-0.001-0.006-0.001c-0.004,0-0.007-0.001-0.011-0.003L31.527,9.342c-0.438,0.438-0.875,0.875-1.313,1.313
			l1.446,9.2c-0.137,0.083-0.265,0.176-0.379,0.29c-0.371,0.372-0.586,0.887-0.586,1.414c0,0.022,0,0.047,0.002,0.074
			c0.001,0.034,0.003,0.058,0.004,0.078c0.001,0.013,0.003,0.029,0.005,0.045l0.007,0.06l0.006,0.038
			c0.004,0.031,0.011,0.067,0.028,0.171c0,0.002,0,0.003,0,0.005c0.069,0.448,0.283,1.805,0.433,2.763
			c0.094,0.602,0.451,1.088,0.93,1.384c0.025,0.168,0.051,0.327,0.074,0.479c-1.822,0.787-3.045,2.578-3.045,4.598
			c0,0.26,0.021,0.522,0.062,0.787c0.393,2.482,2.525,4.252,4.966,4.252c0.26,0,0.522-0.021,0.784-0.061h0.001
			c1.964-0.31,3.484-1.717,4.032-3.497C39.184,32.075,38.814,31.377,38.155,31.173z"/>
		<linearGradient id="SVGID_2_" gradientUnits="userSpaceOnUse" x1="29.3135" y1="0.8052" x2="33.6886" y2="29.3476">
			<stop  offset="0" style="stop-color:#000000"/>
			<stop  offset="1" style="stop-color:#A7A9AC"/>
		</linearGradient>
		<path style="opacity:0.5;fill:url(#SVGID_2_);" d="M38.155,31.173c-0.66-0.202-1.359,0.168-1.563,0.828
			c-0.278,0.897-1.039,1.605-2.031,1.762h0.001c-0.135,0.021-0.266,0.03-0.398,0.03c-1.22,0-2.305-0.894-2.496-2.141
			c-0.023-0.136-0.03-0.268-0.03-0.399c0-1.22,0.894-2.303,2.14-2.496c0.33-0.052,0.622-0.228,0.817-0.497
			c0.196-0.271,0.275-0.601,0.225-0.93c0-0.002-0.106-0.666-0.229-1.464c0.42-0.436,0.643-1.049,0.542-1.692
			c-0.092-0.578-0.208-1.31-0.299-1.896c-0.046-0.293-0.087-0.55-0.115-0.736c-0.017-0.091-0.027-0.165-0.034-0.216l-0.009-0.06
			l-0.004-0.019c0-0.004-0.001-0.009-0.005-0.014c-0.001-0.021-0.006-0.041-0.01-0.063c-0.002-0.004-0.004-0.008-0.004-0.012
			c-0.014-0.065-0.028-0.139-0.063-0.238c-0.003-0.004-0.003-0.009-0.007-0.013c-0.004-0.019-0.014-0.035-0.021-0.053
			c-0.004-0.008-0.009-0.017-0.013-0.027c-0.009-0.022-0.018-0.046-0.028-0.069c-0.019-0.047-0.039-0.088-0.066-0.141
			c-0.023-0.039-0.046-0.076-0.069-0.112c-0.026-0.043-0.056-0.084-0.083-0.123c-0.011-0.017-0.021-0.031-0.032-0.047
			s-0.015-0.026-0.026-0.041c0-0.002-0.001-0.003-0.003-0.006c-0.006-0.008-0.017-0.015-0.022-0.022
			c-0.017-0.02-0.039-0.04-0.057-0.06c-0.02-0.019-0.031-0.043-0.052-0.062c-0.013-0.013-0.03-0.023-0.044-0.037
			c-0.021-0.021-0.038-0.04-0.063-0.063c-0.038-0.03-0.08-0.058-0.122-0.086c-0.039-0.028-0.076-0.059-0.118-0.086
			c-0.022-0.014-0.041-0.028-0.062-0.042c-0.006-0.001-0.011-0.005-0.014-0.009c-0.015-0.007-0.028-0.01-0.042-0.017
			c-0.035-0.02-0.071-0.034-0.105-0.051c-0.035-0.016-0.068-0.036-0.104-0.05c-0.056-0.022-0.111-0.039-0.168-0.056
			c-0.039-0.011-0.072-0.021-0.11-0.031c-0.002,0-0.003-0.001-0.006-0.001c-0.004,0-0.007-0.001-0.011-0.003L31.527,9.342
			c-0.438,0.438-0.875,0.875-1.313,1.313l1.446,9.2c-0.137,0.083-0.265,0.176-0.379,0.29c-0.371,0.372-0.586,0.887-0.586,1.414
			c0,0.022,0,0.047,0.002,0.074c0.001,0.034,0.003,0.058,0.004,0.078c0.001,0.013,0.003,0.029,0.005,0.045l0.007,0.06l0.006,0.038
			c0.004,0.031,0.011,0.067,0.028,0.171c0,0.002,0,0.003,0,0.005c0.069,0.448,0.283,1.805,0.433,2.763
			c0.094,0.602,0.451,1.088,0.93,1.384c0.025,0.168,0.051,0.327,0.074,0.479c-1.822,0.787-3.045,2.578-3.045,4.598
			c0,0.26,0.021,0.522,0.062,0.787c0.393,2.482,2.525,4.252,4.966,4.252c0.26,0,0.522-0.021,0.784-0.061h0.001
			c1.964-0.31,3.484-1.717,4.032-3.497C39.184,32.075,38.814,31.377,38.155,31.173z"/>
		<linearGradient id="SVGID_3_" gradientUnits="userSpaceOnUse" x1="7.439" y1="38.2979" x2="32.5053" y2="5.3053">
			<stop  offset="0" style="stop-color:#1C75BC"/>
			<stop  offset="1" style="stop-color:#27AAE1"/>
		</linearGradient>
		<path style="fill:url(#SVGID_3_);stroke:#1C75BC;stroke-width:0.58;stroke-miterlimit:10;" d="M31.551,9.459
			c0.133-0.197,0.234-0.354,0.283-0.438c0.935-1.56,1.071-3.79-0.493-4.797c-2.593-1.67-5.047,1.14-5.047,1.14
			C21.591,11.014,10.375,23.77,5.409,29.4c-2.812,1.35-4.727,3.956-4.768,6.96H18.96c-0.026-2.084-0.964-3.97-2.47-5.385
			c3.179-4.508,10.593-15.027,13.826-19.71L31.551,9.459z"/>
	</g>
</g>
</svg>
