<?xml version="1.0" encoding="utf-8"?>
<!-- Generator: Adobe Illustrator 16.0.0, SVG Export Plug-In . SVG Version: 6.00 Build 0)  -->
<!DOCTYPE svg PUBLIC "-//W3C//DTD SVG 1.1//EN" "http://www.w3.org/Graphics/SVG/1.1/DTD/svg11.dtd">
<svg version="1.1" id="Layer_1" xmlns="http://www.w3.org/2000/svg" xmlns:xlink="http://www.w3.org/1999/xlink" x="0px" y="0px"
	 width="40px" height="40px" viewBox="0 0 40 40" enable-background="new 0 0 40 40" xml:space="preserve">
<g>
	<rect x="4.9443359" y="10.9223633" fill="#CDCCCC" width="32.4140625" height="2.8691406"/>
	<linearGradient id="SVGID_1_" gradientUnits="userSpaceOnUse" x1="4.9443359" y1="11.6484375" x2="37.3583984" y2="11.6484375">
		<stop  offset="0" style="stop-color:#000000"/>
		<stop  offset="1" style="stop-color:#FFFFFF"/>
	</linearGradient>
	<rect x="4.9443359" y="10.9223633" opacity="0.2" fill="url(#SVGID_1_)" width="32.4140625" height="1.4521484"/>
	
		<radialGradient id="SVGID_2_" cx="20.2929688" cy="32.265625" r="18.4923992" gradientTransform="matrix(1 0 0 0.2433928 0 24.4124146)" gradientUnits="userSpaceOnUse">
		<stop  offset="0" style="stop-color:#000000"/>
		<stop  offset="1" style="stop-color:#FFFFFF"/>
	</radialGradient>
	<polygon opacity="0.5" fill="url(#SVGID_2_)" points="37.5,33.6298828 3.0854492,33.6298828 7.2573242,30.9023438 37.5,30.9023438 
			"/>
	<g>
		<circle fill="#010101" cx="18.6591797" cy="28.6171875" r="3.3105469"/>
		<circle fill="#1A1A1A" cx="17.7255859" cy="28.6455078" r="3.3105469"/>
		<circle fill="#F3F3F3" cx="17.7253418" cy="28.6455078" r="1.3391113"/>
		<radialGradient id="SVGID_3_" cx="17.7255859" cy="28.6455078" r="1.1999512" gradientUnits="userSpaceOnUse">
			<stop  offset="0.6976327" style="stop-color:#FFFFFF"/>
			<stop  offset="0.9293939" style="stop-color:#000000"/>
		</radialGradient>
		<circle opacity="0.3" fill="url(#SVGID_3_)" cx="17.7253418" cy="28.6455078" r="1.1999512"/>
		
			<circle fill="none" stroke="#4E4E4E" stroke-width="0.2829661" stroke-linecap="round" stroke-linejoin="round" stroke-miterlimit="10" cx="17.7253418" cy="28.6455078" r="1.3391113"/>
		
			<circle fill="#989898" stroke="#676767" stroke-width="0.0282966" stroke-miterlimit="10" cx="17.7253418" cy="28.6455078" r="0.5324707"/>
		<g opacity="0.2">
			<path fill="#F3F3F3" d="M17.5605469,28.3007813c0,0-0.137207,0.0605469-0.1948242,0.2070313
				c-0.043457,0.0634766-0.0263672,0.1484375-0.0410156,0.203125c-0.0068359,0.0585938-0.0112305,0.0976563-0.0112305,0.0976563
				c0.0019531,0.0078125-0.003418,0.015625-0.0112305,0.0166016c-0.0073242,0.0019531-0.0146484-0.0068359-0.0170898-0.0146484
				c0,0,0.0009766-0.0400391,0.0024414-0.1005859c0.0097656-0.0595703-0.0146484-0.1474609,0.0253906-0.2226563
				c0.0449219-0.1699219,0.2167969-0.2705078,0.2084961-0.2626953c0.0209961-0.0107422,0.046875-0.0019531,0.0576172,0.0185547
				C17.5898438,28.2646484,17.581543,28.2900391,17.5605469,28.3007813z"/>
		</g>
		<g>
			<polygon fill="#989898" stroke="#676767" stroke-width="0.0354248" stroke-miterlimit="10" points="17.644043,29.53125 
				17.7504883,29.46875 17.8564453,29.53125 17.8564453,29.6533203 17.7504883,29.7138672 17.644043,29.6533203 			"/>
			<polygon fill="#676767" points="17.8657227,29.6523438 17.8393555,29.6542969 17.8393555,29.5283203 17.8681641,29.5322266 			
				"/>
			<polygon fill="#676767" points="17.7265625,29.4667969 17.7504883,29.4667969 17.8608398,29.5322266 17.859375,29.5341797 
				17.8300781,29.53125 			"/>
			<polygon fill="#676767" points="17.7255859,29.7167969 17.7514648,29.7167969 17.8608398,29.6523438 17.8461914,29.6464844 
				17.8300781,29.6533203 			"/>
			<polygon fill="#989898" stroke="#676767" stroke-width="0.0354248" stroke-miterlimit="10" points="17.6088867,29.53125 
				17.7148438,29.46875 17.8212891,29.53125 17.8212891,29.6533203 17.7148438,29.7138672 17.6088867,29.6533203 			"/>
			<circle fill="#676767" cx="17.7314453" cy="29.5917969" r="0.0419922"/>
			<circle fill="#676767" cx="17.7314453" cy="29.5917969" r="0.0419922"/>
			<g>
				<defs>
					<circle id="SVGID_162_" cx="17.7314453" cy="29.5917969" r="0.0419922"/>
				</defs>
				<clipPath id="SVGID_4_">
					<use xlink:href="#SVGID_162_"  overflow="visible"/>
				</clipPath>
				<circle opacity="0.5" clip-path="url(#SVGID_4_)" fill="#676767" cx="17.7504883" cy="29.5917969" r="0.0419922"/>
			</g>
		</g>
		<g>
			<polygon fill="#989898" stroke="#676767" stroke-width="0.0354248" stroke-miterlimit="10" points="17.644043,27.6064453 
				17.7504883,27.5458984 17.8564453,27.6064453 17.8564453,27.7285156 17.7504883,27.7900391 17.644043,27.7285156 			"/>
			<polygon fill="#676767" points="17.8657227,27.7275391 17.8393555,27.7304688 17.8393555,27.6054688 17.8681641,27.6083984 			
				"/>
			<polygon fill="#676767" points="17.7265625,27.5429688 17.7504883,27.5429688 17.8608398,27.6083984 17.859375,27.609375 
				17.8300781,27.6064453 			"/>
			<polygon fill="#676767" points="17.7255859,27.7919922 17.7514648,27.7929688 17.8608398,27.7285156 17.8461914,27.7226563 
				17.8300781,27.7294922 			"/>
			<polygon fill="#989898" stroke="#676767" stroke-width="0.0354248" stroke-miterlimit="10" points="17.6088867,27.6064453 
				17.7148438,27.5458984 17.8212891,27.6064453 17.8212891,27.7285156 17.7148438,27.7900391 17.6088867,27.7285156 			"/>
			<circle fill="#676767" cx="17.7314453" cy="27.6669922" r="0.0419922"/>
			<circle fill="#676767" cx="17.7314453" cy="27.6669922" r="0.0419922"/>
			<g>
				<defs>
					<circle id="SVGID_164_" cx="17.7314453" cy="27.6669922" r="0.0419922"/>
				</defs>
				<clipPath id="SVGID_5_">
					<use xlink:href="#SVGID_164_"  overflow="visible"/>
				</clipPath>
				<circle opacity="0.5" clip-path="url(#SVGID_5_)" fill="#676767" cx="17.7504883" cy="27.6679688" r="0.0419922"/>
			</g>
		</g>
		<g>
			<polygon fill="#989898" stroke="#676767" stroke-width="0.0354248" stroke-miterlimit="10" points="18.6455078,28.7236328 
				18.5844727,28.6347656 18.6455078,28.5458984 18.7675781,28.5458984 18.8286133,28.6347656 18.7675781,28.7236328 			"/>
			<rect x="18.6428223" y="28.5057926" fill="#676767" width="0.125" height="0.0225932"/>
			<polygon fill="#676767" points="18.581543,28.6484375 18.581543,28.6240234 18.6464844,28.5136719 18.6489258,28.5146484 
				18.6455078,28.5449219 			"/>
			<polygon fill="#676767" points="18.831543,28.6484375 18.831543,28.6240234 18.7670898,28.5146484 18.7617188,28.5283203 
				18.7685547,28.5449219 			"/>
			<polygon fill="#989898" stroke="#676767" stroke-width="0.0354248" stroke-miterlimit="10" points="18.6455078,28.7587891 
				18.5844727,28.6523438 18.6455078,28.5458984 18.7675781,28.5458984 18.8286133,28.6523438 18.7675781,28.7587891 			"/>
			<circle fill="#676767" cx="18.706543" cy="28.6435547" r="0.0419922"/>
			<circle fill="#676767" cx="18.706543" cy="28.6435547" r="0.0419922"/>
			<g>
				<defs>
					<circle id="SVGID_166_" cx="18.706543" cy="28.6435547" r="0.0419922"/>
				</defs>
				<clipPath id="SVGID_6_">
					<use xlink:href="#SVGID_166_"  overflow="visible"/>
				</clipPath>
				<circle opacity="0.5" clip-path="url(#SVGID_6_)" fill="#676767" cx="18.7067871" cy="28.6240234" r="0.0422363"/>
			</g>
		</g>
		<g>
			<polygon fill="#989898" stroke="#676767" stroke-width="0.0354248" stroke-miterlimit="10" points="16.7211914,28.7236328 
				16.6601563,28.6347656 16.7211914,28.5458984 16.84375,28.5458984 16.9042969,28.6347656 16.84375,28.7236328 			"/>
			<polygon fill="#676767" points="16.8422852,28.5058594 16.8452148,28.5283203 16.7192383,28.5283203 16.7226563,28.5009766 			
				"/>
			<polygon fill="#676767" points="16.6577148,28.6484375 16.6577148,28.6240234 16.7226563,28.5136719 16.7246094,28.5146484 
				16.7211914,28.5449219 			"/>
			<polygon fill="#676767" points="16.9072266,28.6484375 16.9072266,28.6240234 16.8422852,28.5146484 16.8374023,28.5283203 
				16.8442383,28.5449219 			"/>
			<polygon fill="#989898" stroke="#676767" stroke-width="0.0354248" stroke-miterlimit="10" points="16.7211914,28.7587891 
				16.6601563,28.6523438 16.7211914,28.5458984 16.84375,28.5458984 16.9042969,28.6523438 16.84375,28.7587891 			"/>
			<circle fill="#676767" cx="16.7819824" cy="28.6435547" r="0.0422363"/>
			<circle fill="#676767" cx="16.7819824" cy="28.6435547" r="0.0422363"/>
			<g>
				<defs>
					<circle id="SVGID_168_" cx="16.7819824" cy="28.6435547" r="0.0422363"/>
				</defs>
				<clipPath id="SVGID_7_">
					<use xlink:href="#SVGID_168_"  overflow="visible"/>
				</clipPath>
				<circle opacity="0.5" clip-path="url(#SVGID_7_)" fill="#676767" cx="16.7827148" cy="28.6240234" r="0.0419922"/>
			</g>
		</g>
		<g>
			<polygon fill="#989898" stroke="#676767" stroke-width="0.0045879" stroke-miterlimit="10" points="18.3188477,29.3291016 
				18.3427734,29.2197266 18.453125,29.1953125 18.5395508,29.2822266 18.5151367,29.3916016 18.4052734,29.4160156 			"/>
			<polygon fill="#676767" points="18.5527344,29.2675781 18.5361328,29.2880859 18.4467773,29.1992188 18.4697266,29.1806641 			
				"/>
			<polygon fill="#676767" points="18.3237305,29.2353516 18.3408203,29.2177734 18.4648438,29.1855469 18.465332,29.1884766 
				18.4418945,29.2060547 			"/>
			<polygon fill="#676767" points="18.5,29.4111328 18.5180664,29.3945313 18.5493164,29.2705078 18.5351563,29.2773438 
				18.5283203,29.2939453 			"/>
			<polygon fill="#989898" stroke="#676767" stroke-width="0.0048349" stroke-miterlimit="10" points="18.2944336,29.3544922 
				18.3256836,29.2363281 18.4433594,29.2060547 18.5288086,29.2919922 18.4980469,29.4101563 18.3808594,29.4404297 			"/>
			<circle fill="#676767" cx="18.4155273" cy="29.3188477" r="0.0421226"/>
			<circle fill="#676767" cx="18.4155273" cy="29.3188477" r="0.0421226"/>
			<g>
				<defs>
					<circle id="SVGID_170_" cx="18.4155273" cy="29.3188477" r="0.0421226"/>
				</defs>
				<clipPath id="SVGID_8_">
					<use xlink:href="#SVGID_170_"  overflow="visible"/>
				</clipPath>
				<circle opacity="0.5" clip-path="url(#SVGID_8_)" fill="#676767" cx="18.4291992" cy="29.3061523" r="0.0421226"/>
			</g>
		</g>
		<g>
			<polygon fill="#989898" stroke="#676767" stroke-width="0.0045879" stroke-miterlimit="10" points="16.9584961,27.96875 
				16.9819336,27.8583984 17.0917969,27.8349609 17.1787109,27.921875 17.1547852,28.03125 17.0449219,28.0546875 			"/>
			<polygon fill="#676767" points="17.1923828,27.9072266 17.1748047,27.9277344 17.0864258,27.8388672 17.109375,27.8193359 			"/>
			<polygon fill="#676767" points="16.9633789,27.8740234 16.9804688,27.8574219 17.1044922,27.8251953 17.1044922,27.8271484 
				17.081543,27.8457031 			"/>
			<polygon fill="#676767" points="17.1391602,28.0507813 17.1572266,28.0332031 17.1889648,27.9101563 17.1748047,27.9169922 
				17.1679688,27.9335938 			"/>
			<polygon fill="#989898" stroke="#676767" stroke-width="0.0048349" stroke-miterlimit="10" points="16.9335938,27.9931641 
				16.9648438,27.8769531 17.0825195,27.8447266 17.1689453,27.9306641 17.1376953,28.0488281 17.0200195,28.0800781 			"/>
			<circle fill="#676767" cx="17.0546875" cy="27.9584961" r="0.0421226"/>
			<circle fill="#676767" cx="17.0546875" cy="27.9584961" r="0.0421226"/>
			<g>
				<defs>
					<circle id="SVGID_172_" cx="17.0546875" cy="27.9584961" r="0.0421226"/>
				</defs>
				<clipPath id="SVGID_9_">
					<use xlink:href="#SVGID_172_"  overflow="visible"/>
				</clipPath>
				<circle opacity="0.5" clip-path="url(#SVGID_9_)" fill="#676767" cx="17.0688477" cy="27.9448242" r="0.0417787"/>
			</g>
		</g>
		<g>
			<polygon fill="#989898" stroke="#676767" stroke-width="0.0045879" stroke-miterlimit="10" points="18.4438477,28.0556641 
				18.3339844,28.03125 18.3105469,27.921875 18.3969727,27.8349609 18.5068359,27.859375 18.5302734,27.96875 			"/>
			<polygon fill="#676767" points="18.3808594,27.8212891 18.4003906,27.8359375 18.3110352,27.9248047 18.2929688,27.9023438 			
				"/>
			<polygon fill="#676767" points="18.3496094,28.0507813 18.3320313,28.0332031 18.3007813,27.9101563 18.3027344,27.9101563 
				18.3212891,27.9335938 			"/>
			<polygon fill="#676767" points="18.5263672,27.875 18.5087891,27.8574219 18.3852539,27.8251953 18.3920898,27.8388672 
				18.4082031,27.8457031 			"/>
			<polygon fill="#989898" stroke="#676767" stroke-width="0.0048349" stroke-miterlimit="10" points="18.46875,28.0800781 
				18.3510742,28.0498047 18.3203125,27.9316406 18.4067383,27.8457031 18.5244141,27.8769531 18.5551758,27.9941406 			"/>
			<circle fill="#676767" cx="18.4338379" cy="27.9584961" r="0.0419503"/>
			<circle fill="#676767" cx="18.4338379" cy="27.9584961" r="0.0419503"/>
			<g>
				<defs>
					<circle id="SVGID_174_" cx="18.4338379" cy="27.9584961" r="0.0419503"/>
				</defs>
				<clipPath id="SVGID_10_">
					<use xlink:href="#SVGID_174_"  overflow="visible"/>
				</clipPath>
				<circle opacity="0.5" clip-path="url(#SVGID_10_)" fill="#676767" cx="18.4204102" cy="27.9448242" r="0.0421226"/>
			</g>
		</g>
		<g>
			<polygon fill="#989898" stroke="#676767" stroke-width="0.0045879" stroke-miterlimit="10" points="17.0834961,29.4169922 
				16.9736328,29.3925781 16.9492188,29.2822266 17.0361328,29.1962891 17.1459961,29.2197266 17.1699219,29.3291016 			"/>
			<polygon fill="#676767" points="17.0200195,29.1816406 17.0395508,29.1962891 16.9506836,29.2861328 16.9326172,29.2636719 			
				"/>
			<polygon fill="#676767" points="16.9887695,29.4111328 16.9716797,29.3945313 16.9399414,29.2695313 16.9418945,29.2695313 
				16.9604492,29.2939453 			"/>
			<polygon fill="#676767" points="17.1655273,29.2353516 17.1479492,29.2177734 17.0249023,29.1855469 17.03125,29.1992188 
				17.0478516,29.2060547 			"/>
			<polygon fill="#989898" stroke="#676767" stroke-width="0.0048349" stroke-miterlimit="10" points="17.1079102,29.4404297 
				16.9902344,29.4101563 16.9599609,29.2919922 17.0454102,29.2060547 17.1630859,29.2363281 17.1943359,29.3544922 			"/>
			<circle fill="#676767" cx="17.0732422" cy="29.3198242" r="0.0421226"/>
			<circle fill="#676767" cx="17.0732422" cy="29.3198242" r="0.0421226"/>
			<g>
				<defs>
					<circle id="SVGID_176_" cx="17.0732422" cy="29.3198242" r="0.0421226"/>
				</defs>
				<clipPath id="SVGID_11_">
					<use xlink:href="#SVGID_176_"  overflow="visible"/>
				</clipPath>
				<circle opacity="0.5" clip-path="url(#SVGID_11_)" fill="#676767" cx="17.0600586" cy="29.3056641" r="0.0417787"/>
			</g>
		</g>
	</g>
	<g>
		<circle fill="#010101" cx="17.6689453" cy="28.7304688" r="3.3105469"/>
		<circle fill="#1A1A1A" cx="16.7351074" cy="28.7587891" r="3.310791"/>
		<circle fill="#F3F3F3" cx="16.7353516" cy="28.7587891" r="1.3393555"/>
		<radialGradient id="SVGID_12_" cx="16.7353516" cy="28.7587891" r="1.2001953" gradientUnits="userSpaceOnUse">
			<stop  offset="0.6976327" style="stop-color:#FFFFFF"/>
			<stop  offset="0.9293939" style="stop-color:#000000"/>
		</radialGradient>
		<circle opacity="0.3" fill="url(#SVGID_12_)" cx="16.7353516" cy="28.7587891" r="1.2001953"/>
		
			<circle fill="none" stroke="#4E4E4E" stroke-width="0.2829661" stroke-linecap="round" stroke-linejoin="round" stroke-miterlimit="10" cx="16.7353516" cy="28.7587891" r="1.3393555"/>
		
			<circle fill="#989898" stroke="#676767" stroke-width="0.0282966" stroke-miterlimit="10" cx="16.7353516" cy="28.7587891" r="0.5322266"/>
		<g opacity="0.2">
			<path fill="#F3F3F3" d="M16.5703125,28.4140625c0,0-0.1376953,0.0605469-0.1953125,0.2070313
				c-0.043457,0.0634766-0.0263672,0.1484375-0.0410156,0.203125c-0.0068359,0.0585938-0.0112305,0.0976563-0.0112305,0.0976563
				c0.0014648,0.0078125-0.003418,0.015625-0.0112305,0.0166016c-0.0073242,0.0019531-0.0146484-0.0068359-0.0170898-0.0146484
				c0,0,0.0009766-0.0400391,0.0024414-0.1005859c0.0097656-0.0595703-0.0146484-0.1474609,0.0253906-0.2226563
				c0.0449219-0.1699219,0.2172852-0.2705078,0.2089844-0.2626953c0.0209961-0.0107422,0.046875-0.0019531,0.0576172,0.0185547
				C16.5996094,28.3779297,16.5913086,28.4033203,16.5703125,28.4140625z"/>
		</g>
		<g>
			<polygon fill="#989898" stroke="#676767" stroke-width="0.0354248" stroke-miterlimit="10" points="16.6518555,29.6435547 
				16.7583008,29.5830078 16.8652344,29.6435547 16.8652344,29.765625 16.7583008,29.8271484 16.6518555,29.765625 			"/>
			<rect x="16.8470879" y="29.6411133" fill="#676767" width="0.0270148" height="0.1259766"/>
			<polygon fill="#676767" points="16.7358398,29.5810547 16.7607422,29.5800781 16.8706055,29.6445313 16.8691406,29.6474609 
				16.8393555,29.6435547 			"/>
			<polygon fill="#676767" points="16.7358398,29.8300781 16.7607422,29.8300781 16.8701172,29.765625 16.855957,29.7597656 
				16.8393555,29.7666016 			"/>
			<polygon fill="#989898" stroke="#676767" stroke-width="0.0354248" stroke-miterlimit="10" points="16.6166992,29.6435547 
				16.7231445,29.5830078 16.8291016,29.6435547 16.8291016,29.765625 16.7231445,29.8271484 16.6166992,29.765625 			"/>
			<circle fill="#676767" cx="16.7412109" cy="29.7050781" r="0.0419922"/>
			<circle fill="#676767" cx="16.7412109" cy="29.7050781" r="0.0419922"/>
			<g>
				<defs>
					<circle id="SVGID_179_" cx="16.7412109" cy="29.7050781" r="0.0419922"/>
				</defs>
				<clipPath id="SVGID_13_">
					<use xlink:href="#SVGID_179_"  overflow="visible"/>
				</clipPath>
				<circle opacity="0.5" clip-path="url(#SVGID_13_)" fill="#676767" cx="16.7607422" cy="29.7050781" r="0.0419922"/>
			</g>
		</g>
		<g>
			<polygon fill="#989898" stroke="#676767" stroke-width="0.0354248" stroke-miterlimit="10" points="16.6518555,27.7197266 
				16.7583008,27.6582031 16.8652344,27.7197266 16.8652344,27.8417969 16.7583008,27.9023438 16.6518555,27.8417969 			"/>
			<polygon fill="#676767" points="16.8740234,27.8408203 16.847168,27.84375 16.847168,27.7177734 16.8769531,27.7216797 			"/>
			<polygon fill="#676767" points="16.7358398,27.65625 16.7607422,27.65625 16.8706055,27.7216797 16.8691406,27.7226563 
				16.8393555,27.7197266 			"/>
			<polygon fill="#676767" points="16.7358398,27.9052734 16.7607422,27.9052734 16.8701172,27.8408203 16.855957,27.8359375 
				16.8393555,27.8427734 			"/>
			<polygon fill="#989898" stroke="#676767" stroke-width="0.0354248" stroke-miterlimit="10" points="16.6166992,27.7197266 
				16.7231445,27.6582031 16.8291016,27.7197266 16.8291016,27.8417969 16.7231445,27.9023438 16.6166992,27.8417969 			"/>
			<circle fill="#676767" cx="16.7412109" cy="27.7807617" r="0.0415039"/>
			<circle fill="#676767" cx="16.7412109" cy="27.7807617" r="0.0415039"/>
			<g>
				<defs>
					<circle id="SVGID_181_" cx="16.7412109" cy="27.7807617" r="0.0415039"/>
				</defs>
				<clipPath id="SVGID_14_">
					<use xlink:href="#SVGID_181_"  overflow="visible"/>
				</clipPath>
				<circle opacity="0.5" clip-path="url(#SVGID_14_)" fill="#676767" cx="16.7607422" cy="27.78125" r="0.0419922"/>
			</g>
		</g>
		<g>
			<polygon fill="#989898" stroke="#676767" stroke-width="0.0354248" stroke-miterlimit="10" points="17.6552734,28.8300781 
				17.59375,28.7412109 17.6552734,28.6523438 17.7768555,28.6523438 17.8383789,28.7412109 17.7768555,28.8300781 			"/>
			<polygon fill="#676767" points="17.7763672,28.6152344 17.7788086,28.6347656 17.6533203,28.6347656 17.6567383,28.609375 			"/>
			<polygon fill="#676767" points="17.5913086,28.7617188 17.5913086,28.7373047 17.6567383,28.6269531 17.6586914,28.6279297 
				17.6552734,28.6582031 			"/>
			<polygon fill="#676767" points="17.8413086,28.7617188 17.8413086,28.7373047 17.7763672,28.6269531 17.7705078,28.6416016 
				17.777832,28.6582031 			"/>
			<polygon fill="#989898" stroke="#676767" stroke-width="0.0354248" stroke-miterlimit="10" points="17.6552734,28.8652344 
				17.59375,28.7587891 17.6552734,28.6523438 17.7768555,28.6523438 17.8383789,28.7587891 17.7768555,28.8652344 			"/>
			<circle fill="#676767" cx="17.7160645" cy="28.7568359" r="0.0422363"/>
			<circle fill="#676767" cx="17.7160645" cy="28.7568359" r="0.0422363"/>
			<g>
				<defs>
					<circle id="SVGID_183_" cx="17.7160645" cy="28.7568359" r="0.0422363"/>
				</defs>
				<clipPath id="SVGID_15_">
					<use xlink:href="#SVGID_183_"  overflow="visible"/>
				</clipPath>
				<circle opacity="0.5" clip-path="url(#SVGID_15_)" fill="#676767" cx="17.7163086" cy="28.7373047" r="0.0419922"/>
			</g>
		</g>
		<g>
			<polygon fill="#989898" stroke="#676767" stroke-width="0.0354248" stroke-miterlimit="10" points="15.730957,28.8300781 
				15.6694336,28.7412109 15.730957,28.6523438 15.8530273,28.6523438 15.9145508,28.7412109 15.8530273,28.8300781 			"/>
			<polygon fill="#676767" points="15.8520508,28.6152344 15.8549805,28.6347656 15.7290039,28.6347656 15.7324219,28.609375 			"/>
			<polygon fill="#676767" points="15.6674805,28.7617188 15.6674805,28.7373047 15.7324219,28.6269531 15.7338867,28.6279297 
				15.730957,28.6582031 			"/>
			<polygon fill="#676767" points="15.9165039,28.7617188 15.9169922,28.7373047 15.8520508,28.6269531 15.8466797,28.6416016 
				15.8535156,28.6582031 			"/>
			<polygon fill="#989898" stroke="#676767" stroke-width="0.0354248" stroke-miterlimit="10" points="15.730957,28.8652344 
				15.6694336,28.7587891 15.730957,28.6523438 15.8530273,28.6523438 15.9145508,28.7587891 15.8530273,28.8652344 			"/>
			<circle fill="#676767" cx="15.7915039" cy="28.7568359" r="0.0419922"/>
			<circle fill="#676767" cx="15.7915039" cy="28.7568359" r="0.0419922"/>
			<g>
				<defs>
					<circle id="SVGID_185_" cx="15.7915039" cy="28.7568359" r="0.0419922"/>
				</defs>
				<clipPath id="SVGID_16_">
					<use xlink:href="#SVGID_185_"  overflow="visible"/>
				</clipPath>
				<circle opacity="0.5" clip-path="url(#SVGID_16_)" fill="#676767" cx="15.7922363" cy="28.7373047" r="0.041748"/>
			</g>
		</g>
		<g>
			<polygon fill="#989898" stroke="#676767" stroke-width="0.0045879" stroke-miterlimit="10" points="17.3286133,29.4433594 
				17.3520508,29.3320313 17.4619141,29.3085938 17.5488281,29.3955078 17.5249023,29.5048828 17.4150391,29.5283203 			"/>
			<polygon fill="#676767" points="17.5625,29.3808594 17.5454102,29.4013672 17.456543,29.3125 17.4794922,29.2939453 			"/>
			<polygon fill="#676767" points="17.3334961,29.3476563 17.3505859,29.3310547 17.4746094,29.2988281 17.4746094,29.3017578 
				17.4516602,29.3193359 			"/>
			<polygon fill="#676767" points="17.5092773,29.5244141 17.5273438,29.5068359 17.559082,29.3837891 17.5454102,29.390625 
				17.5380859,29.4072266 			"/>
			<polygon fill="#989898" stroke="#676767" stroke-width="0.0048349" stroke-miterlimit="10" points="17.3037109,29.4667969 
				17.3349609,29.3505859 17.4526367,29.3183594 17.5390625,29.4052734 17.5078125,29.5224609 17.3901367,29.5537109 			"/>
			<circle fill="#676767" cx="17.4248047" cy="29.4321289" r="0.0421226"/>
			<circle fill="#676767" cx="17.4248047" cy="29.4321289" r="0.0421226"/>
			<g>
				<defs>
					<circle id="SVGID_187_" cx="17.4248047" cy="29.4321289" r="0.0421226"/>
				</defs>
				<clipPath id="SVGID_17_">
					<use xlink:href="#SVGID_187_"  overflow="visible"/>
				</clipPath>
				<circle opacity="0.5" clip-path="url(#SVGID_17_)" fill="#676767" cx="17.4394531" cy="29.418457" r="0.0421226"/>
			</g>
		</g>
		<g>
			<polygon fill="#989898" stroke="#676767" stroke-width="0.0045879" stroke-miterlimit="10" points="15.9677734,28.0820313 
				15.9916992,27.9716797 16.1020508,27.9482422 16.1884766,28.0341797 16.1640625,28.1445313 16.0541992,28.1689453 			"/>
			<polygon fill="#676767" points="16.2016602,28.0205078 16.1850586,28.0400391 16.0957031,27.9511719 16.1186523,27.9335938 			
				"/>
			<polygon fill="#676767" points="15.9726563,27.9873047 15.9897461,27.9697266 16.1137695,27.9384766 16.1142578,27.9404297 
				16.0908203,27.9599609 			"/>
			<polygon fill="#676767" points="16.1489258,28.1640625 16.1669922,28.1464844 16.1982422,28.0234375 16.184082,28.0302734 
				16.1782227,28.0458984 			"/>
			<polygon fill="#989898" stroke="#676767" stroke-width="0.0048349" stroke-miterlimit="10" points="15.9433594,28.1064453 
				15.9746094,27.9892578 16.0922852,27.9580078 16.1782227,28.0449219 16.1474609,28.1611328 16.0297852,28.1933594 			"/>
			<circle fill="#676767" cx="16.0644531" cy="28.0722656" r="0.0417787"/>
			<circle fill="#676767" cx="16.0644531" cy="28.0722656" r="0.0417787"/>
			<g>
				<defs>
					<circle id="SVGID_189_" cx="16.0644531" cy="28.0722656" r="0.0417787"/>
				</defs>
				<clipPath id="SVGID_18_">
					<use xlink:href="#SVGID_189_"  overflow="visible"/>
				</clipPath>
				<circle opacity="0.5" clip-path="url(#SVGID_18_)" fill="#676767" cx="16.0783691" cy="28.0581055" r="0.0419503"/>
			</g>
		</g>
		<g>
			<polygon fill="#989898" stroke="#676767" stroke-width="0.0045879" stroke-miterlimit="10" points="17.4536133,28.1689453 
				17.34375,28.1445313 17.3198242,28.0351563 17.40625,27.9482422 17.5161133,27.9716797 17.5405273,28.0830078 			"/>
			
				<rect x="17.3426514" y="27.9233456" transform="matrix(-0.7619393 -0.6476485 0.6476485 -0.7619393 12.4542952 60.5495949)" fill="#676767" width="0.0256336" height="0.1249886"/>
			<polygon fill="#676767" points="17.3588867,28.1640625 17.3417969,28.1464844 17.3100586,28.0234375 17.3120117,28.0234375 
				17.3305664,28.0458984 			"/>
			<polygon fill="#676767" points="17.5356445,27.9882813 17.5180664,27.9697266 17.3950195,27.9384766 17.4013672,27.9521484 
				17.4179688,27.9599609 			"/>
			<polygon fill="#989898" stroke="#676767" stroke-width="0.0048349" stroke-miterlimit="10" points="17.4780273,28.1933594 
				17.3613281,28.1621094 17.3300781,28.0449219 17.4165039,27.9580078 17.5332031,27.9902344 17.5644531,28.1064453 			"/>
			<circle fill="#676767" cx="17.4433594" cy="28.0722656" r="0.0417787"/>
			<circle fill="#676767" cx="17.4433594" cy="28.0722656" r="0.0417787"/>
			<g>
				<defs>
					<circle id="SVGID_191_" cx="17.4433594" cy="28.0722656" r="0.0417787"/>
				</defs>
				<clipPath id="SVGID_19_">
					<use xlink:href="#SVGID_191_"  overflow="visible"/>
				</clipPath>
				<circle opacity="0.5" clip-path="url(#SVGID_19_)" fill="#676767" cx="17.4301758" cy="28.0581055" r="0.0421226"/>
			</g>
		</g>
		<g>
			<polygon fill="#989898" stroke="#676767" stroke-width="0.0045879" stroke-miterlimit="10" points="16.0927734,29.5292969 
				15.9829102,29.5048828 15.9594727,29.3955078 16.0458984,29.3095703 16.1557617,29.3330078 16.1791992,29.4433594 			"/>
			<polygon fill="#676767" points="16.0297852,29.2949219 16.0493164,29.3105469 15.9599609,29.3984375 15.9428711,29.3769531 			
				"/>
			<polygon fill="#676767" points="15.9990234,29.5244141 15.980957,29.5068359 15.949707,29.3837891 15.9516602,29.3837891 
				15.9702148,29.4072266 			"/>
			<polygon fill="#676767" points="16.175293,29.3486328 16.1577148,29.3310547 16.0341797,29.2988281 16.0410156,29.3125 
				16.0571289,29.3193359 			"/>
			<polygon fill="#989898" stroke="#676767" stroke-width="0.0048349" stroke-miterlimit="10" points="16.1176758,29.5537109 
				16,29.5234375 15.9692383,29.4052734 16.0556641,29.3193359 16.1733398,29.3505859 16.2041016,29.4677734 			"/>
			<circle fill="#676767" cx="16.0827637" cy="29.4321289" r="0.0419503"/>
			<circle fill="#676767" cx="16.0827637" cy="29.4321289" r="0.0419503"/>
			<g>
				<defs>
					<circle id="SVGID_193_" cx="16.0827637" cy="29.4321289" r="0.0419503"/>
				</defs>
				<clipPath id="SVGID_20_">
					<use xlink:href="#SVGID_193_"  overflow="visible"/>
				</clipPath>
				<circle opacity="0.5" clip-path="url(#SVGID_20_)" fill="#676767" cx="16.0693359" cy="29.418457" r="0.0421226"/>
			</g>
		</g>
	</g>
	<g>
		<circle fill="#010101" cx="14.1901855" cy="28.7412109" r="4.1442871"/>
		<circle fill="#1A1A1A" cx="13.0212402" cy="28.7763672" r="4.1447754"/>
		<circle fill="#F3F3F3" cx="13.0212402" cy="28.7763672" r="1.6760254"/>
		<radialGradient id="SVGID_21_" cx="13.0209961" cy="28.7763672" r="1.5021973" gradientUnits="userSpaceOnUse">
			<stop  offset="0.6976327" style="stop-color:#FFFFFF"/>
			<stop  offset="0.9293939" style="stop-color:#000000"/>
		</radialGradient>
		<circle opacity="0.3" fill="url(#SVGID_21_)" cx="13.0209961" cy="28.7763672" r="1.5024414"/>
		
			<circle fill="none" stroke="#4E4E4E" stroke-width="0.3542482" stroke-linecap="round" stroke-linejoin="round" stroke-miterlimit="10" cx="13.0212402" cy="28.7763672" r="1.6760254"/>
		
			<circle fill="#989898" stroke="#676767" stroke-width="0.0354248" stroke-miterlimit="10" cx="13.0212402" cy="28.7763672" r="0.666748"/>
		<g opacity="0.2">
			<path fill="#F3F3F3" d="M12.8149414,28.3447266c0.0029297,0.0019531-0.0541992,0.0166016-0.0966797,0.0625
				c-0.059082,0.0322266-0.1020508,0.1142578-0.1474609,0.1972656c-0.0546875,0.0791016-0.0332031,0.1855469-0.0517578,0.2548828
				c-0.0083008,0.0722656-0.0141602,0.1210938-0.0141602,0.1210938l-0.0004883,0.0058594
				c-0.0014648,0.0097656-0.0097656,0.0166016-0.0195313,0.015625c-0.0087891-0.0009766-0.0151367-0.0087891-0.0151367-0.0175781
				c0,0,0.0009766-0.0507813,0.0029297-0.1269531c0.012207-0.0742188-0.0185547-0.1855469,0.0317383-0.2792969
				c0.0415039-0.0976563,0.0839844-0.1962891,0.1567383-0.2480469c0.0610352-0.0654297,0.1054688-0.0771484,0.1049805-0.0810547
				l0.0151367-0.0048828c0.027832-0.0097656,0.0581055,0.0039063,0.0678711,0.0322266
				c0.0097656,0.0273438-0.0048828,0.0576172-0.0322266,0.0673828C12.8164063,28.34375,12.8154297,28.3447266,12.8149414,28.3447266
				z"/>
		</g>
		<g>
			<polygon fill="#989898" stroke="#676767" stroke-width="0.0354248" stroke-miterlimit="10" points="12.9321289,29.8847656 
				13.0566406,29.8085938 13.1806641,29.8847656 13.1806641,30.0380859 13.0566406,30.1142578 12.9321289,30.0380859 			"/>
			<polygon fill="#676767" points="13.1958008,30.0361328 13.1625977,30.0390625 13.1625977,29.8828125 13.1992188,29.8867188 			
				"/>
			<polygon fill="#676767" points="13.0224609,29.8056641 13.0527344,29.8056641 13.1904297,29.8867188 13.1889648,29.8886719 
				13.1518555,29.8847656 			"/>
			<polygon fill="#676767" points="13.0214844,30.1171875 13.0532227,30.1181641 13.1904297,30.0361328 13.1723633,30.0292969 
				13.1518555,30.0390625 			"/>
			<polygon fill="#989898" stroke="#676767" stroke-width="0.0354248" stroke-miterlimit="10" points="12.8969727,29.8847656 
				13.0209961,29.8085938 13.1455078,29.8847656 13.1455078,30.0380859 13.0209961,30.1142578 12.8969727,30.0380859 			"/>
			<circle fill="#676767" cx="13.0283203" cy="29.9609375" r="0.0527344"/>
			<circle fill="#676767" cx="13.0283203" cy="29.9609375" r="0.0527344"/>
			<g>
				<defs>
					<circle id="SVGID_196_" cx="13.0283203" cy="29.9609375" r="0.0527344"/>
				</defs>
				<clipPath id="SVGID_22_">
					<use xlink:href="#SVGID_196_"  overflow="visible"/>
				</clipPath>
				<circle opacity="0.5" clip-path="url(#SVGID_22_)" fill="#676767" cx="13.0527344" cy="29.9619141" r="0.0527344"/>
			</g>
		</g>
		<g>
			<polygon fill="#989898" stroke="#676767" stroke-width="0.0354248" stroke-miterlimit="10" points="12.9321289,27.4755859 
				13.0566406,27.3994141 13.1806641,27.4755859 13.1806641,27.6289063 13.0566406,27.7050781 12.9321289,27.6289063 			"/>
			<polygon fill="#676767" points="13.1958008,27.6269531 13.1625977,27.6308594 13.1625977,27.4736328 13.1992188,27.4775391 			
				"/>
			<polygon fill="#676767" points="13.0224609,27.3964844 13.0527344,27.3964844 13.1904297,27.4775391 13.1889648,27.4804688 
				13.1518555,27.4755859 			"/>
			<polygon fill="#676767" points="13.0214844,27.7089844 13.0532227,27.7089844 13.1904297,27.6269531 13.1723633,27.6210938 
				13.1518555,27.6298828 			"/>
			<polygon fill="#989898" stroke="#676767" stroke-width="0.0354248" stroke-miterlimit="10" points="12.8969727,27.4755859 
				13.0209961,27.3994141 13.1455078,27.4755859 13.1455078,27.6289063 13.0209961,27.7050781 12.8969727,27.6289063 			"/>
			<circle fill="#676767" cx="13.0283203" cy="27.5517578" r="0.0527344"/>
			<circle fill="#676767" cx="13.0283203" cy="27.5517578" r="0.0527344"/>
			<g>
				<defs>
					<circle id="SVGID_198_" cx="13.0283203" cy="27.5517578" r="0.0527344"/>
				</defs>
				<clipPath id="SVGID_23_">
					<use xlink:href="#SVGID_198_"  overflow="visible"/>
				</clipPath>
				<circle opacity="0.5" clip-path="url(#SVGID_23_)" fill="#676767" cx="13.0527344" cy="27.5527344" r="0.0527344"/>
			</g>
		</g>
		<g>
			<polygon fill="#989898" stroke="#676767" stroke-width="0.0354248" stroke-miterlimit="10" points="14.1728516,28.8652344 
				14.0961914,28.7412109 14.1728516,28.6171875 14.3256836,28.6171875 14.4018555,28.7412109 14.3256836,28.8652344 			"/>
			<polygon fill="#676767" points="14.3242188,28.6044922 14.3276367,28.6347656 14.1699219,28.6347656 14.1743164,28.5996094 			
				"/>
			<polygon fill="#676767" points="14.0932617,28.7802734 14.0932617,28.7490234 14.1743164,28.6113281 14.1772461,28.6132813 
				14.1728516,28.6503906 			"/>
			<polygon fill="#676767" points="14.4052734,28.7802734 14.40625,28.7490234 14.3242188,28.6123047 14.3183594,28.6298828 
				14.3266602,28.6503906 			"/>
			<polygon fill="#989898" stroke="#676767" stroke-width="0.0354248" stroke-miterlimit="10" points="14.1728516,28.9003906 
				14.0961914,28.7763672 14.1728516,28.6523438 14.3256836,28.6523438 14.4018555,28.7763672 14.3256836,28.9003906 			"/>
			<circle fill="#676767" cx="14.2490234" cy="28.7734375" r="0.0527344"/>
			<circle fill="#676767" cx="14.2490234" cy="28.7734375" r="0.0527344"/>
			<g>
				<defs>
					<circle id="SVGID_200_" cx="14.2490234" cy="28.7734375" r="0.0527344"/>
				</defs>
				<clipPath id="SVGID_24_">
					<use xlink:href="#SVGID_200_"  overflow="visible"/>
				</clipPath>
				<circle opacity="0.5" clip-path="url(#SVGID_24_)" fill="#676767" cx="14.2497559" cy="28.75" r="0.0524902"/>
			</g>
		</g>
		<g>
			<polygon fill="#989898" stroke="#676767" stroke-width="0.0354248" stroke-miterlimit="10" points="11.7636719,28.8652344 
				11.6875,28.7412109 11.7636719,28.6171875 11.9165039,28.6171875 11.9936523,28.7412109 11.9165039,28.8652344 			"/>
			<polygon fill="#676767" points="11.9160156,28.6044922 11.9189453,28.6347656 11.7617188,28.6347656 11.7651367,28.5996094 			
				"/>
			<polygon fill="#676767" points="11.684082,28.7802734 11.684082,28.7490234 11.765625,28.6113281 11.7680664,28.6132813 
				11.7636719,28.6503906 			"/>
			<polygon fill="#676767" points="11.9970703,28.7802734 11.9970703,28.7490234 11.9160156,28.6123047 11.9091797,28.6298828 
				11.9174805,28.6503906 			"/>
			<polygon fill="#989898" stroke="#676767" stroke-width="0.0354248" stroke-miterlimit="10" points="11.7636719,28.9003906 
				11.6875,28.7763672 11.7636719,28.6523438 11.9165039,28.6523438 11.9936523,28.7763672 11.9165039,28.9003906 			"/>
			<circle fill="#676767" cx="11.8398438" cy="28.7734375" r="0.0527344"/>
			<circle fill="#676767" cx="11.8398438" cy="28.7734375" r="0.0527344"/>
			<g>
				<defs>
					<circle id="SVGID_202_" cx="11.8398438" cy="28.7734375" r="0.0527344"/>
				</defs>
				<clipPath id="SVGID_25_">
					<use xlink:href="#SVGID_202_"  overflow="visible"/>
				</clipPath>
				<circle opacity="0.5" clip-path="url(#SVGID_25_)" fill="#676767" cx="11.8405762" cy="28.75" r="0.0524902"/>
			</g>
		</g>
		<g>
			<polygon fill="#989898" stroke="#676767" stroke-width="0.0057436" stroke-miterlimit="10" points="13.7641602,29.6328125 
				13.7939453,29.4951172 13.9316406,29.4648438 14.0400391,29.5732422 14.0102539,29.7109375 13.8725586,29.7402344 			"/>
			<polygon fill="#676767" points="14.0566406,29.5546875 14.0351563,29.5810547 13.9238281,29.46875 13.9526367,29.4462891 			"/>
			<polygon fill="#676767" points="13.7700195,29.5146484 13.7915039,29.4931641 13.9467773,29.4521484 13.9472656,29.4550781 
				13.9174805,29.4785156 			"/>
			<polygon fill="#676767" points="13.9902344,29.7353516 14.0131836,29.7138672 14.0527344,29.5595703 14.0351563,29.5673828 
				14.0268555,29.5878906 			"/>
			<polygon fill="#989898" stroke="#676767" stroke-width="0.0060528" stroke-miterlimit="10" points="13.7333984,29.6640625 
				13.7724609,29.5166016 13.9189453,29.4775391 14.027832,29.5859375 13.9887695,29.7324219 13.8413086,29.7714844 			"/>
			<circle fill="#676767" cx="13.8847656" cy="29.6201172" r="0.0524806"/>
			<circle fill="#676767" cx="13.8847656" cy="29.6201172" r="0.0524806"/>
			<g>
				<defs>
					<circle id="SVGID_204_" cx="13.8847656" cy="29.6201172" r="0.0524806"/>
				</defs>
				<clipPath id="SVGID_26_">
					<use xlink:href="#SVGID_204_"  overflow="visible"/>
				</clipPath>
				<circle opacity="0.5" clip-path="url(#SVGID_26_)" fill="#676767" cx="13.9025879" cy="29.6035156" r="0.0526535"/>
			</g>
		</g>
		<g>
			<polygon fill="#989898" stroke="#676767" stroke-width="0.0057436" stroke-miterlimit="10" points="12.0605469,27.9287109 
				12.090332,27.7919922 12.2280273,27.7617188 12.3364258,27.8701172 12.3066406,28.0078125 12.1689453,28.0380859 			"/>
			<polygon fill="#676767" points="12.3530273,27.8515625 12.331543,27.8779297 12.2211914,27.765625 12.2495117,27.7431641 			"/>
			<polygon fill="#676767" points="12.0668945,27.8115234 12.0883789,27.7890625 12.2431641,27.7490234 12.2441406,27.7519531 
				12.2148438,27.7753906 			"/>
			<polygon fill="#676767" points="12.2875977,28.0322266 12.3095703,28.0107422 12.3491211,27.8554688 12.331543,27.8642578 
				12.3232422,27.8847656 			"/>
			<polygon fill="#989898" stroke="#676767" stroke-width="0.0060528" stroke-miterlimit="10" points="12.0302734,27.9599609 
				12.0688477,27.8125 12.2163086,27.7744141 12.3242188,27.8818359 12.2856445,28.0292969 12.1381836,28.0683594 			"/>
			<circle fill="#676767" cx="12.1811523" cy="27.9165039" r="0.052827"/>
			<circle fill="#676767" cx="12.1811523" cy="27.9165039" r="0.052827"/>
			<g>
				<defs>
					<circle id="SVGID_206_" cx="12.1811523" cy="27.9165039" r="0.052827"/>
				</defs>
				<clipPath id="SVGID_27_">
					<use xlink:href="#SVGID_206_"  overflow="visible"/>
				</clipPath>
				<circle opacity="0.5" clip-path="url(#SVGID_27_)" fill="#676767" cx="12.1989746" cy="27.8999023" r="0.0529988"/>
			</g>
		</g>
		<g>
			<polygon fill="#989898" stroke="#676767" stroke-width="0.0057436" stroke-miterlimit="10" points="13.9208984,28.0380859 
				13.7827148,28.0078125 13.7529297,27.8710938 13.8613281,27.7626953 13.9990234,27.7919922 14.0288086,27.9296875 			"/>
			<polygon fill="#676767" points="13.8413086,27.7431641 13.8657227,27.7636719 13.7543945,27.875 13.7319336,27.8476563 			"/>
			<polygon fill="#676767" points="13.8027344,28.0322266 13.7807617,28.0107422 13.7412109,27.8554688 13.7441406,27.8554688 
				13.7666016,27.8837891 			"/>
			<polygon fill="#676767" points="14.0234375,27.8115234 14.0014648,27.7890625 13.847168,27.7490234 13.8554688,27.7675781 
				13.8754883,27.7753906 			"/>
			<polygon fill="#989898" stroke="#676767" stroke-width="0.0060528" stroke-miterlimit="10" points="13.9516602,28.0683594 
				13.8046875,28.0302734 13.7651367,27.8828125 13.8740234,27.7744141 14.0205078,27.8134766 14.0595703,27.9609375 			"/>
			<circle fill="#676767" cx="13.907959" cy="27.9174805" r="0.0529988"/>
			<circle fill="#676767" cx="13.907959" cy="27.9174805" r="0.0529988"/>
			<g>
				<defs>
					<circle id="SVGID_208_" cx="13.907959" cy="27.9174805" r="0.0529988"/>
				</defs>
				<clipPath id="SVGID_28_">
					<use xlink:href="#SVGID_208_"  overflow="visible"/>
				</clipPath>
				<circle opacity="0.5" clip-path="url(#SVGID_28_)" fill="#676767" cx="13.8913574" cy="27.8999023" r="0.0529988"/>
			</g>
		</g>
		<g>
			<polygon fill="#989898" stroke="#676767" stroke-width="0.0057436" stroke-miterlimit="10" points="12.2177734,29.7421875 
				12.0791016,29.7109375 12.050293,29.5742188 12.1582031,29.4658203 12.2958984,29.4951172 12.3256836,29.6328125 			"/>
			<polygon fill="#676767" points="12.1381836,29.4472656 12.1621094,29.4667969 12.0507813,29.578125 12.0288086,29.5507813 			"/>
			<polygon fill="#676767" points="12.0991211,29.7353516 12.0771484,29.7138672 12.0375977,29.5595703 12.0405273,29.5585938 
				12.0634766,29.5878906 			"/>
			<polygon fill="#676767" points="12.3198242,29.5146484 12.2983398,29.4931641 12.1435547,29.4521484 12.1518555,29.4707031 
				12.171875,29.4785156 			"/>
			<polygon fill="#989898" stroke="#676767" stroke-width="0.0060528" stroke-miterlimit="10" points="12.2480469,29.7724609 
				12.1015625,29.7333984 12.0620117,29.5859375 12.1704102,29.4785156 12.3173828,29.5166016 12.3564453,29.6640625 			"/>
			<circle fill="#676767" cx="12.2043457" cy="29.6201172" r="0.0526535"/>
			<circle fill="#676767" cx="12.2043457" cy="29.6201172" r="0.0526535"/>
			<g>
				<defs>
					<circle id="SVGID_210_" cx="12.2043457" cy="29.6201172" r="0.0526535"/>
				</defs>
				<clipPath id="SVGID_29_">
					<use xlink:href="#SVGID_210_"  overflow="visible"/>
				</clipPath>
				<circle opacity="0.5" clip-path="url(#SVGID_29_)" fill="#676767" cx="12.1877441" cy="29.6030273" r="0.0523105"/>
			</g>
		</g>
	</g>
	<path fill="#010101" d="M12.9501953,24.7382813L11.78125,24.7705078l0.003418,0.3671875
		c0,0,0.109375,0.2255859,0.3417969,0.2255859C12.359375,25.3632813,12.9501953,24.7382813,12.9501953,24.7382813z"/>
	<path fill="#010101" d="M12.9501953,33.0273438L11.78125,33.0527344l0.003418-0.3662109
		c0,0,0.109375-0.2255859,0.3417969-0.2255859C12.359375,32.4609375,12.9501953,33.0273438,12.9501953,33.0273438z"/>
	<rect x="3.2436523" y="11.9853516" fill="#E6E6E5" width="34.1147461" height="13.3544922"/>
	<g>
		<defs>
			<rect id="SVGID_212_" x="3.2436523" y="11.9853516" width="34.1147461" height="13.2841797"/>
		</defs>
		<clipPath id="SVGID_30_">
			<use xlink:href="#SVGID_212_"  overflow="visible"/>
		</clipPath>
		<rect x="2.5" y="16.4487305" clip-path="url(#SVGID_30_)" fill="#00A99D" width="35.1767578" height="4.215332"/>
	</g>
	<g>
		<circle fill="#010101" cx="12.9501953" cy="28.8828125" r="4.1445313"/>
		<circle fill="#1A1A1A" cx="11.7814941" cy="28.9189453" r="4.1447754"/>
		<circle fill="#F3F3F3" cx="11.7814941" cy="28.9189453" r="1.6760254"/>
		<radialGradient id="SVGID_31_" cx="11.78125" cy="28.9179688" r="1.5026855" gradientUnits="userSpaceOnUse">
			<stop  offset="0.6976327" style="stop-color:#FFFFFF"/>
			<stop  offset="0.9293939" style="stop-color:#000000"/>
		</radialGradient>
		<circle opacity="0.3" fill="url(#SVGID_31_)" cx="11.78125" cy="28.9189453" r="1.5024414"/>
		
			<circle fill="none" stroke="#4E4E4E" stroke-width="0.3542482" stroke-linecap="round" stroke-linejoin="round" stroke-miterlimit="10" cx="11.7814941" cy="28.9189453" r="1.6760254"/>
		
			<circle fill="#989898" stroke="#676767" stroke-width="0.0354248" stroke-miterlimit="10" cx="11.7814941" cy="28.9189453" r="0.666748"/>
		<g opacity="0.2">
			<path fill="#F3F3F3" d="M11.5751953,28.4873047c0.0029297,0.0019531-0.0541992,0.0166016-0.0966797,0.0625
				c-0.059082,0.0322266-0.1020508,0.1132813-0.1474609,0.1962891c-0.0546875,0.0791016-0.0332031,0.1855469-0.0517578,0.2548828
				c-0.0083008,0.0722656-0.0141602,0.1210938-0.0141602,0.1210938l-0.0004883,0.0058594
				c-0.0014648,0.0097656-0.0097656,0.0166016-0.0195313,0.015625c-0.0087891-0.0009766-0.0151367-0.0087891-0.0151367-0.0175781
				c0,0,0.0009766-0.0507813,0.0029297-0.1269531c0.012207-0.0742188-0.0185547-0.1845703,0.0317383-0.2792969
				c0.0415039-0.0966797,0.0839844-0.1962891,0.1572266-0.2480469c0.0605469-0.0644531,0.1049805-0.0761719,0.1044922-0.0800781
				l0.0151367-0.0048828c0.027832-0.0097656,0.0581055,0.0048828,0.0678711,0.0322266s-0.0048828,0.0576172-0.0327148,0.0673828
				C11.5761719,28.4863281,11.5756836,28.4873047,11.5751953,28.4873047z"/>
		</g>
		<g>
			<polygon fill="#989898" stroke="#676767" stroke-width="0.0354248" stroke-miterlimit="10" points="11.6923828,30.0273438 
				11.8168945,29.9501953 11.940918,30.0273438 11.940918,30.1787109 11.8168945,30.2558594 11.6923828,30.1787109 			"/>
			<polygon fill="#676767" points="11.9560547,30.1787109 11.9228516,30.1816406 11.9228516,30.0244141 11.9594727,30.0283203 			
				"/>
			<polygon fill="#676767" points="11.7822266,29.9462891 11.8129883,29.9462891 11.9506836,30.0283203 11.9492188,30.03125 
				11.9116211,30.0273438 			"/>
			<polygon fill="#676767" points="11.7817383,30.2597656 11.8134766,30.2597656 11.9506836,30.1787109 11.9326172,30.171875 
				11.9116211,30.1806641 			"/>
			<polygon fill="#989898" stroke="#676767" stroke-width="0.0354248" stroke-miterlimit="10" points="11.6572266,30.0273438 
				11.78125,29.9501953 11.9057617,30.0273438 11.9057617,30.1787109 11.78125,30.2558594 11.6572266,30.1787109 			"/>
			<circle fill="#676767" cx="11.7885742" cy="30.1030273" r="0.0522461"/>
			<circle fill="#676767" cx="11.7885742" cy="30.1030273" r="0.0522461"/>
			<g>
				<defs>
					<circle id="SVGID_215_" cx="11.7885742" cy="30.1030273" r="0.0522461"/>
				</defs>
				<clipPath id="SVGID_32_">
					<use xlink:href="#SVGID_215_"  overflow="visible"/>
				</clipPath>
				<circle opacity="0.5" clip-path="url(#SVGID_32_)" fill="#676767" cx="11.8129883" cy="30.1030273" r="0.0522461"/>
			</g>
		</g>
		<g>
			<polygon fill="#989898" stroke="#676767" stroke-width="0.0354248" stroke-miterlimit="10" points="11.6923828,27.6181641 
				11.8168945,27.5410156 11.940918,27.6181641 11.940918,27.7705078 11.8168945,27.8476563 11.6923828,27.7705078 			"/>
			<polygon fill="#676767" points="11.9560547,27.7695313 11.9228516,27.7724609 11.9228516,27.6152344 11.9594727,27.6191406 			
				"/>
			<polygon fill="#676767" points="11.7822266,27.5380859 11.8129883,27.5371094 11.9506836,27.6191406 11.9492188,27.6220703 
				11.9116211,27.6181641 			"/>
			<polygon fill="#676767" points="11.7817383,27.8505859 11.8134766,27.8505859 11.9506836,27.7695313 11.9326172,27.7626953 
				11.9116211,27.7714844 			"/>
			<polygon fill="#989898" stroke="#676767" stroke-width="0.0354248" stroke-miterlimit="10" points="11.6572266,27.6181641 
				11.78125,27.5410156 11.9057617,27.6181641 11.9057617,27.7705078 11.78125,27.8476563 11.6572266,27.7705078 			"/>
			<circle fill="#676767" cx="11.7885742" cy="27.6938477" r="0.0522461"/>
			<circle fill="#676767" cx="11.7885742" cy="27.6938477" r="0.0522461"/>
			<g>
				<defs>
					<circle id="SVGID_217_" cx="11.7885742" cy="27.6938477" r="0.0522461"/>
				</defs>
				<clipPath id="SVGID_33_">
					<use xlink:href="#SVGID_217_"  overflow="visible"/>
				</clipPath>
				<circle opacity="0.5" clip-path="url(#SVGID_33_)" fill="#676767" cx="11.8129883" cy="27.6943359" r="0.0527344"/>
			</g>
		</g>
		<g>
			<polygon fill="#989898" stroke="#676767" stroke-width="0.0354248" stroke-miterlimit="10" points="12.9331055,29.0068359 
				12.8564453,28.8828125 12.9331055,28.7587891 13.0859375,28.7587891 13.1621094,28.8828125 13.0859375,29.0068359 			"/>
			<polygon fill="#676767" points="13.0844727,28.7451172 13.0878906,28.7763672 12.9301758,28.7763672 12.9345703,28.7412109 			
				"/>
			<polygon fill="#676767" points="12.8535156,28.921875 12.8535156,28.890625 12.9345703,28.7529297 12.9370117,28.7548828 
				12.9331055,28.7919922 			"/>
			<polygon fill="#676767" points="13.1655273,28.921875 13.1660156,28.890625 13.0844727,28.7539063 13.078125,28.7714844 
				13.0864258,28.7919922 			"/>
			<polygon fill="#989898" stroke="#676767" stroke-width="0.0354248" stroke-miterlimit="10" points="12.9331055,29.0419922 
				12.8564453,28.9189453 12.9331055,28.7939453 13.0859375,28.7939453 13.1621094,28.9189453 13.0859375,29.0419922 			"/>
			<circle fill="#676767" cx="13.0090332" cy="28.9150391" r="0.0524902"/>
			<circle fill="#676767" cx="13.0090332" cy="28.9150391" r="0.0524902"/>
			<g>
				<defs>
					<circle id="SVGID_219_" cx="13.0090332" cy="28.9150391" r="0.0524902"/>
				</defs>
				<clipPath id="SVGID_34_">
					<use xlink:href="#SVGID_219_"  overflow="visible"/>
				</clipPath>
				<circle opacity="0.5" clip-path="url(#SVGID_34_)" fill="#676767" cx="13.0097656" cy="28.890625" r="0.0527344"/>
			</g>
		</g>
		<g>
			<polygon fill="#989898" stroke="#676767" stroke-width="0.0354248" stroke-miterlimit="10" points="10.5239258,29.0068359 
				10.4477539,28.8828125 10.5239258,28.7587891 10.6767578,28.7587891 10.753418,28.8828125 10.6767578,29.0068359 			"/>
			<polygon fill="#676767" points="10.6762695,28.7451172 10.6787109,28.7763672 10.5219727,28.7763672 10.5253906,28.7412109 			
				"/>
			<polygon fill="#676767" points="10.4443359,28.921875 10.4443359,28.890625 10.5258789,28.7529297 10.527832,28.7548828 
				10.5239258,28.7919922 			"/>
			<polygon fill="#676767" points="10.7568359,28.921875 10.7568359,28.890625 10.6762695,28.7539063 10.6689453,28.7714844 
				10.6772461,28.7919922 			"/>
			<polygon fill="#989898" stroke="#676767" stroke-width="0.0354248" stroke-miterlimit="10" points="10.5239258,29.0419922 
				10.4477539,28.9189453 10.5239258,28.7939453 10.6767578,28.7939453 10.753418,28.9189453 10.6767578,29.0419922 			"/>
			<circle fill="#676767" cx="10.5998535" cy="28.9150391" r="0.0524902"/>
			<circle fill="#676767" cx="10.5998535" cy="28.9150391" r="0.0524902"/>
			<g>
				<defs>
					<circle id="SVGID_221_" cx="10.5998535" cy="28.9150391" r="0.0524902"/>
				</defs>
				<clipPath id="SVGID_35_">
					<use xlink:href="#SVGID_221_"  overflow="visible"/>
				</clipPath>
				<circle opacity="0.5" clip-path="url(#SVGID_35_)" fill="#676767" cx="10.6005859" cy="28.890625" r="0.0527344"/>
			</g>
		</g>
		<g>
			<polygon fill="#989898" stroke="#676767" stroke-width="0.0057436" stroke-miterlimit="10" points="12.5239258,29.7744141 
				12.5537109,29.6367188 12.6914063,29.6064453 12.800293,29.7158203 12.7705078,29.8525391 12.6328125,29.8828125 			"/>
			<polygon fill="#676767" points="12.8168945,29.6972656 12.7954102,29.7226563 12.684082,29.6113281 12.7128906,29.5878906 			"/>
			<polygon fill="#676767" points="12.5302734,29.65625 12.5517578,29.6337891 12.706543,29.5947266 12.7075195,29.5976563 
				12.6777344,29.6210938 			"/>
			<polygon fill="#676767" points="12.7504883,29.8769531 12.7734375,29.8554688 12.8125,29.7011719 12.7954102,29.7089844 
				12.7871094,29.7294922 			"/>
			<polygon fill="#989898" stroke="#676767" stroke-width="0.0060528" stroke-miterlimit="10" points="12.4936523,29.8056641 
				12.5322266,29.6582031 12.6791992,29.6191406 12.7875977,29.7275391 12.7490234,29.875 12.6015625,29.9130859 			"/>
			<circle fill="#676767" cx="12.6447754" cy="29.7617188" r="0.0523082"/>
			<circle fill="#676767" cx="12.6447754" cy="29.7617188" r="0.0523082"/>
			<g>
				<defs>
					<circle id="SVGID_223_" cx="12.6447754" cy="29.7617188" r="0.0523082"/>
				</defs>
				<clipPath id="SVGID_36_">
					<use xlink:href="#SVGID_223_"  overflow="visible"/>
				</clipPath>
				<circle opacity="0.5" clip-path="url(#SVGID_36_)" fill="#676767" cx="12.6623535" cy="29.7451172" r="0.0526535"/>
			</g>
		</g>
		<g>
			<polygon fill="#989898" stroke="#676767" stroke-width="0.0057436" stroke-miterlimit="10" points="10.8208008,28.0712891 
				10.8505859,27.9335938 10.9882813,27.9042969 11.0966797,28.0117188 11.0668945,28.1494141 10.9291992,28.1796875 			"/>
			<polygon fill="#676767" points="11.1132813,27.9931641 11.0917969,28.0185547 10.980957,27.9082031 11.0097656,27.8847656 			"/>
			<polygon fill="#676767" points="10.8271484,27.9521484 10.8481445,27.9306641 11.003418,27.8916016 11.0039063,27.8945313 
				10.9750977,27.9169922 			"/>
			<polygon fill="#676767" points="11.0478516,28.1738281 11.0698242,28.1523438 11.109375,27.9980469 11.0917969,28.0048828 
				11.0834961,28.0263672 			"/>
			<polygon fill="#989898" stroke="#676767" stroke-width="0.0060528" stroke-miterlimit="10" points="10.7900391,28.1015625 
				10.8291016,27.9550781 10.9765625,27.9160156 11.0844727,28.0244141 11.0454102,28.1708984 10.8979492,28.2099609 			"/>
			<circle fill="#676767" cx="10.9414063" cy="28.0581055" r="0.0521365"/>
			<circle fill="#676767" cx="10.9414063" cy="28.0581055" r="0.0521365"/>
			<g>
				<defs>
					<circle id="SVGID_225_" cx="10.9414063" cy="28.0581055" r="0.0521365"/>
				</defs>
				<clipPath id="SVGID_37_">
					<use xlink:href="#SVGID_225_"  overflow="visible"/>
				</clipPath>
				<circle opacity="0.5" clip-path="url(#SVGID_37_)" fill="#676767" cx="10.9592285" cy="28.0415039" r="0.0523105"/>
			</g>
		</g>
		<g>
			<polygon fill="#989898" stroke="#676767" stroke-width="0.0057436" stroke-miterlimit="10" points="12.6811523,28.1796875 
				12.5429688,28.1503906 12.5131836,28.0117188 12.621582,27.9042969 12.7592773,27.9335938 12.7890625,28.0712891 			"/>
			<polygon fill="#676767" points="12.6015625,27.8857422 12.6259766,27.9052734 12.5146484,28.0166016 12.4921875,27.9882813 			
				"/>
			<polygon fill="#676767" points="12.5629883,28.1738281 12.5405273,28.1523438 12.5014648,27.9970703 12.5039063,27.9970703 
				12.5268555,28.0263672 			"/>
			<polygon fill="#676767" points="12.7836914,27.953125 12.7612305,27.9306641 12.6069336,27.8916016 12.6152344,27.9091797 
				12.6357422,27.9169922 			"/>
			<polygon fill="#989898" stroke="#676767" stroke-width="0.0060528" stroke-miterlimit="10" points="12.7114258,28.2109375 
				12.5649414,28.1708984 12.5253906,28.0244141 12.6342773,27.9169922 12.7807617,27.9550781 12.8193359,28.1015625 			"/>
			<circle fill="#676767" cx="12.6682129" cy="28.059082" r="0.0529988"/>
			<circle fill="#676767" cx="12.6682129" cy="28.059082" r="0.0529988"/>
			<g>
				<defs>
					<circle id="SVGID_227_" cx="12.6682129" cy="28.059082" r="0.0529988"/>
				</defs>
				<clipPath id="SVGID_38_">
					<use xlink:href="#SVGID_227_"  overflow="visible"/>
				</clipPath>
				<circle opacity="0.5" clip-path="url(#SVGID_38_)" fill="#676767" cx="12.6516113" cy="28.0410156" r="0.0526535"/>
			</g>
		</g>
		<g>
			<polygon fill="#989898" stroke="#676767" stroke-width="0.0057436" stroke-miterlimit="10" points="10.9775391,29.8828125 
				10.8393555,29.8535156 10.8105469,29.7158203 10.918457,29.6074219 11.0561523,29.6367188 11.0854492,29.7753906 			"/>
			<polygon fill="#676767" points="10.8979492,29.5888672 10.9223633,29.609375 10.8110352,29.7197266 10.7890625,29.6923828 			"/>
			<polygon fill="#676767" points="10.859375,29.8769531 10.8374023,29.8554688 10.7978516,29.7001953 10.8007813,29.7001953 
				10.8232422,29.7294922 			"/>
			<polygon fill="#676767" points="11.0800781,29.65625 11.0585938,29.6337891 10.9038086,29.5947266 10.9121094,29.6113281 
				10.9321289,29.6201172 			"/>
			<polygon fill="#989898" stroke="#676767" stroke-width="0.0060528" stroke-miterlimit="10" points="11.0083008,29.9130859 
				10.8613281,29.875 10.8222656,29.7275391 10.9306641,29.6201172 11.0771484,29.6591797 11.1166992,29.8056641 			"/>
			<circle fill="#676767" cx="10.9645996" cy="29.7626953" r="0.0526535"/>
			<circle fill="#676767" cx="10.9645996" cy="29.7626953" r="0.0526535"/>
			<g>
				<defs>
					<circle id="SVGID_229_" cx="10.9645996" cy="29.7626953" r="0.0526535"/>
				</defs>
				<clipPath id="SVGID_39_">
					<use xlink:href="#SVGID_229_"  overflow="visible"/>
				</clipPath>
				<circle opacity="0.5" clip-path="url(#SVGID_39_)" fill="#676767" cx="10.947998" cy="29.7446289" r="0.0529988"/>
			</g>
		</g>
	</g>
	<path fill="#333333" d="M37.3583984,24.5253906H2.7124023C2.5957031,24.5253906,2.5,24.6201172,2.5,24.7382813v1.1328125
		c0,0.1181641,0.0957031,0.2138672,0.2124023,0.2138672h34.6459961V24.5253906z"/>
	
		<line fill="none" stroke="#989898" stroke-width="0.1062745" stroke-linecap="round" stroke-linejoin="round" stroke-miterlimit="10" x1="37.3583984" y1="12.0385742" x2="9.4785156" y2="12.0385742"/>
	<linearGradient id="SVGID_40_" gradientUnits="userSpaceOnUse" x1="7.3964844" y1="16.4482422" x2="7.3964839" y2="5.4683266">
		<stop  offset="0" style="stop-color:#059347"/>
		<stop  offset="1" style="stop-color:#8CC541"/>
	</linearGradient>
	
		<circle fill="url(#SVGID_40_)" stroke="#046938" stroke-width="0.3066362" stroke-linecap="round" stroke-linejoin="round" stroke-miterlimit="10" cx="7.3964844" cy="11.1430664" r="4.7724609"/>
	<path fill="#414142" d="M11.3769531,11.1049805l-2.487793-1.4389648c-0.2436523-0.1396484-0.4375-0.0249023-0.4375,0.2529297
		v0.8618164H4.6206055c-0.3115234,0-0.5654297,0.2543945-0.5654297,0.5664063c0,0.3139648,0.2539063,0.5673828,0.5654297,0.5673828
		h3.8310547v0.8837891c0,0.2797852,0.1938477,0.3950195,0.4375,0.2548828l2.4892578-1.4394531
		C11.6206055,11.4736328,11.6191406,11.2456055,11.3769531,11.1049805z"/>
	
		<linearGradient id="SVGID_41_" gradientUnits="userSpaceOnUse" x1="-770.1918945" y1="-449.4140625" x2="-770.1918945" y2="-456.9625244" gradientTransform="matrix(-4.362160e-008 -1 1 -4.362160e-008 460.8242188 -759.059082)">
		<stop  offset="0" style="stop-color:#D1D2D3"/>
		<stop  offset="1" style="stop-color:#F2F2F2"/>
	</linearGradient>
	<path fill="url(#SVGID_41_)" stroke="#E7E7E7" stroke-width="0.2125489" stroke-miterlimit="10" d="M11.2504883,10.8793945
		l-2.496582-1.4389648c-0.2426758-0.140625-0.4443359-0.0258789-0.4443359,0.2529297v0.875H4.4946289
		c-0.3125,0-0.565918,0.2543945-0.565918,0.5664063c0,0.3134766,0.253418,0.5668945,0.565918,0.5668945h3.8149414v0.8701172
		c0,0.2802734,0.2016602,0.3950195,0.4443359,0.2553711l2.4941406-1.4399414
		C11.4902344,11.2475586,11.4926758,11.019043,11.2504883,10.8793945z"/>
</g>
</svg>
