<?xml version="1.0" encoding="utf-8"?>
<!-- Generator: Adobe Illustrator 21.1.0, SVG Export Plug-In . SVG Version: 6.00 Build 0)  -->
<svg version="1.1" id="Layer_1" xmlns="http://www.w3.org/2000/svg" xmlns:xlink="http://www.w3.org/1999/xlink" x="0px" y="0px"
	 width="100px" height="100px" viewBox="0 0 100 100" style="enable-background:new 0 0 100 100;" xml:space="preserve">
<style type="text/css">
	.st0{fill:#010101;}
	.st1{fill:#E75C27;}
	.st2{fill:#EB2227;}
	.st3{fill:none;stroke:#EB2227;stroke-width:0.6944;stroke-miterlimit:10;}
	.st4{fill:none;stroke:#E75C27;stroke-width:2.0668;stroke-miterlimit:10;}
	.st5{fill:none;stroke:#E75C27;stroke-width:2.1066;stroke-miterlimit:10;}
</style>
<g>
	<circle class="st0" cx="50" cy="50" r="50"/>
	<g>
		<g>
			<rect x="23.42" y="68.033" class="st1" width="48.006" height="2.957"/>
			<path class="st1" d="M30.662,55.15c0,0,9.437-6.217,11.385-14.98C29.763,29.01,29.763,29.01,29.763,29.01
				s-5.093,16.777-7.34,17.901C25.756,50.244,30.662,55.15,30.662,55.15z"/>
			<path class="st1" d="M34.257,53.427v3.808c0,0.535,0.213,1.048,0.591,1.427l2.532,2.532c1.504,1.504,3.922,1.57,5.506,0.15
				l23.705-21.247c0.586-0.525,0.921-1.275,0.921-2.063v-0.613c0-1.251-0.937-2.305-2.18-2.451l-0.205-0.024
				c-0.892-0.105-1.789,0.111-2.542,0.599c-2.583,1.673-9.63,5.605-20.539,6.946C42.496,48.634,34.257,53.427,34.257,53.427z"/>
			<path class="st1" d="M58.463,68.179c0.443-0.148,1.023-0.39,1.531-0.63c0.525-0.244,1.039-0.518,1.55-0.802
				c1.015-0.579,1.984-1.243,2.894-1.98c0.919-0.73,1.753-1.559,2.507-2.456c0.782-0.884,1.385-1.894,1.963-2.926l0.032-0.057
				c0.228-0.407,0.743-0.552,1.149-0.324c0.375,0.21,0.527,0.663,0.371,1.051c-0.487,1.215-1.03,2.435-1.773,3.529
				c-0.717,1.11-1.54,2.16-2.464,3.107c-0.917,0.956-1.912,1.838-2.974,2.635c-0.535,0.394-1.079,0.777-1.646,1.133
				c-0.58,0.365-0.606-0.409-1.308-0.068c-1.141-1.97-2.462,1.152-2.892,0.267s-0.061-1.953,0.825-2.383
				c0.068-0.033,0.136-0.061,0.206-0.085L58.463,68.179z"/>
			<path class="st1" d="M59.957,58.227l13.948-8.248c0.809-0.479,1.853-0.208,2.328,0.603l1.11,1.896
				c0.507,0.866,0.156,1.981-0.756,2.4l-14.801,6.798c-0.797,0.366-1.742,0.064-2.18-0.696l-0.256-0.446
				C58.887,59.728,59.158,58.7,59.957,58.227z"/>
		</g>
	</g>
</g>
</svg>
