<?xml version="1.0" encoding="utf-8"?>
<!-- Generator: Adobe Illustrator 16.0.0, SVG Export Plug-In . SVG Version: 6.00 Build 0)  -->
<!DOCTYPE svg PUBLIC "-//W3C//DTD SVG 1.1//EN" "http://www.w3.org/Graphics/SVG/1.1/DTD/svg11.dtd">
<svg version="1.1" id="Layer_1" xmlns="http://www.w3.org/2000/svg" xmlns:xlink="http://www.w3.org/1999/xlink" x="0px" y="0px"
	 width="40px" height="40px" viewBox="0 0 40 40" enable-background="new 0 0 40 40" xml:space="preserve">
<g>
	<circle opacity="0.5" cx="20.2209473" cy="20.2202148" r="17.329834"/>
	<linearGradient id="SVGID_1_" gradientUnits="userSpaceOnUse" x1="19.7797852" y1="39.2294922" x2="19.7797832" y2="-3.5260735">
		<stop  offset="0" style="stop-color:#009444"/>
		<stop  offset="1" style="stop-color:#8DC63F"/>
	</linearGradient>
	
		<circle fill="url(#SVGID_1_)" stroke="#006838" stroke-width="0.604139" stroke-linecap="round" stroke-linejoin="round" stroke-miterlimit="10" cx="19.779541" cy="19.7797852" r="17.329834"/>
	<g>
		<path fill="#414042" d="M20.8525391,32.265625l4.8525391-8.4003906c0.4707031-0.8203125,0.0839844-1.4882812-0.8554688-1.4882812
			h-2.9453125V9.4926758c0-1.0517578-0.8535156-1.90625-1.90625-1.90625c-1.0571289,0-1.9067383,0.8544922-1.9067383,1.90625
			v12.8842773h-2.9448242c-0.9438477,0-1.3310547,0.6679688-0.859375,1.4882812l4.8520508,8.4003906
			C19.6108398,33.0820312,20.3803711,33.0820312,20.8525391,32.265625z"/>
		<linearGradient id="SVGID_2_" gradientUnits="userSpaceOnUse" x1="19.5629883" y1="31.9072266" x2="19.5629864" y2="6.4594078">
			<stop  offset="0" style="stop-color:#D1D3D4"/>
			<stop  offset="1" style="stop-color:#F1F2F2"/>
		</linearGradient>
		<path fill="url(#SVGID_2_)" stroke="#E6E7E8" stroke-width="0.727185" stroke-miterlimit="10" d="M20.4194336,31.3613281
			l4.8520508-8.4023438c0.4716797-0.8183594,0.0839844-1.4863281-0.8544922-1.4863281h-2.9453125V8.5883789
			c0-1.0527344-0.8540039-1.90625-1.9067383-1.90625c-1.0571289,0-1.9067383,0.8535156-1.9067383,1.90625v12.8842773h-2.9448242
			c-0.9438477,0-1.3310547,0.6679688-0.859375,1.4863281l4.8520508,8.4023438
			C19.1777344,32.1777344,19.9472656,32.1777344,20.4194336,31.3613281z"/>
	</g>
</g>
</svg>
