<?xml version="1.0" encoding="utf-8"?>
<!-- Generator: Adobe Illustrator 16.0.0, SVG Export Plug-In . SVG Version: 6.00 Build 0)  -->
<!DOCTYPE svg PUBLIC "-//W3C//DTD SVG 1.1//EN" "http://www.w3.org/Graphics/SVG/1.1/DTD/svg11.dtd">
<svg version="1.1" id="Layer_1" xmlns="http://www.w3.org/2000/svg" xmlns:xlink="http://www.w3.org/1999/xlink" x="0px" y="0px"
	 width="40.32px" height="40.32px" viewBox="0 0 40.32 40.32" style="enable-background:new 0 0 40.32 40.32;" xml:space="preserve"
	>
<g>
	<path style="opacity:0.5;enable-background:new    ;" d="M37.765,28.894h-0.413v-5.793c0-1.024-0.242-2.541-0.575-3.676
		c0.09-0.029,0.156-0.112,0.157-0.213c0.001-0.126-0.101-0.225-0.228-0.225h-0.012c0,0-0.021-0.001-0.059,0
		c-0.021-0.059-0.041-0.115-0.063-0.17l-0.617-1.624l-1.56-4.089l-1.76-4.578c-0.441-1.139-1.764-2.342-2.935-2.678
		c0,0-3.043-0.865-9.326-0.865c-6.286,0-9.328,0.868-9.328,0.868C9.872,6.188,8.555,7.386,8.116,8.526l-1.761,4.578L4.79,17.193
		l-0.634,1.624c-0.021,0.052-0.041,0.106-0.06,0.162c-0.053-0.002-0.082-0.002-0.082-0.002v0.01H3.992c-0.002,0-0.004,0-0.005,0
		c-0.125,0-0.223,0.105-0.219,0.229c0.004,0.107,0.081,0.19,0.181,0.211c-0.343,1.134-0.604,2.647-0.604,3.673v5.793h-0.02
		c-0.771,0-1.396,0.625-1.396,1.396c0,0.771,0.625,1.396,1.396,1.396h0.059v1.039c0,1.442,1.171,2.612,2.614,2.612
		c1.444,0,2.615-1.17,2.615-2.612v-1.039h23.549v1.039c0,1.442,1.172,2.612,2.614,2.612c1.444,0,2.614-1.17,2.614-2.612v-1.039
		h0.374c0.771,0,1.396-0.625,1.396-1.396C39.16,29.519,38.535,28.894,37.765,28.894z M10.936,12.18l1.643-4.447
		c0.111-0.303,0.464-0.54,0.786-0.54h14.021c0.321,0,0.677,0.233,0.787,0.536l1.639,4.454c0.111,0.304-0.058,0.554-0.379,0.554
		H11.318C10.997,12.736,10.826,12.479,10.936,12.18z"/>
	
		<linearGradient id="SVGID_1_" gradientUnits="userSpaceOnUse" x1="23.2285" y1="-92.5093" x2="23.2285" y2="-101.0681" gradientTransform="matrix(1 0 0 -1 -18 -65.6797)">
		<stop  offset="0" style="stop-color:#010101"/>
		<stop  offset="1" style="stop-color:#434244"/>
	</linearGradient>
	<path style="fill:url(#SVGID_1_);stroke:#434244;stroke-width:0.5504;stroke-miterlimit:10;" d="M7.843,32.725
		c0,1.442-1.171,2.612-2.614,2.612l0,0c-1.443,0-2.614-1.17-2.614-2.612V29.42c0-1.442,1.171-2.613,2.614-2.613l0,0
		c1.443,0,2.614,1.171,2.614,2.613V32.725z"/>
	
		<linearGradient id="SVGID_2_" gradientUnits="userSpaceOnUse" x1="37.7285" y1="-85.8613" x2="37.7285" y2="-85.8878" gradientTransform="matrix(1 0 0 -1 -18 -65.6797)">
		<stop  offset="0" style="stop-color:#010101"/>
		<stop  offset="1" style="stop-color:#434244"/>
	</linearGradient>
	<path style="fill:url(#SVGID_2_);stroke:#434244;stroke-width:0.0017;stroke-miterlimit:10;" d="M19.737,20.2
		c0,0.005-0.004,0.008-0.008,0.008l0,0c-0.005,0-0.009-0.003-0.009-0.008v-0.011c0-0.005,0.004-0.008,0.009-0.008l0,0
		c0.004,0,0.008,0.003,0.008,0.008V20.2z"/>
	
		<linearGradient id="SVGID_3_" gradientUnits="userSpaceOnUse" x1="52.0059" y1="-92.5093" x2="52.0059" y2="-101.0681" gradientTransform="matrix(1 0 0 -1 -18 -65.6797)">
		<stop  offset="0" style="stop-color:#010101"/>
		<stop  offset="1" style="stop-color:#434244"/>
	</linearGradient>
	<path style="fill:url(#SVGID_3_);stroke:#434244;stroke-width:0.5504;stroke-miterlimit:10;" d="M36.621,32.725
		c0,1.442-1.171,2.612-2.614,2.612l0,0c-1.442,0-2.614-1.17-2.614-2.612V29.42c0-1.442,1.172-2.613,2.614-2.613l0,0
		c1.443,0,2.614,1.171,2.614,2.613V32.725z"/>
	
		<linearGradient id="SVGID_4_" gradientUnits="userSpaceOnUse" x1="37.8203" y1="-85.8613" x2="37.8203" y2="-85.8878" gradientTransform="matrix(1 0 0 -1 -18 -65.6797)">
		<stop  offset="0" style="stop-color:#010101"/>
		<stop  offset="1" style="stop-color:#434244"/>
	</linearGradient>
	<path style="fill:url(#SVGID_4_);stroke:#434244;stroke-width:0.0017;stroke-miterlimit:10;" d="M19.828,20.2
		c0,0.005-0.004,0.008-0.008,0.008l0,0c-0.005,0-0.009-0.003-0.009-0.008v-0.011c0-0.005,0.004-0.008,0.009-0.008l0,0
		c0.004,0,0.008,0.003,0.008,0.008V20.2z"/>
	<linearGradient id="SVGID_5_" gradientUnits="userSpaceOnUse" x1="19.5786" y1="31.4717" x2="19.5786" y2="4.0668">
		<stop  offset="0" style="stop-color:#24B574"/>
		<stop  offset="1" style="stop-color:#00A99D"/>
	</linearGradient>
	
		<path style="fill:url(#SVGID_5_);stroke:#038D85;stroke-width:0.5504;stroke-linecap:round;stroke-linejoin:round;stroke-miterlimit:10;" d="
		M33.626,13.104l-1.759-4.578c-0.441-1.139-1.765-2.342-2.936-2.678c0,0-3.043-0.865-9.325-0.865c-6.286,0-9.328,0.868-9.328,0.868
		C9.102,6.188,7.785,7.386,7.346,8.526l-1.761,4.578L4.02,17.193l-0.634,1.624c-0.438,1.138-0.81,3.06-0.81,4.283v8.191h34.007
		v-8.191c0-1.222-0.345-3.146-0.778-4.283l-0.617-1.624L33.626,13.104z M28.662,12.736H10.548c-0.321,0-0.491-0.257-0.382-0.557
		l1.643-4.447c0.11-0.303,0.464-0.54,0.786-0.54h14.021c0.322,0,0.677,0.233,0.788,0.536l1.639,4.454
		C29.152,12.486,28.983,12.736,28.662,12.736z"/>
	<linearGradient id="SVGID_6_" gradientUnits="userSpaceOnUse" x1="19.7744" y1="20.1958" x2="19.7744" y2="20.1093">
		<stop  offset="0" style="stop-color:#24B574"/>
		<stop  offset="1" style="stop-color:#00A99D"/>
	</linearGradient>
	
		<path style="fill:url(#SVGID_6_);stroke:#038D85;stroke-width:0.0017;stroke-linecap:round;stroke-linejoin:round;stroke-miterlimit:10;" d="
		M19.818,20.138l-0.005-0.015c-0.002-0.003-0.006-0.007-0.009-0.008c0,0-0.01-0.003-0.03-0.003c-0.02,0-0.029,0.003-0.029,0.003
		c-0.004,0.001-0.008,0.005-0.01,0.008l-0.005,0.015l-0.005,0.013l-0.002,0.006c-0.002,0.003-0.003,0.01-0.003,0.014v0.025h0.107
		V20.17c0-0.004-0.001-0.011-0.002-0.014l-0.002-0.006L19.818,20.138z M19.803,20.137h-0.057c-0.001,0-0.002-0.001-0.001-0.002
		l0.005-0.014c0-0.001,0.001-0.002,0.002-0.002h0.045c0.001,0,0.002,0.001,0.002,0.002l0.006,0.014
		C19.805,20.136,19.805,20.137,19.803,20.137z"/>
	<path style="opacity:0.8;fill:#010101;" d="M8.103,31.189c0,0,1.195-8.61-1.83-10.825c-2.611-1.444-2.937-1.151-2.937-1.151
		L3.49,19.02l32.094-0.017c0,0-3.215,0.706-4.177,3.354c-0.694,1.913-0.551,8.744-0.551,8.744L8.103,31.189z"/>
	<path style="opacity:0.8;fill:#010101;" d="M19.738,20.195c0,0,0.004-0.027-0.006-0.034c-0.009-0.005-0.009-0.004-0.009-0.004
		v-0.001h0.102c0,0-0.01,0.003-0.014,0.011c-0.002,0.006-0.002,0.027-0.002,0.027L19.738,20.195z"/>
	<g style="opacity:0.5;">
		<defs>
			<path id="SVGID_45_" style="opacity:0.5;" d="M33.626,13.104l-1.759-4.578c-0.441-1.139-1.765-2.342-2.936-2.678
				c0,0-3.043-0.865-9.325-0.865c-6.286,0-9.328,0.868-9.328,0.868C9.102,6.188,7.785,7.386,7.346,8.526l-1.761,4.578L4.02,17.193
				l-0.634,1.624c-0.438,1.138-0.81,3.06-0.81,4.283v8.191h34.007v-8.191c0-1.222-0.345-3.146-0.778-4.283l-0.617-1.624
				L33.626,13.104z M28.662,12.736H10.548c-0.321,0-0.491-0.257-0.382-0.557l1.643-4.447c0.11-0.303,0.464-0.54,0.786-0.54h14.021
				c0.322,0,0.677,0.233,0.788,0.536l1.639,4.454C29.152,12.486,28.983,12.736,28.662,12.736z"/>
		</defs>
		<clipPath id="SVGID_7_">
			<use xlink:href="#SVGID_45_"  style="overflow:visible;"/>
		</clipPath>
		<linearGradient id="SVGID_8_" gradientUnits="userSpaceOnUse" x1="19.8149" y1="22.1719" x2="19.8149" y2="14.1547">
			<stop  offset="0" style="stop-color:#010101"/>
			<stop  offset="1" style="stop-color:#FFFFFF;stop-opacity:0"/>
		</linearGradient>
		<rect x="1.239" y="12.54" style="clip-path:url(#SVGID_7_);fill:url(#SVGID_8_);" width="37.152" height="6.723"/>
	</g>
	<g style="opacity:0.5;">
		<defs>
			<path id="SVGID_48_" style="opacity:0.5;" d="M19.818,20.138l-0.005-0.015c-0.002-0.003-0.006-0.007-0.009-0.008
				c0,0-0.01-0.003-0.03-0.003c-0.02,0-0.029,0.003-0.029,0.003c-0.004,0.001-0.008,0.005-0.01,0.008l-0.005,0.015l-0.005,0.013
				l-0.002,0.006c-0.002,0.003-0.003,0.01-0.003,0.014v0.025h0.107V20.17c0-0.004-0.001-0.011-0.002-0.014l-0.002-0.006
				L19.818,20.138z M19.803,20.137h-0.057c-0.001,0-0.002-0.001-0.001-0.002l0.005-0.014c0-0.001,0.001-0.002,0.002-0.002h0.045
				c0.001,0,0.002,0.001,0.002,0.002l0.006,0.014C19.805,20.136,19.805,20.137,19.803,20.137z"/>
		</defs>
		<clipPath id="SVGID_9_">
			<use xlink:href="#SVGID_48_"  style="overflow:visible;"/>
		</clipPath>
		<linearGradient id="SVGID_10_" gradientUnits="userSpaceOnUse" x1="19.7754" y1="20.1665" x2="19.7754" y2="20.1409">
			<stop  offset="0" style="stop-color:#010101"/>
			<stop  offset="1" style="stop-color:#FFFFFF;stop-opacity:0"/>
		</linearGradient>
		<rect x="19.717" y="20.136" style="clip-path:url(#SVGID_9_);fill:url(#SVGID_10_);" width="0.117" height="0.021"/>
	</g>
	<g>
		<path style="fill:#038D85;" d="M3.244,18.978c0,0,0.253-0.003,0.665,0.071c0.414,0.075,1.004,0.224,1.643,0.568
			c0.319,0.166,0.65,0.388,0.954,0.667c0.313,0.271,0.601,0.606,0.845,0.984c0.256,0.374,0.438,0.801,0.61,1.235
			c0.132,0.449,0.267,0.904,0.316,1.377c0.097,0.465,0.075,0.936,0.104,1.398c0.009,0.46-0.006,0.907-0.008,1.343
			c-0.011,0.87-0.02,1.683-0.027,2.378c-0.015,1.392-0.026,2.32-0.026,2.32c0,0.034-0.027,0.061-0.061,0.061
			c-0.033-0.001-0.061-0.026-0.061-0.061c0,0-0.011-0.929-0.025-2.32c-0.008-0.695-0.018-1.509-0.028-2.378
			c-0.008-0.435-0.001-0.887-0.021-1.34c-0.039-0.45-0.028-0.912-0.132-1.357c-0.057-0.455-0.197-0.888-0.333-1.313
			c-0.173-0.408-0.352-0.807-0.599-1.149c-0.236-0.346-0.508-0.651-0.803-0.893c-0.286-0.252-0.596-0.449-0.893-0.598
			c-0.597-0.303-1.149-0.43-1.531-0.49c-0.39-0.058-0.601-0.05-0.601-0.05c-0.125,0.004-0.229-0.09-0.234-0.216
			c-0.004-0.124,0.094-0.229,0.219-0.229c0,0,0.003,0,0.004,0h0.022V18.978z"/>
	</g>
	<g>
		<path style="fill:#038D85;" d="M19.723,20.156c0,0,0.001,0,0.002,0c0.002,0.001,0.003,0.001,0.006,0.002
			c0,0.001,0.002,0.002,0.003,0.002c0.001,0.001,0.002,0.002,0.003,0.004c0,0.001,0.001,0.002,0.002,0.004c0,0.001,0,0.003,0,0.004
			c0.001,0.002,0.001,0.003,0.001,0.005c0,0.001,0,0.003,0,0.004c0,0.003,0,0.005,0,0.008c0,0.004,0,0.007,0,0.007h-0.001l0,0
			c0,0,0-0.003,0-0.007c0-0.003,0-0.005,0-0.008c0-0.001,0-0.003,0-0.004c0-0.002,0-0.003,0-0.005
			c-0.001-0.001-0.001-0.003-0.002-0.004c0-0.001-0.001-0.003-0.002-0.004c0-0.001-0.001-0.002-0.002-0.003
			s-0.002-0.001-0.003-0.002c-0.002-0.001-0.004-0.001-0.005-0.001s-0.002,0-0.002,0V20.156L19.723,20.156L19.723,20.156
			L19.723,20.156L19.723,20.156z"/>
	</g>
	<g>
		<path style="fill:#038D85;" d="M35.926,19.434c0,0-0.211-0.008-0.6,0.05c-0.383,0.061-0.935,0.188-1.531,0.489
			c-0.298,0.148-0.605,0.346-0.893,0.598c-0.296,0.241-0.567,0.547-0.805,0.892c-0.247,0.342-0.426,0.741-0.598,1.149
			c-0.137,0.426-0.276,0.857-0.334,1.312c-0.104,0.446-0.093,0.908-0.131,1.358c-0.02,0.452-0.016,0.903-0.021,1.34
			c-0.011,0.87-0.021,1.682-0.027,2.378c-0.017,1.393-0.025,2.32-0.025,2.32c-0.001,0.035-0.028,0.061-0.063,0.061
			c-0.032-0.001-0.059-0.025-0.06-0.061c0,0-0.011-0.928-0.026-2.32c-0.008-0.696-0.016-1.509-0.026-2.378
			c-0.001-0.437-0.018-0.884-0.008-1.343c0.028-0.463,0.008-0.934,0.104-1.398c0.048-0.474,0.183-0.929,0.315-1.377
			c0.174-0.435,0.354-0.862,0.61-1.236c0.243-0.377,0.532-0.714,0.846-0.984c0.305-0.28,0.637-0.5,0.956-0.669
			c0.64-0.343,1.231-0.486,1.646-0.561c0.413-0.073,0.67-0.065,0.67-0.065h0.012c0.126,0,0.229,0.099,0.228,0.225
			c-0.002,0.127-0.104,0.225-0.23,0.224C35.931,19.437,35.927,19.434,35.926,19.434z"/>
	</g>
	<g>
		<path style="fill:#038D85;" d="M19.826,20.158c0,0,0,0-0.002,0c-0.001,0-0.003,0-0.005,0.001
			c-0.001,0.001-0.002,0.001-0.003,0.002s-0.001,0.002-0.002,0.003s-0.002,0.003-0.002,0.004c-0.001,0.001-0.001,0.003-0.001,0.004
			c-0.001,0.002-0.001,0.003-0.001,0.005c0,0.001,0,0.003,0,0.004c0,0.003,0,0.005,0,0.008c0,0.004,0,0.007,0,0.007l0,0H19.81
			c0,0,0-0.003,0-0.007c0-0.003,0-0.005,0-0.008c0-0.001,0-0.003,0-0.004c0-0.002,0-0.003,0.001-0.005c0-0.001,0-0.003,0.001-0.004
			c0-0.002,0.001-0.003,0.002-0.004c0-0.002,0.002-0.003,0.002-0.004c0.002,0,0.003-0.001,0.003-0.002
			c0.002-0.001,0.004-0.001,0.006-0.002c0.001,0,0.002,0,0.002,0l0,0C19.827,20.156,19.827,20.157,19.826,20.158
			C19.827,20.157,19.827,20.158,19.826,20.158L19.826,20.158z"/>
	</g>
	<linearGradient id="SVGID_11_" gradientUnits="userSpaceOnUse" x1="19.7759" y1="31.6465" x2="19.7759" y2="28.7323">
		<stop  offset="0" style="stop-color:#CDCCCC"/>
		<stop  offset="1" style="stop-color:#F3F3F3"/>
	</linearGradient>
	
		<path style="fill:url(#SVGID_11_);stroke:#CDCCCC;stroke-width:0.3145;stroke-linecap:round;stroke-linejoin:round;stroke-miterlimit:10;" d="
		M38.391,30.29c0,0.771-0.625,1.396-1.396,1.396H2.556c-0.771,0-1.396-0.625-1.396-1.396l0,0c0-0.771,0.625-1.396,1.396-1.396
		h34.438C37.766,28.894,38.391,29.519,38.391,30.29L38.391,30.29z"/>
	<linearGradient id="SVGID_12_" gradientUnits="userSpaceOnUse" x1="19.7754" y1="20.1963" x2="19.7754" y2="20.1871">
		<stop  offset="0" style="stop-color:#CDCCCC"/>
		<stop  offset="1" style="stop-color:#F3F3F3"/>
	</linearGradient>
	
		<polygon style="fill:url(#SVGID_12_);stroke:#CDCCCC;stroke-width:9.963368e-004;stroke-linecap:round;stroke-linejoin:round;stroke-miterlimit:10;" points="
		19.834,20.192 19.83,20.196 19.721,20.196 19.717,20.192 19.717,20.192 19.721,20.188 19.83,20.188 19.834,20.192 	"/>
	<circle style="fill:#FCE091;" cx="5.261" cy="23.28" r="1.588"/>
	<circle style="fill:#FCE091;" cx="19.729" cy="20.17" r="0.005"/>
	<circle style="fill:#FCE091;" cx="33.979" cy="23.28" r="1.588"/>
	<circle style="fill:#FCE091;" cx="19.82" cy="20.17" r="0.005"/>
	
		<circle style="fill:none;stroke:#038D85;stroke-width:0.5504;stroke-linecap:round;stroke-linejoin:round;stroke-miterlimit:10;" cx="5.261" cy="23.28" r="1.588"/>
	
		<circle style="fill:none;stroke:#038D85;stroke-width:0.0017;stroke-linecap:round;stroke-linejoin:round;stroke-miterlimit:10;" cx="19.729" cy="20.17" r="0.005"/>
	
		<circle style="fill:none;stroke:#038D85;stroke-width:0.5504;stroke-linecap:round;stroke-linejoin:round;stroke-miterlimit:10;" cx="33.979" cy="23.28" r="1.588"/>
	
		<circle style="fill:none;stroke:#038D85;stroke-width:0.0017;stroke-linecap:round;stroke-linejoin:round;stroke-miterlimit:10;" cx="19.82" cy="20.17" r="0.005"/>
	<linearGradient id="SVGID_13_" gradientUnits="userSpaceOnUse" x1="3.6758" y1="18.9873" x2="35.5205" y2="18.9873">
		<stop  offset="0" style="stop-color:#24B574"/>
		<stop  offset="1" style="stop-color:#00A99D"/>
	</linearGradient>
	
		<line style="fill:url(#SVGID_13_);stroke:#038D85;stroke-width:0.5504;stroke-linecap:round;stroke-linejoin:round;stroke-miterlimit:10;" x1="35.521" y1="18.987" x2="3.676" y2="18.987"/>
	<linearGradient id="SVGID_14_" gradientUnits="userSpaceOnUse" x1="19.7236" y1="20.1563" x2="19.8252" y2="20.1563">
		<stop  offset="0" style="stop-color:#24B574"/>
		<stop  offset="1" style="stop-color:#00A99D"/>
	</linearGradient>
	
		<line style="fill:url(#SVGID_14_);stroke:#038D85;stroke-width:0.0017;stroke-linecap:round;stroke-linejoin:round;stroke-miterlimit:10;" x1="19.825" y1="20.156" x2="19.724" y2="20.156"/>
	<linearGradient id="SVGID_15_" gradientUnits="userSpaceOnUse" x1="19.5444" y1="26.7041" x2="19.5444" y2="19.2742">
		<stop  offset="0" style="stop-color:#24B574"/>
		<stop  offset="1" style="stop-color:#00A99D"/>
	</linearGradient>
	
		<path style="fill:url(#SVGID_15_);stroke:#038D85;stroke-width:0.5111;stroke-linecap:round;stroke-linejoin:round;stroke-miterlimit:10;" d="
		M4.088,19.242h0.046C4.104,19.242,4.088,19.242,4.088,19.242z M34.954,19.242H35C35,19.242,34.984,19.242,34.954,19.242z
		 M16.786,19.242H4.135c0.484,0,4.596,0.291,4.596,7.531c3.127,0,6.59,0.015,8.494,0.024c-0.001,0.006-0.001,0.008-0.001,0.008
		s0.327-0.002,0.888-0.004c0.364,0.002,0.569,0.004,0.569,0.004s-0.001-0.003-0.001-0.007c2.636-0.009,8.244-0.025,11.679-0.025
		c0-7.24,4.111-7.531,4.596-7.531H22.302H16.786z"/>
	<linearGradient id="SVGID_16_" gradientUnits="userSpaceOnUse" x1="19.7744" y1="20.1812" x2="19.7744" y2="20.1572">
		<stop  offset="0" style="stop-color:#24B574"/>
		<stop  offset="1" style="stop-color:#00A99D"/>
	</linearGradient>
	
		<path style="fill:url(#SVGID_16_);stroke:#038D85;stroke-width:0.0016;stroke-linecap:round;stroke-linejoin:round;stroke-miterlimit:10;" d="
		M19.726,20.157L19.726,20.157L19.726,20.157z M19.823,20.157L19.823,20.157L19.823,20.157z M19.766,20.157h-0.04
		c0.002,0,0.015,0.001,0.015,0.024c0.01,0,0.021,0,0.026,0l0,0c0,0,0.002,0,0.003,0s0.002,0,0.002,0l0,0c0.009,0,0.026,0,0.037,0
		c0-0.023,0.013-0.024,0.015-0.024h-0.04H19.766z"/>
	<linearGradient id="SVGID_17_" gradientUnits="userSpaceOnUse" x1="19.5444" y1="28.1611" x2="19.5444" y2="17.1583">
		<stop  offset="0" style="stop-color:#D9D9D8"/>
		<stop  offset="0.0893" style="stop-color:#D4D3D3"/>
		<stop  offset="0.1607" style="stop-color:#C6C5C5"/>
		<stop  offset="0.2259" style="stop-color:#B3B1B1"/>
		<stop  offset="0.2874" style="stop-color:#999797"/>
		<stop  offset="0.3464" style="stop-color:#7A7877"/>
		<stop  offset="0.4034" style="stop-color:#595756"/>
		<stop  offset="0.4588" style="stop-color:#373636"/>
		<stop  offset="0.5117" style="stop-color:#0F0F0F"/>
		<stop  offset="0.523" style="stop-color:#010101"/>
		<stop  offset="0.5591" style="stop-color:#242323"/>
		<stop  offset="0.621" style="stop-color:#4C4A49"/>
		<stop  offset="0.684" style="stop-color:#747171"/>
		<stop  offset="0.7471" style="stop-color:#9B9898"/>
		<stop  offset="0.8101" style="stop-color:#BDBBBB"/>
		<stop  offset="0.8732" style="stop-color:#D8D7D7"/>
		<stop  offset="0.9364" style="stop-color:#EAEAEA"/>
		<stop  offset="1" style="stop-color:#F3F3F3"/>
	</linearGradient>
	<path style="opacity:0.3;fill:url(#SVGID_17_);" d="M4.088,19.263h0.046C4.104,19.223,4.088,19.263,4.088,19.263z M34.954,19.263
		H35C35,19.263,34.984,19.223,34.954,19.263z M16.786,19.263H4.135c0.484,0,4.596,0.28,4.596,7.521c3.127,0,6.59,0.009,8.494,0.02
		c-0.001,0.006-0.001,0.006-0.001,0.006s0.327-0.003,0.888-0.006c0.364,0.003,0.569,0.003,0.569,0.003S18.68,26.803,18.68,26.8
		c2.636-0.01,8.244-0.017,11.679-0.017c0-7.239,4.111-7.521,4.596-7.521H22.302H16.786z"/>
	<linearGradient id="SVGID_18_" gradientUnits="userSpaceOnUse" x1="19.7744" y1="20.186" x2="19.7744" y2="20.1505">
		<stop  offset="0" style="stop-color:#D9D9D8"/>
		<stop  offset="0.0893" style="stop-color:#D4D3D3"/>
		<stop  offset="0.1607" style="stop-color:#C6C5C5"/>
		<stop  offset="0.2259" style="stop-color:#B3B1B1"/>
		<stop  offset="0.2874" style="stop-color:#999797"/>
		<stop  offset="0.3464" style="stop-color:#7A7877"/>
		<stop  offset="0.4034" style="stop-color:#595756"/>
		<stop  offset="0.4588" style="stop-color:#373636"/>
		<stop  offset="0.5117" style="stop-color:#0F0F0F"/>
		<stop  offset="0.523" style="stop-color:#010101"/>
		<stop  offset="0.5591" style="stop-color:#242323"/>
		<stop  offset="0.621" style="stop-color:#4C4A49"/>
		<stop  offset="0.684" style="stop-color:#747171"/>
		<stop  offset="0.7471" style="stop-color:#9B9898"/>
		<stop  offset="0.8101" style="stop-color:#BDBBBB"/>
		<stop  offset="0.8732" style="stop-color:#D8D7D7"/>
		<stop  offset="0.9364" style="stop-color:#EAEAEA"/>
		<stop  offset="1" style="stop-color:#F3F3F3"/>
	</linearGradient>
	<path style="opacity:0.3;fill:url(#SVGID_18_);" d="M19.726,20.157L19.726,20.157L19.726,20.157z M19.823,20.157L19.823,20.157
		L19.823,20.157z M19.766,20.157h-0.04c0.002,0,0.015,0.001,0.015,0.024c0.01,0,0.021,0,0.026,0l0,0c0,0,0.002,0,0.003,0
		s0.002,0,0.002,0l0,0c0.009,0,0.026,0,0.037,0c0-0.023,0.013-0.024,0.015-0.024h-0.04H19.766z"/>
	<path style="opacity:0.5;fill:#434244;enable-background:new    ;" d="M21.643,25.441c0,0.257-0.208,0.465-0.465,0.465h-2.806
		c-0.256,0-0.465-0.208-0.465-0.465v-0.015c0-0.256,0.209-0.464,0.465-0.464h2.806c0.257,0,0.465,0.208,0.465,0.464V25.441z"/>
	<polygon style="opacity:0.5;fill:#434244;enable-background:new    ;" points="19.781,20.177 19.779,20.179 19.771,20.179 
		19.77,20.177 19.77,20.177 19.771,20.176 19.779,20.176 19.781,20.177 	"/>
	<path style="opacity:0.5;fill:#434244;enable-background:new    ;" d="M21.643,25.521c0,0.257-0.208,0.465-0.465,0.465h-2.806
		c-0.256,0-0.465-0.208-0.465-0.465v-0.015c0-0.257,0.209-0.465,0.465-0.465h2.806c0.257,0,0.465,0.208,0.465,0.465V25.521z"/>
	<polygon style="opacity:0.5;fill:#434244;enable-background:new    ;" points="19.781,20.177 19.779,20.179 19.771,20.179 
		19.77,20.177 19.77,20.177 19.771,20.176 19.779,20.176 19.781,20.177 	"/>
</g>
</svg>
