<?xml version="1.0" encoding="utf-8"?>
<!-- Generator: Adobe Illustrator 16.0.0, SVG Export Plug-In . SVG Version: 6.00 Build 0)  -->
<!DOCTYPE svg PUBLIC "-//W3C//DTD SVG 1.1//EN" "http://www.w3.org/Graphics/SVG/1.1/DTD/svg11.dtd">
<svg version="1.1" id="Layer_1" xmlns="http://www.w3.org/2000/svg" xmlns:xlink="http://www.w3.org/1999/xlink" x="0px" y="0px"
	 width="40.32px" height="40.32px" viewBox="0 0 40.32 40.32" style="enable-background:new 0 0 40.32 40.32;" xml:space="preserve"
	>
<g>
	<circle style="opacity:0.5;" cx="20.371" cy="20.694" r="18.791"/>
	<linearGradient id="SVGID_1_" gradientUnits="userSpaceOnUse" x1="19.9507" y1="38.375" x2="19.9507" y2="1.0123">
		<stop  offset="0" style="stop-color:#009444"/>
		<stop  offset="0.4302" style="stop-color:#8DC63F"/>
	</linearGradient>
	
		<circle style="fill:url(#SVGID_1_);stroke:#006838;stroke-width:0.6551;stroke-linecap:round;stroke-linejoin:round;stroke-miterlimit:10;" cx="19.951" cy="19.627" r="18.79"/>
	<path style="opacity:0.8;" d="M15.957,30.516c-0.431,0-0.862-0.164-1.191-0.493l-7.411-7.411c-0.659-0.658-0.659-1.725,0-2.383
		c0.658-0.658,1.725-0.658,2.383,0l6.219,6.219l13.91-13.911c0.659-0.658,1.726-0.658,2.384,0c0.658,0.659,0.658,1.725,0,2.384
		L17.149,30.022C16.82,30.352,16.389,30.516,15.957,30.516z"/>
	<linearGradient id="SVGID_2_" gradientUnits="userSpaceOnUse" x1="19.8027" y1="30.9883" x2="19.8027" y2="16.0364">
		<stop  offset="0" style="stop-color:#D1D3D4"/>
		<stop  offset="1" style="stop-color:#F1F2F2"/>
	</linearGradient>
	<path style="fill:url(#SVGID_2_);stroke:#E6E7E8;stroke-width:0.5619;stroke-miterlimit:10;" d="M15.957,29.703
		c-0.431,0-0.862-0.165-1.191-0.494l-7.411-7.41c-0.659-0.659-0.659-1.726,0-2.384c0.658-0.658,1.725-0.658,2.383,0l6.219,6.219
		l13.91-13.91c0.659-0.659,1.726-0.659,2.384,0c0.658,0.658,0.658,1.725,0,2.383L17.149,29.209
		C16.82,29.538,16.389,29.703,15.957,29.703z"/>
</g>
<g>
	<path style="opacity:0.5;" d="M54.174,29.635c-2.943,0-5.188,0.83-6.666,2.479c-2.467,2.752-2.013,6.942-1.84,8.519
		c0,0.024,0.007,0.052,0.007,0.077c-0.907,1.109-0.88,2.837-0.425,4.098c0.336,0.912,0.876,1.559,1.521,1.847
		c0.619,2.702,2.311,4.782,2.99,5.536c-0.039,0.545-0.151,1.094-0.271,1.317c-2.938,0.563-13.97,5.221-13.97,10.97v0.9h0.902h17.751
		h17.751h0.902v-0.9c0-5.746-11.03-10.406-13.972-10.97c-0.118-0.221-0.233-0.78-0.271-1.317c0.679-0.754,2.368-2.834,2.99-5.536
		c0.645-0.288,1.185-0.935,1.521-1.847c0.454-1.261,0.48-2.988-0.425-4.098c0-0.025,0.008-0.053,0.008-0.077
		c0.173-1.576,0.626-5.767-1.841-8.519C59.359,30.465,57.115,29.635,54.174,29.635L54.174,29.635z"/>
	<linearGradient id="SVGID_3_" gradientUnits="userSpaceOnUse" x1="53.4805" y1="66.293" x2="53.4805" y2="18.2605">
		<stop  offset="0" style="stop-color:#BE1E2D"/>
		<stop  offset="0.4302" style="stop-color:#EF4130"/>
	</linearGradient>
	
		<path style="fill:url(#SVGID_3_);stroke:#8D3038;stroke-width:0.7162;stroke-linecap:round;stroke-linejoin:round;stroke-miterlimit:10;" d="
		M53.48,28.943c-2.944,0-5.188,0.83-6.666,2.479c-2.467,2.751-2.012,6.941-1.84,8.518c0,0.024,0.007,0.052,0.007,0.077
		c-0.907,1.109-0.88,2.837-0.423,4.099c0.334,0.911,0.874,1.559,1.52,1.846c0.62,2.704,2.311,4.784,2.99,5.535
		c-0.039,0.545-0.152,1.097-0.271,1.317c-2.938,0.563-13.97,5.221-13.97,10.97v0.902h0.902H53.48h17.752h0.901v-0.902
		c0-5.746-11.029-10.406-13.972-10.97c-0.118-0.221-0.231-0.777-0.271-1.317c0.68-0.751,2.368-2.831,2.99-5.535
		c0.646-0.287,1.184-0.935,1.52-1.846c0.455-1.262,0.481-2.989-0.423-4.099c0-0.025,0.007-0.053,0.007-0.077
		c0.173-1.576,0.625-5.767-1.842-8.518C58.666,29.773,56.422,28.943,53.48,28.943L53.48,28.943z"/>
</g>
</svg>
