<?xml version="1.0" encoding="UTF-8" standalone="no"?>
<!-- Created with Inkscape (http://www.inkscape.org/) -->

<svg
   xmlns:dc="http://purl.org/dc/elements/1.1/"
   xmlns:cc="http://creativecommons.org/ns#"
   xmlns:rdf="http://www.w3.org/1999/02/22-rdf-syntax-ns#"
   xmlns:svg="http://www.w3.org/2000/svg"
   xmlns="http://www.w3.org/2000/svg"
   xmlns:xlink="http://www.w3.org/1999/xlink"
   version="1.1"
   width="25"
   height="25"
   id="svg2995">
  <metadata
     id="metadata3001">
    <rdf:RDF>
      <cc:Work
         rdf:about="">
        <dc:format>image/svg+xml</dc:format>
        <dc:type
           rdf:resource="http://purl.org/dc/dcmitype/StillImage" />
        <dc:title></dc:title>
      </cc:Work>
    </rdf:RDF>
  </metadata>
  <defs
     id="defs2999" />
  <image
     xlink:href="data:image/png;base64,iVBORw0KGgoAAAANSUhEUgAAABkAAAAZCAYAAADE6YVjAAAABHNCSVQICAgIfAhkiAAAAPlJREFU
SIntlLsRgkAURQ8M4QaYEJNvgh1oJ1KBJViCLVCCHVCCGpATb0RArgEws4OsvFVIHE/CZ3j3zDy4
BAgxWmVACcRAA+yTqr1JZoMPBANi0azEIfASvZXMCMQip0QoEIlCD0Exeiy3zmOg7OdkEuA0FiRV
a4eSVG0xITr7SGxeBG9Ek0SO+zlwB+o+yElStYXRqgEyXlcKCHsyYLR6WOHiWcm6vuYv8SIyWqXA
ge5TrZcKtnMjumanwBHYLCUBrnQFPYa9AGT/KB+GvNj3nTSjowhX411s6fZ88RkKPm3xHHbuD/XE
vjBalatLgN0akhCo1wi2aJ7gRVWHB+pBcgAAAABJRU5ErkJggg==
"
     x="0"
     y="0"
     width="25"
     height="25"
     id="image3003" />
</svg>
