<?xml version="1.0" encoding="utf-8"?>
<!-- Generator: Adobe Illustrator 17.0.0, SVG Export Plug-In . SVG Version: 6.00 Build 0)  -->
<!DOCTYPE svg PUBLIC "-//W3C//DTD SVG 1.1//EN" "http://www.w3.org/Graphics/SVG/1.1/DTD/svg11.dtd">
<svg version="1.1" id="Layer_1" xmlns="http://www.w3.org/2000/svg" xmlns:xlink="http://www.w3.org/1999/xlink" x="0px" y="0px"
	 width="41px" height="41px" viewBox="0 0 41 41" style="enable-background:new 0 0 41 41;" xml:space="preserve">
<style type="text/css">
	.st0{opacity:0.5;}
	.st1{fill:url(#SVGID_1_);stroke:#056A38;stroke-width:0.9355;stroke-linecap:round;stroke-linejoin:round;stroke-miterlimit:10;}
	.st2{fill:#FFFFFF;}
	.st3{fill:#E6E6E6;}
	.st4{fill:#FFFFFF;stroke:#404040;stroke-width:0.1842;stroke-linecap:round;stroke-linejoin:round;stroke-miterlimit:10;}
	.st5{fill:#74BAC2;fill-opacity:0.5;}
	.st6{fill:#27AAE1;}
	.st7{fill:#1C75BC;}
	.st8{fill:#FFFFFF;stroke:#FFFFFF;stroke-width:0.3684;stroke-linecap:round;stroke-linejoin:round;stroke-miterlimit:10;}
	.st9{fill:url(#SVGID_2_);stroke:#8D313A;stroke-width:0.6188;stroke-linecap:round;stroke-linejoin:round;stroke-miterlimit:10;}
	.st10{fill:#CB4234;}
	.st11{fill:#C94233;}
	.st12{fill:#B43A2C;}
	.st13{fill:#AEC5E7;stroke:#293896;stroke-width:0.6038;stroke-linecap:round;stroke-linejoin:round;stroke-miterlimit:10;}
	.st14{fill:url(#SVGID_3_);}
	.st15{clip-path:url(#SVGID_5_);}
	.st16{opacity:0.2;fill:url(#SVGID_6_);}
	.st17{fill:url(#SVGID_7_);}
	.st18{opacity:0.3;fill:url(#SVGID_8_);}
	.st19{fill:#58595B;}
	.st20{fill:#E6E7E8;}
	.st21{fill:none;stroke:#D1D3D4;stroke-width:0.3197;stroke-miterlimit:10;}
	.st22{fill:url(#SVGID_9_);}
	.st23{fill:none;stroke:#FFFFFF;stroke-width:0.5506;stroke-linecap:round;stroke-linejoin:round;stroke-miterlimit:10;}
	.st24{fill:none;}
	.st25{fill:none;stroke:#13588F;stroke-width:0.6038;stroke-linecap:round;stroke-linejoin:round;stroke-miterlimit:10;}
	.st26{fill:#AEC5E7;stroke:#293896;stroke-width:0.6055;stroke-linecap:round;stroke-linejoin:round;stroke-miterlimit:10;}
	.st27{fill:url(#SVGID_10_);}
	.st28{clip-path:url(#SVGID_12_);}
	.st29{opacity:0.2;fill:url(#SVGID_13_);}
	.st30{fill:url(#SVGID_14_);}
	.st31{opacity:0.2;fill:url(#SVGID_15_);}
	.st32{fill:#F1F2F2;}
	.st33{fill:#BCBEC0;}
	.st34{clip-path:url(#SVGID_17_);}
	.st35{fill:#414042;}
	.st36{clip-path:url(#SVGID_19_);fill:#BCBEC0;}
	.st37{opacity:0.1;fill:url(#SVGID_20_);}
	.st38{fill:none;stroke:#13588F;stroke-width:0.6055;stroke-linecap:round;stroke-linejoin:round;stroke-miterlimit:10;}
	.st39{fill:#AEC5E7;stroke:#293896;stroke-width:0.6058;stroke-linecap:round;stroke-linejoin:round;stroke-miterlimit:10;}
	.st40{fill:url(#SVGID_21_);stroke:#056A38;stroke-width:0.9361;stroke-linecap:round;stroke-linejoin:round;stroke-miterlimit:10;}
	.st41{fill:none;stroke:#13588F;stroke-width:0.6058;stroke-linecap:round;stroke-linejoin:round;stroke-miterlimit:10;}
	.st42{clip-path:url(#SVGID_25_);}
	.st43{opacity:0.2;fill:url(#SVGID_26_);}
	.st44{fill:url(#SVGID_27_);}
	.st45{opacity:0.2;fill:url(#SVGID_28_);}
	.st46{clip-path:url(#SVGID_30_);}
	.st47{clip-path:url(#SVGID_32_);fill:#BCBEC0;}
	.st48{fill:#D1D3D4;}
	.st49{opacity:0.2;}
	.st50{fill:#A7A9AC;}
	.st51{opacity:0.1;fill:url(#SVGID_33_);}
	.st52{fill:none;stroke:#056A38;stroke-width:0.9361;stroke-linecap:round;stroke-linejoin:round;stroke-miterlimit:10;}
	.st53{fill:url(#SVGID_34_);stroke:#8D313A;stroke-width:0.6219;stroke-linecap:round;stroke-linejoin:round;stroke-miterlimit:10;}
	.st54{opacity:0.2;clip-path:url(#SVGID_36_);fill:url(#SVGID_37_);}
	.st55{clip-path:url(#SVGID_36_);fill:url(#SVGID_38_);}
	.st56{opacity:0.2;clip-path:url(#SVGID_36_);fill:url(#SVGID_39_);}
	.st57{clip-path:url(#SVGID_36_);fill:#F1F2F2;}
	.st58{clip-path:url(#SVGID_36_);fill:#BCBEC0;}
	.st59{clip-path:url(#SVGID_36_);}
	.st60{clip-path:url(#SVGID_41_);}
	.st61{clip-path:url(#SVGID_43_);fill:#BCBEC0;}
	.st62{opacity:0.5;clip-path:url(#SVGID_36_);}
	.st63{clip-path:url(#SVGID_36_);fill:#414042;}
	.st64{opacity:0.2;clip-path:url(#SVGID_36_);fill:url(#SVGID_44_);}
	.st65{clip-path:url(#SVGID_36_);fill:#E6E7E8;}
	.st66{clip-path:url(#SVGID_36_);fill:#D1D3D4;}
	.st67{clip-path:url(#SVGID_36_);fill:#A7A9AC;}
	.st68{opacity:0.1;clip-path:url(#SVGID_36_);fill:url(#SVGID_45_);}
	.st69{fill:none;stroke:#8D313A;stroke-width:0.6219;stroke-linecap:round;stroke-linejoin:round;stroke-miterlimit:10;}
	.st70{clip-path:url(#SVGID_47_);}
	.st71{fill:url(#SVGID_48_);stroke:#8D313A;stroke-width:0.6236;stroke-linecap:round;stroke-linejoin:round;stroke-miterlimit:10;}
	.st72{opacity:0.2;fill:url(#SVGID_49_);}
	.st73{fill:#414042;stroke:#000000;stroke-width:0.1876;stroke-miterlimit:10;}
	.st74{opacity:0.2;fill:url(#SVGID_50_);}
	.st75{opacity:0.2;fill:url(#SVGID_51_);}
	.st76{opacity:0.2;fill:url(#SVGID_52_);}
	.st77{fill:#919396;}
	.st78{fill:url(#SVGID_53_);}
	.st79{fill:none;stroke:#656769;stroke-width:0.1465;stroke-miterlimit:10;}
	.st80{fill:#464C52;}
	.st81{fill:url(#SVGID_54_);}
	.st82{fill:#FBFBFB;}
	.st83{fill:none;stroke:#3CBEEE;stroke-width:0.0662;stroke-miterlimit:10;}
	.st84{fill:none;stroke:#8D313A;stroke-width:0.6203;stroke-linecap:round;stroke-linejoin:round;stroke-miterlimit:10;}
	.st85{clip-path:url(#SVGID_56_);}
	.st86{fill:#AEC5E7;stroke:#293896;stroke-width:0.61;stroke-linecap:round;stroke-linejoin:round;stroke-miterlimit:10;}
	.st87{fill:url(#SVGID_57_);stroke:#056A38;stroke-width:0.9427;stroke-linecap:round;stroke-linejoin:round;stroke-miterlimit:10;}
	.st88{fill:none;stroke:#13588F;stroke-width:0.61;stroke-linecap:round;stroke-linejoin:round;stroke-miterlimit:10;}
	.st89{opacity:0.2;fill:url(#SVGID_60_);}
	.st90{fill:url(#SVGID_61_);}
	.st91{fill:url(#SVGID_62_);}
	.st92{fill:none;stroke:#3CBEEE;stroke-width:0.0686;stroke-miterlimit:10;}
	.st93{fill:none;stroke:#515254;stroke-width:0.1518;stroke-miterlimit:10;}
	.st94{fill:#3D3D3E;}
	.st95{fill:none;stroke:#056A38;stroke-width:0.9427;stroke-linecap:round;stroke-linejoin:round;stroke-miterlimit:10;}
</style>
<g>
	<ellipse class="st39" cx="20.527" cy="20.5" rx="19.862" ry="19.918"/>
	<radialGradient id="SVGID_1_" cx="20.6383" cy="20.5" r="19.8897" gradientUnits="userSpaceOnUse">
		<stop  offset="0.5" style="stop-color:#8DC642"/>
		<stop  offset="1" style="stop-color:#059348"/>
	</radialGradient>
	
		<ellipse style="fill:url(#SVGID_1_);stroke:#056A38;stroke-width:0.9361;stroke-linecap:round;stroke-linejoin:round;stroke-miterlimit:10;" cx="20.638" cy="20.5" rx="19.862" ry="19.918"/>
	<ellipse class="st24" cx="20.638" cy="20.5" rx="19.862" ry="19.918"/>
	<ellipse class="st41" cx="20.569" cy="20.5" rx="19.862" ry="19.918"/>
	<g>
		<defs>
			<circle id="SVGID_22_" cx="20.418" cy="20.5" r="19.918"/>
		</defs>
		<clipPath id="SVGID_2_">
			<use xlink:href="#SVGID_22_"  style="overflow:visible;"/>
		</clipPath>
	</g>
	<g>
		<defs>
			<ellipse id="SVGID_24_" cx="20.638" cy="20.5" rx="19.862" ry="19.918"/>
		</defs>
		<clipPath id="SVGID_3_">
			<use xlink:href="#SVGID_24_"  style="overflow:visible;"/>
		</clipPath>
		<g style="clip-path:url(#SVGID_3_);">
			<linearGradient id="SVGID_5_" gradientUnits="userSpaceOnUse" x1="-7.3636" y1="20.5" x2="35.6113" y2="20.5">
				<stop  offset="0" style="stop-color:#FFFFFF;stop-opacity:0"/>
				<stop  offset="0.0738" style="stop-color:#D8D7D7;stop-opacity:0.0702"/>
				<stop  offset="0.2169" style="stop-color:#A3A1A2;stop-opacity:0.2061"/>
				<stop  offset="0.36" style="stop-color:#797878;stop-opacity:0.342"/>
				<stop  offset="0.4999" style="stop-color:#5A5859;stop-opacity:0.4749"/>
				<stop  offset="0.6359" style="stop-color:#403D3E;stop-opacity:0.6041"/>
				<stop  offset="0.7669" style="stop-color:#282526;stop-opacity:0.7285"/>
				<stop  offset="0.8907" style="stop-color:#0D0C0C;stop-opacity:0.8462"/>
				<stop  offset="1" style="stop-color:#000000;stop-opacity:0.95"/>
			</linearGradient>
			<path style="opacity:0.2;fill:url(#SVGID_5_);" d="M44.209,3.953H3.88c-1.393,0-2.532,1.201-2.532,2.669v1.57h-2.916
				c-1.035,0-1.882,0.893-1.882,1.984l1.216,20.636c0,1.091,0.847,1.984,1.882,1.984h1.7v1.583c0,1.468,1.139,2.669,2.532,2.669
				h40.33c1.393,0,2.532-1.201,2.532-2.669V6.622C46.741,5.154,45.602,3.953,44.209,3.953z"/>
			
				<linearGradient id="SVGID_6_" gradientUnits="userSpaceOnUse" x1="-50.9003" y1="118.3698" x2="-50.9003" y2="95.9286" gradientTransform="matrix(0 1 -1 0 112.9262 71.3939)">
				<stop  offset="0.1828" style="stop-color:#FFFFFF"/>
				<stop  offset="0.8431" style="stop-color:#E6E7E8"/>
			</linearGradient>
			<path style="fill:url(#SVGID_6_);" d="M15.044,8.79c1.035,0,1.882,0.85,1.882,1.888V30.31c0,1.038-0.847,1.888-1.882,1.888H0.641
				c-1.035,0-1.882-0.849-1.882-1.888l-1.216-19.633c0-1.038,0.847-1.888,1.882-1.888H15.044z"/>
			<linearGradient id="SVGID_7_" gradientUnits="userSpaceOnUse" x1="-1.9431" y1="20.4936" x2="6.0859" y2="20.4936">
				<stop  offset="0" style="stop-color:#FFFFFF;stop-opacity:0"/>
				<stop  offset="0.0738" style="stop-color:#D8D7D7;stop-opacity:0.0702"/>
				<stop  offset="0.2169" style="stop-color:#A3A1A2;stop-opacity:0.2061"/>
				<stop  offset="0.36" style="stop-color:#797878;stop-opacity:0.342"/>
				<stop  offset="0.4999" style="stop-color:#5A5859;stop-opacity:0.4749"/>
				<stop  offset="0.6359" style="stop-color:#403D3E;stop-opacity:0.6041"/>
				<stop  offset="0.7669" style="stop-color:#282526;stop-opacity:0.7285"/>
				<stop  offset="0.8907" style="stop-color:#0D0C0C;stop-opacity:0.8462"/>
				<stop  offset="1" style="stop-color:#000000;stop-opacity:0.95"/>
			</linearGradient>
			<path style="opacity:0.2;fill:url(#SVGID_7_);" d="M15.044,8.79c1.035,0,1.882,0.85,1.882,1.888V30.31
				c0,1.038-0.847,1.888-1.882,1.888H0.641c-1.035,0-1.882-0.849-1.882-1.888l-1.216-19.633c0-1.038,0.847-1.888,1.882-1.888H15.044
				z"/>
			<path class="st32" d="M44.209,4.757c1.393,0,2.532,1.143,2.532,2.539v26.408c0,1.397-1.139,2.539-2.532,2.539H4.874
				c-1.393,0-2.532-1.143-2.532-2.539V7.296c0-1.397,1.139-2.539,2.532-2.539H44.209z"/>
			<path class="st33" d="M0.225,11.105l-2.632,0.378l0.656,10.581l1.976,0.349c0.161,0,0.292-0.182,0.292-0.406V11.511
				C0.517,11.287,0.386,11.105,0.225,11.105z"/>
			<g>
				<defs>
					<path id="SVGID_29_" d="M0.225,11.105l-2.632,0.378l0.656,10.581l1.976,0.349c0.161,0,0.292-0.182,0.292-0.406V11.511
						C0.517,11.287,0.386,11.105,0.225,11.105z"/>
				</defs>
				<clipPath id="SVGID_8_">
					<use xlink:href="#SVGID_29_"  style="overflow:visible;"/>
				</clipPath>
				<g style="clip-path:url(#SVGID_8_);">
					<path class="st35" d="M0.034,9.544c0.003,0.228-0.168,0.426-0.381,0.443c-0.214,0.017-0.389-0.155-0.392-0.383
						c-0.003-0.228,0.168-0.426,0.381-0.443C-0.144,9.145,0.031,9.317,0.034,9.544z"/>
					<path class="st35" d="M0.958,9.331C0.961,9.559,0.79,9.758,0.577,9.774C0.363,9.791,0.188,9.619,0.185,9.391
						C0.182,9.164,0.353,8.965,0.566,8.949C0.78,8.932,0.955,9.104,0.958,9.331z"/>
					<path class="st35" d="M0.559,10.33c0.003,0.228-0.168,0.426-0.381,0.443c-0.214,0.017-0.389-0.155-0.392-0.383
						c-0.003-0.228,0.168-0.426,0.381-0.443C0.381,9.931,0.557,10.102,0.559,10.33z"/>
					<path class="st35" d="M0.057,11.39c0.003,0.228-0.168,0.426-0.381,0.443c-0.214,0.017-0.389-0.155-0.392-0.383
						c-0.003-0.228,0.168-0.426,0.381-0.443C-0.121,10.991,0.054,11.163,0.057,11.39z"/>
					<path class="st35" d="M0.981,11.177c0.003,0.228-0.168,0.426-0.381,0.443c-0.214,0.017-0.389-0.155-0.392-0.383
						c-0.003-0.228,0.168-0.426,0.381-0.443C0.803,10.778,0.978,10.95,0.981,11.177z"/>
					<path class="st35" d="M0.583,12.176c0.003,0.228-0.168,0.426-0.381,0.443c-0.214,0.017-0.389-0.155-0.392-0.383
						c-0.003-0.228,0.168-0.426,0.381-0.443C0.404,11.777,0.58,11.948,0.583,12.176z"/>
					<path class="st35" d="M0.082,13.324c0.003,0.228-0.168,0.426-0.381,0.443c-0.214,0.017-0.389-0.155-0.392-0.383
						c-0.003-0.228,0.168-0.426,0.381-0.443C-0.097,12.924,0.079,13.096,0.082,13.324z"/>
					<path class="st35" d="M1.006,13.111c0.003,0.228-0.168,0.426-0.381,0.443c-0.214,0.017-0.389-0.155-0.392-0.383
						C0.23,12.943,0.4,12.744,0.614,12.728C0.827,12.711,1.003,12.883,1.006,13.111z"/>
					<path class="st35" d="M0.607,14.109c0.003,0.228-0.168,0.426-0.381,0.443c-0.214,0.017-0.389-0.155-0.392-0.383
						c-0.003-0.228,0.168-0.426,0.381-0.443C0.429,13.71,0.604,13.881,0.607,14.109z"/>
					<path class="st35" d="M0.105,15.17c0.003,0.228-0.168,0.426-0.381,0.443c-0.214,0.017-0.389-0.155-0.392-0.383
						c-0.003-0.228,0.168-0.426,0.381-0.443C-0.073,14.77,0.102,14.942,0.105,15.17z"/>
					<path class="st35" d="M1.029,14.957c0.003,0.228-0.168,0.426-0.381,0.443c-0.214,0.017-0.389-0.155-0.392-0.383
						c-0.003-0.228,0.168-0.426,0.381-0.443C0.851,14.557,1.026,14.729,1.029,14.957z"/>
					<path class="st35" d="M0.63,15.955c0.003,0.228-0.168,0.426-0.381,0.443c-0.214,0.017-0.389-0.155-0.392-0.383
						c-0.003-0.228,0.168-0.426,0.381-0.443C0.452,15.556,0.627,15.727,0.63,15.955z"/>
					<path class="st35" d="M0.129,17.103c0.003,0.228-0.168,0.426-0.381,0.443c-0.214,0.017-0.389-0.155-0.392-0.383
						c-0.003-0.228,0.168-0.426,0.381-0.443C-0.049,16.703,0.126,16.875,0.129,17.103z"/>
					<path class="st35" d="M1.053,16.89c0.003,0.228-0.168,0.426-0.381,0.443c-0.214,0.017-0.389-0.155-0.392-0.383
						c-0.003-0.228,0.168-0.426,0.381-0.443C0.875,16.49,1.05,16.662,1.053,16.89z"/>
					<path class="st35" d="M0.654,17.888c0.003,0.228-0.168,0.426-0.381,0.443c-0.214,0.017-0.389-0.155-0.392-0.383
						c-0.003-0.228,0.168-0.426,0.381-0.443C0.476,17.489,0.652,17.66,0.654,17.888z"/>
					<path class="st35" d="M0.152,18.949c0.003,0.228-0.168,0.426-0.381,0.443c-0.214,0.017-0.389-0.155-0.392-0.383
						c-0.003-0.228,0.168-0.426,0.381-0.443C-0.026,18.549,0.15,18.721,0.152,18.949z"/>
					<path class="st35" d="M1.076,18.736c0.003,0.228-0.168,0.426-0.381,0.443c-0.214,0.017-0.389-0.155-0.392-0.383
						c-0.003-0.228,0.168-0.426,0.381-0.443C0.898,18.336,1.074,18.508,1.076,18.736z"/>
					<path class="st35" d="M0.678,19.734c0.003,0.228-0.168,0.426-0.381,0.443c-0.214,0.017-0.389-0.155-0.392-0.383
						c-0.003-0.228,0.168-0.426,0.381-0.443C0.499,19.335,0.675,19.506,0.678,19.734z"/>
					<path class="st35" d="M0.177,20.882c0.003,0.228-0.168,0.426-0.381,0.443c-0.214,0.017-0.389-0.155-0.392-0.383
						c-0.003-0.228,0.168-0.426,0.381-0.443C-0.002,20.482,0.174,20.654,0.177,20.882z"/>
					<path class="st35" d="M1.101,20.669c0.003,0.228-0.168,0.426-0.381,0.443c-0.214,0.017-0.389-0.155-0.392-0.383
						c-0.003-0.228,0.168-0.426,0.381-0.443C0.922,20.27,1.098,20.441,1.101,20.669z"/>
					<path class="st35" d="M0.702,21.667c0.003,0.228-0.168,0.426-0.381,0.443c-0.214,0.017-0.389-0.155-0.392-0.383
						c-0.003-0.228,0.168-0.426,0.381-0.443C0.524,21.268,0.699,21.439,0.702,21.667z"/>
					<path class="st35" d="M0.2,22.728c0.003,0.228-0.168,0.426-0.381,0.443c-0.214,0.017-0.389-0.155-0.392-0.383
						c-0.003-0.228,0.168-0.426,0.381-0.443C0.022,22.328,0.197,22.5,0.2,22.728z"/>
					<path class="st35" d="M1.124,22.515c0.003,0.228-0.168,0.426-0.381,0.443c-0.214,0.017-0.389-0.155-0.392-0.383
						c-0.003-0.228,0.168-0.426,0.381-0.443C0.946,22.115,1.121,22.287,1.124,22.515z"/>
					<path class="st35" d="M0.725,23.513c0.003,0.228-0.168,0.426-0.381,0.443c-0.214,0.017-0.389-0.155-0.392-0.383
						c-0.003-0.228,0.168-0.426,0.381-0.443C0.547,23.114,0.722,23.285,0.725,23.513z"/>
				</g>
			</g>
			<g>
				<defs>
					<path id="SVGID_31_" d="M43.834,4.757c1.393,0,2.532,1.143,2.532,2.539v26.408c0,1.397-1.139,2.539-2.532,2.539H4.874
						c-1.393,0-2.532-1.143-2.532-2.539V7.296c0-1.397,1.139-2.539,2.532-2.539H43.834z"/>
				</defs>
				<clipPath id="SVGID_9_">
					<use xlink:href="#SVGID_31_"  style="overflow:visible;"/>
				</clipPath>
				<path style="clip-path:url(#SVGID_9_);fill:#BCBEC0;" d="M46.695,4.485c0,1.017-1.039,1.841-2.321,1.841H2.428
					c-1.282,0-2.321-0.824-2.321-1.841V1.706c0-1.017,1.039-1.841,2.321-1.841h41.947c1.282,0,2.321,0.824,2.321,1.841V4.485z"/>
				<path style="clip-path:url(#SVGID_9_);fill:#BCBEC0;" d="M50.226,39.459c0,1.017-1.039,1.841-2.321,1.841H2.428
					c-1.282,0-2.321-0.824-2.321-1.841V36.68c0-1.017,1.039-1.841,2.321-1.841h45.478c1.282,0,2.321,0.824,2.321,1.841V39.459z"/>
			</g>
			<rect x="14.192" y="7.141" class="st32" width="14.621" height="27.166"/>
			<rect x="13.573" y="6.832" class="st48" width="0.619" height="27.476"/>
			<rect x="13.573" y="6.832" class="st33" width="0.619" height="27.476"/>
			<rect x="28.813" y="6.832" class="st33" width="0.619" height="27.476"/>
			<rect x="13.573" y="6.832" class="st33" width="15.859" height="0.619"/>
			<rect x="13.573" y="33.689" class="st33" width="15.859" height="0.619"/>
			<path class="st0" d="M29.131,8.339c-0.165,0-0.298,0.133-0.298,0.298v0.191l-1.837,0.424c-0.084,0-0.153,0.068-0.153,0.153V10
				c0,0.084,0.068,0.153,0.153,0.153l1.837,0.424v0.192c0,0.165,0.133,0.298,0.298,0.298c0.165,0,0.298-0.133,0.298-0.298V8.637
				C29.429,8.473,29.296,8.339,29.131,8.339z"/>
			<path class="st49" d="M29.131,29.59c-0.165,0-0.298,0.133-0.298,0.298v0.191l-1.837,0.424c-0.084,0-0.153,0.068-0.153,0.153
				v0.595c0,0.084,0.068,0.153,0.153,0.153l1.837,0.424v0.192c0,0.165,0.133,0.298,0.298,0.298c0.165,0,0.298-0.133,0.298-0.298
				v-2.132C29.429,29.723,29.296,29.59,29.131,29.59z"/>
			<path class="st50" d="M29.131,8.225c-0.165,0-0.298,0.133-0.298,0.298v0.191l-1.837,0.424c-0.084,0-0.153,0.068-0.153,0.153
				v0.595c0,0.084,0.068,0.153,0.153,0.153l1.837,0.424v0.192c0,0.165,0.133,0.298,0.298,0.298c0.165,0,0.298-0.133,0.298-0.298
				V8.523C29.429,8.358,29.296,8.225,29.131,8.225z"/>
			<path class="st50" d="M29.429,31.9c0,0.165-0.133,0.298-0.298,0.298l0,0c-0.165,0-0.298-0.133-0.298-0.298v-2.132
				c0-0.165,0.133-0.298,0.298-0.298l0,0c0.165,0,0.298,0.133,0.298,0.298V31.9z"/>
			<path class="st50" d="M26.844,31.131c0,0.084,0.068,0.153,0.153,0.153l1.982,0.458c0.084,0,0.153-0.068,0.153-0.153v-1.511
				c0-0.084-0.068-0.153-0.153-0.153l-1.982,0.458c-0.084,0-0.153,0.068-0.153,0.153V31.131z"/>
			<path class="st0" d="M20.158,30.894l-3.342,0.143c-1.376,0-1.875-1.085-1.875-1.814h0.964h-0.482l0.482-0.004
				c0.004,0.2,0.081,0.855,0.912,0.855h3.342V30.894z"/>
			<path class="st50" d="M20.158,30.894h-3.342c-1.376,0-1.875-1.085-1.875-1.814h0.964h-0.482l0.482-0.004
				c0.004,0.2,0.081,0.855,0.912,0.855h3.342V30.894z"/>
			<g>
				<circle class="st48" cx="16.153" cy="10.082" r="0.317"/>
				<circle class="st48" cx="20.418" cy="10.082" r="0.317"/>
				<circle class="st48" cx="24.682" cy="10.082" r="0.317"/>
				<circle class="st48" cx="16.153" cy="11.385" r="0.317"/>
				<circle class="st48" cx="20.418" cy="11.385" r="0.317"/>
				<circle class="st48" cx="24.682" cy="11.385" r="0.317"/>
				<circle class="st48" cx="16.153" cy="12.688" r="0.317"/>
				<circle class="st48" cx="20.418" cy="12.688" r="0.317"/>
				<circle class="st48" cx="24.682" cy="12.688" r="0.317"/>
				<circle class="st48" cx="16.153" cy="13.991" r="0.317"/>
				<circle class="st48" cx="20.418" cy="13.991" r="0.317"/>
				<circle class="st48" cx="24.682" cy="13.991" r="0.317"/>
				<circle class="st48" cx="16.153" cy="15.293" r="0.317"/>
				<circle class="st48" cx="20.418" cy="15.293" r="0.317"/>
				<circle class="st48" cx="24.682" cy="15.293" r="0.317"/>
				<circle class="st48" cx="16.153" cy="16.596" r="0.317"/>
				<circle class="st48" cx="20.418" cy="16.596" r="0.317"/>
				<circle class="st48" cx="24.682" cy="16.596" r="0.317"/>
			</g>
			<g>
				<circle class="st48" cx="16.153" cy="21.294" r="0.317"/>
				<circle class="st48" cx="20.418" cy="21.294" r="0.317"/>
				<circle class="st48" cx="24.682" cy="21.294" r="0.317"/>
				<circle class="st48" cx="16.153" cy="22.597" r="0.317"/>
				<circle class="st48" cx="20.418" cy="22.597" r="0.317"/>
				<circle class="st48" cx="24.682" cy="22.597" r="0.317"/>
				<circle class="st48" cx="16.153" cy="23.9" r="0.317"/>
				<circle class="st48" cx="20.418" cy="23.9" r="0.317"/>
				<circle class="st48" cx="24.682" cy="23.9" r="0.317"/>
				<circle class="st48" cx="16.153" cy="25.203" r="0.317"/>
				<circle class="st48" cx="20.418" cy="25.203" r="0.317"/>
				<circle class="st48" cx="24.682" cy="25.203" r="0.317"/>
				<circle class="st48" cx="16.153" cy="26.506" r="0.317"/>
				<circle class="st48" cx="20.418" cy="26.506" r="0.317"/>
				<circle class="st48" cx="24.682" cy="26.506" r="0.317"/>
				<circle class="st48" cx="16.153" cy="27.808" r="0.317"/>
				<circle class="st48" cx="20.418" cy="27.808" r="0.317"/>
				<circle class="st48" cx="24.682" cy="27.808" r="0.317"/>
			</g>
			
				<linearGradient id="SVGID_10_" gradientUnits="userSpaceOnUse" x1="39.9655" y1="213.0799" x2="39.9655" y2="244.296" gradientTransform="matrix(-1 0 0 -1 64.2367 249)">
				<stop  offset="0.4763" style="stop-color:#FFFFFF;stop-opacity:0"/>
				<stop  offset="0.515" style="stop-color:#D8D7D7;stop-opacity:0.0702"/>
				<stop  offset="0.5899" style="stop-color:#A3A1A2;stop-opacity:0.2061"/>
				<stop  offset="0.6649" style="stop-color:#797878;stop-opacity:0.342"/>
				<stop  offset="0.7381" style="stop-color:#5A5859;stop-opacity:0.4749"/>
				<stop  offset="0.8093" style="stop-color:#403D3E;stop-opacity:0.6041"/>
				<stop  offset="0.8779" style="stop-color:#282526;stop-opacity:0.7285"/>
				<stop  offset="0.9428" style="stop-color:#0D0C0C;stop-opacity:0.8462"/>
				<stop  offset="1" style="stop-color:#000000;stop-opacity:0.95"/>
			</linearGradient>
			<path style="opacity:0.1;fill:url(#SVGID_10_);" d="M4.874,36.243c-1.393,0-2.532-1.143-2.532-2.539V7.296
				c0-1.397,1.139-2.539,2.532-2.539h38.795c1.393,0,2.532,1.143,2.532,2.539v26.408c0,1.397-1.139,2.539-2.532,2.539H4.874z"/>
		</g>
	</g>
	<ellipse class="st52" cx="20.638" cy="20.5" rx="19.862" ry="19.918"/>
</g>
</svg>
