<?xml version="1.0" encoding="utf-8"?>
<!-- Generator: Adobe Illustrator 17.0.0, SVG Export Plug-In . SVG Version: 6.00 Build 0)  -->
<!DOCTYPE svg PUBLIC "-//W3C//DTD SVG 1.1//EN" "http://www.w3.org/Graphics/SVG/1.1/DTD/svg11.dtd">
<svg version="1.1" id="Layer_1" xmlns="http://www.w3.org/2000/svg" xmlns:xlink="http://www.w3.org/1999/xlink" x="0px" y="0px"
	 width="41px" height="41px" viewBox="0 0 41 41" style="enable-background:new 0 0 41 41;" xml:space="preserve">
<style type="text/css">
	.st0{opacity:0.5;}
	.st1{fill:url(#SVGID_1_);stroke:#056A38;stroke-width:0.9355;stroke-linecap:round;stroke-linejoin:round;stroke-miterlimit:10;}
	.st2{fill:#FFFFFF;}
	.st3{fill:#E6E6E6;}
	.st4{fill:#FFFFFF;stroke:#404040;stroke-width:0.1842;stroke-linecap:round;stroke-linejoin:round;stroke-miterlimit:10;}
	.st5{fill:#74BAC2;fill-opacity:0.5;}
	.st6{fill:#27AAE1;}
	.st7{fill:#1C75BC;}
	.st8{fill:#FFFFFF;stroke:#FFFFFF;stroke-width:0.3684;stroke-linecap:round;stroke-linejoin:round;stroke-miterlimit:10;}
	.st9{fill:url(#SVGID_2_);stroke:#8D313A;stroke-width:0.6188;stroke-linecap:round;stroke-linejoin:round;stroke-miterlimit:10;}
	.st10{fill:#CB4234;}
	.st11{fill:#C94233;}
	.st12{fill:#B43A2C;}
	.st13{fill:#AEC5E7;stroke:#293896;stroke-width:0.6038;stroke-linecap:round;stroke-linejoin:round;stroke-miterlimit:10;}
	.st14{fill:url(#SVGID_3_);}
	.st15{clip-path:url(#SVGID_5_);}
	.st16{opacity:0.2;fill:url(#SVGID_6_);}
	.st17{fill:url(#SVGID_7_);}
	.st18{opacity:0.3;fill:url(#SVGID_8_);}
	.st19{fill:#58595B;}
	.st20{fill:#E6E7E8;}
	.st21{fill:none;stroke:#D1D3D4;stroke-width:0.3197;stroke-miterlimit:10;}
	.st22{fill:url(#SVGID_9_);}
	.st23{fill:none;stroke:#FFFFFF;stroke-width:0.5506;stroke-linecap:round;stroke-linejoin:round;stroke-miterlimit:10;}
	.st24{fill:none;}
	.st25{fill:none;stroke:#13588F;stroke-width:0.6038;stroke-linecap:round;stroke-linejoin:round;stroke-miterlimit:10;}
	.st26{fill:#AEC5E7;stroke:#293896;stroke-width:0.6055;stroke-linecap:round;stroke-linejoin:round;stroke-miterlimit:10;}
	.st27{fill:url(#SVGID_10_);}
	.st28{clip-path:url(#SVGID_12_);}
	.st29{opacity:0.2;fill:url(#SVGID_13_);}
	.st30{fill:url(#SVGID_14_);}
	.st31{opacity:0.2;fill:url(#SVGID_15_);}
	.st32{fill:#F1F2F2;}
	.st33{fill:#BCBEC0;}
	.st34{clip-path:url(#SVGID_17_);}
	.st35{fill:#414042;}
	.st36{clip-path:url(#SVGID_19_);fill:#BCBEC0;}
	.st37{opacity:0.1;fill:url(#SVGID_20_);}
	.st38{fill:none;stroke:#13588F;stroke-width:0.6055;stroke-linecap:round;stroke-linejoin:round;stroke-miterlimit:10;}
	.st39{fill:#AEC5E7;stroke:#293896;stroke-width:0.6058;stroke-linecap:round;stroke-linejoin:round;stroke-miterlimit:10;}
	.st40{fill:url(#SVGID_21_);stroke:#056A38;stroke-width:0.9361;stroke-linecap:round;stroke-linejoin:round;stroke-miterlimit:10;}
	.st41{fill:none;stroke:#13588F;stroke-width:0.6058;stroke-linecap:round;stroke-linejoin:round;stroke-miterlimit:10;}
	.st42{clip-path:url(#SVGID_25_);}
	.st43{opacity:0.2;fill:url(#SVGID_26_);}
	.st44{fill:url(#SVGID_27_);}
	.st45{opacity:0.2;fill:url(#SVGID_28_);}
	.st46{clip-path:url(#SVGID_30_);}
	.st47{clip-path:url(#SVGID_32_);fill:#BCBEC0;}
	.st48{fill:#D1D3D4;}
	.st49{opacity:0.2;}
	.st50{fill:#A7A9AC;}
	.st51{opacity:0.1;fill:url(#SVGID_33_);}
	.st52{fill:none;stroke:#056A38;stroke-width:0.9361;stroke-linecap:round;stroke-linejoin:round;stroke-miterlimit:10;}
	.st53{fill:url(#SVGID_34_);stroke:#8D313A;stroke-width:0.6219;stroke-linecap:round;stroke-linejoin:round;stroke-miterlimit:10;}
	.st54{opacity:0.2;clip-path:url(#SVGID_36_);fill:url(#SVGID_37_);}
	.st55{clip-path:url(#SVGID_36_);fill:url(#SVGID_38_);}
	.st56{opacity:0.2;clip-path:url(#SVGID_36_);fill:url(#SVGID_39_);}
	.st57{clip-path:url(#SVGID_36_);fill:#F1F2F2;}
	.st58{clip-path:url(#SVGID_36_);fill:#BCBEC0;}
	.st59{clip-path:url(#SVGID_36_);}
	.st60{clip-path:url(#SVGID_41_);}
	.st61{clip-path:url(#SVGID_43_);fill:#BCBEC0;}
	.st62{opacity:0.5;clip-path:url(#SVGID_36_);}
	.st63{clip-path:url(#SVGID_36_);fill:#414042;}
	.st64{opacity:0.2;clip-path:url(#SVGID_36_);fill:url(#SVGID_44_);}
	.st65{clip-path:url(#SVGID_36_);fill:#E6E7E8;}
	.st66{clip-path:url(#SVGID_36_);fill:#D1D3D4;}
	.st67{clip-path:url(#SVGID_36_);fill:#A7A9AC;}
	.st68{opacity:0.1;clip-path:url(#SVGID_36_);fill:url(#SVGID_45_);}
	.st69{fill:none;stroke:#8D313A;stroke-width:0.6219;stroke-linecap:round;stroke-linejoin:round;stroke-miterlimit:10;}
	.st70{clip-path:url(#SVGID_47_);}
	.st71{fill:url(#SVGID_48_);stroke:#8D313A;stroke-width:0.6236;stroke-linecap:round;stroke-linejoin:round;stroke-miterlimit:10;}
	.st72{opacity:0.2;fill:url(#SVGID_49_);}
	.st73{fill:#414042;stroke:#000000;stroke-width:0.1876;stroke-miterlimit:10;}
	.st74{opacity:0.2;fill:url(#SVGID_50_);}
	.st75{opacity:0.2;fill:url(#SVGID_51_);}
	.st76{opacity:0.2;fill:url(#SVGID_52_);}
	.st77{fill:#919396;}
	.st78{fill:url(#SVGID_53_);}
	.st79{fill:none;stroke:#656769;stroke-width:0.1465;stroke-miterlimit:10;}
	.st80{fill:#464C52;}
	.st81{fill:url(#SVGID_54_);}
	.st82{fill:#FBFBFB;}
	.st83{fill:none;stroke:#3CBEEE;stroke-width:0.0662;stroke-miterlimit:10;}
	.st84{fill:none;stroke:#8D313A;stroke-width:0.6203;stroke-linecap:round;stroke-linejoin:round;stroke-miterlimit:10;}
	.st85{clip-path:url(#SVGID_56_);}
	.st86{fill:#AEC5E7;stroke:#293896;stroke-width:0.61;stroke-linecap:round;stroke-linejoin:round;stroke-miterlimit:10;}
	.st87{fill:url(#SVGID_57_);stroke:#056A38;stroke-width:0.9427;stroke-linecap:round;stroke-linejoin:round;stroke-miterlimit:10;}
	.st88{fill:none;stroke:#13588F;stroke-width:0.61;stroke-linecap:round;stroke-linejoin:round;stroke-miterlimit:10;}
	.st89{opacity:0.2;fill:url(#SVGID_60_);}
	.st90{fill:url(#SVGID_61_);}
	.st91{fill:url(#SVGID_62_);}
	.st92{fill:none;stroke:#3CBEEE;stroke-width:0.0686;stroke-miterlimit:10;}
	.st93{fill:none;stroke:#515254;stroke-width:0.1518;stroke-miterlimit:10;}
	.st94{fill:#3D3D3E;}
	.st95{fill:none;stroke:#056A38;stroke-width:0.9427;stroke-linecap:round;stroke-linejoin:round;stroke-miterlimit:10;}
</style>
<g>
	<radialGradient id="SVGID_1_" cx="20.4439" cy="20.5" r="19.972" gradientUnits="userSpaceOnUse">
		<stop  offset="0.5" style="stop-color:#EE432F"/>
		<stop  offset="1" style="stop-color:#BE232F"/>
	</radialGradient>
	
		<ellipse style="fill:url(#SVGID_1_);stroke:#8D313A;stroke-width:0.6219;stroke-linecap:round;stroke-linejoin:round;stroke-miterlimit:10;" cx="20.444" cy="20.5" rx="19.944" ry="20"/>
	<g>
		<defs>
			<ellipse id="SVGID_35_" cx="20.556" cy="20.5" rx="19.944" ry="20"/>
		</defs>
		<clipPath id="SVGID_2_">
			<use xlink:href="#SVGID_35_"  style="overflow:visible;"/>
		</clipPath>
		<linearGradient id="SVGID_3_" gradientUnits="userSpaceOnUse" x1="-7.5617" y1="20.5" x2="35.5911" y2="20.5">
			<stop  offset="0" style="stop-color:#FFFFFF;stop-opacity:0"/>
			<stop  offset="0.0738" style="stop-color:#D8D7D7;stop-opacity:0.0702"/>
			<stop  offset="0.2169" style="stop-color:#A3A1A2;stop-opacity:0.2061"/>
			<stop  offset="0.36" style="stop-color:#797878;stop-opacity:0.342"/>
			<stop  offset="0.4999" style="stop-color:#5A5859;stop-opacity:0.4749"/>
			<stop  offset="0.6359" style="stop-color:#403D3E;stop-opacity:0.6041"/>
			<stop  offset="0.7669" style="stop-color:#282526;stop-opacity:0.7285"/>
			<stop  offset="0.8907" style="stop-color:#0D0C0C;stop-opacity:0.8462"/>
			<stop  offset="1" style="stop-color:#000000;stop-opacity:0.95"/>
		</linearGradient>
		<path style="opacity:0.2;clip-path:url(#SVGID_2_);fill:url(#SVGID_3_);" d="M44.225,3.884H3.728c-1.398,0-2.543,1.206-2.543,2.68
			V8.14h-2.928c-1.04,0-1.89,0.897-1.89,1.992l1.221,20.721c0,1.096,0.851,1.992,1.89,1.992h1.707v1.59
			c0,1.474,1.144,2.68,2.543,2.68h40.497c1.398,0,2.543-1.206,2.543-2.68V6.564C46.767,5.09,45.623,3.884,44.225,3.884z"/>
		
			<linearGradient id="SVGID_5_" gradientUnits="userSpaceOnUse" x1="-102.9003" y1="170.56" x2="-102.9003" y2="148.0259" gradientTransform="matrix(0 1 -1 0 164.9262 123.3939)">
			<stop  offset="0.1828" style="stop-color:#FFFFFF"/>
			<stop  offset="0.8431" style="stop-color:#E6E7E8"/>
		</linearGradient>
		<path style="clip-path:url(#SVGID_2_);fill:url(#SVGID_5_);" d="M14.938,8.741c1.04,0,1.89,0.853,1.89,1.896v19.714
			c0,1.043-0.851,1.896-1.89,1.896H0.477c-1.04,0-1.89-0.853-1.89-1.896l-1.221-19.714c0-1.043,0.851-1.896,1.89-1.896H14.938z"/>
		<linearGradient id="SVGID_6_" gradientUnits="userSpaceOnUse" x1="-2.1187" y1="20.4936" x2="5.9434" y2="20.4936">
			<stop  offset="0" style="stop-color:#FFFFFF;stop-opacity:0"/>
			<stop  offset="0.0738" style="stop-color:#D8D7D7;stop-opacity:0.0702"/>
			<stop  offset="0.2169" style="stop-color:#A3A1A2;stop-opacity:0.2061"/>
			<stop  offset="0.36" style="stop-color:#797878;stop-opacity:0.342"/>
			<stop  offset="0.4999" style="stop-color:#5A5859;stop-opacity:0.4749"/>
			<stop  offset="0.6359" style="stop-color:#403D3E;stop-opacity:0.6041"/>
			<stop  offset="0.7669" style="stop-color:#282526;stop-opacity:0.7285"/>
			<stop  offset="0.8907" style="stop-color:#0D0C0C;stop-opacity:0.8462"/>
			<stop  offset="1" style="stop-color:#000000;stop-opacity:0.95"/>
		</linearGradient>
		<path style="opacity:0.2;clip-path:url(#SVGID_2_);fill:url(#SVGID_6_);" d="M14.938,8.741c1.04,0,1.89,0.853,1.89,1.896v19.714
			c0,1.043-0.851,1.896-1.89,1.896H0.477c-1.04,0-1.89-0.853-1.89-1.896l-1.221-19.714c0-1.043,0.851-1.896,1.89-1.896H14.938z"/>
		<path style="clip-path:url(#SVGID_2_);fill:#F1F2F2;" d="M44.225,4.692c1.398,0,2.543,1.147,2.543,2.55v26.517
			c0,1.402-1.144,2.55-2.543,2.55H4.726c-1.398,0-2.543-1.147-2.543-2.55V7.242c0-1.402,1.144-2.55,2.543-2.55H44.225z"/>
		<path style="clip-path:url(#SVGID_2_);fill:#BCBEC0;" d="M0.058,11.066l-2.643,0.379l0.659,10.625l1.984,0.35
			c0.162,0,0.293-0.183,0.293-0.408V11.474C0.351,11.249,0.22,11.066,0.058,11.066z"/>
		<g style="clip-path:url(#SVGID_2_);">
			<defs>
				<path id="SVGID_40_" d="M0.058,11.066l-2.643,0.379l0.659,10.625l1.984,0.35c0.162,0,0.293-0.183,0.293-0.408V11.474
					C0.351,11.249,0.22,11.066,0.058,11.066z"/>
			</defs>
			<clipPath id="SVGID_7_">
				<use xlink:href="#SVGID_40_"  style="overflow:visible;"/>
			</clipPath>
			<g style="clip-path:url(#SVGID_7_);">
				<path class="st35" d="M0.794,9.285C0.797,9.514,0.626,9.713,0.411,9.73C0.197,9.746,0.021,9.574,0.018,9.345
					s0.169-0.428,0.383-0.445C0.615,8.884,0.792,9.056,0.794,9.285z"/>
				<path class="st35" d="M0.394,10.288c0.003,0.229-0.169,0.428-0.383,0.445c-0.214,0.017-0.391-0.155-0.393-0.384
					c-0.003-0.229,0.169-0.428,0.383-0.445C0.215,9.887,0.391,10.059,0.394,10.288z"/>
				<path class="st35" d="M0.818,11.139c0.003,0.229-0.169,0.428-0.383,0.445C0.22,11.6,0.044,11.428,0.041,11.199
					c-0.003-0.229,0.169-0.428,0.383-0.445C0.639,10.738,0.815,10.91,0.818,11.139z"/>
				<path class="st35" d="M0.417,12.141c0.003,0.229-0.169,0.428-0.383,0.444c-0.214,0.017-0.391-0.155-0.393-0.384
					c-0.003-0.229,0.169-0.428,0.383-0.445C0.238,11.741,0.415,11.913,0.417,12.141z"/>
				<path class="st35" d="M0.842,13.08c0.003,0.229-0.169,0.428-0.383,0.444c-0.214,0.017-0.391-0.155-0.393-0.384
					c-0.003-0.229,0.169-0.428,0.383-0.445C0.663,12.679,0.839,12.851,0.842,13.08z"/>
				<path class="st35" d="M0.442,14.083c0.003,0.229-0.169,0.428-0.383,0.445c-0.214,0.017-0.391-0.155-0.393-0.384
					c-0.003-0.229,0.169-0.428,0.383-0.445C0.263,13.682,0.439,13.854,0.442,14.083z"/>
				<path class="st35" d="M0.866,14.934c0.003,0.229-0.169,0.428-0.383,0.445c-0.214,0.017-0.391-0.155-0.393-0.384
					c-0.003-0.229,0.169-0.428,0.383-0.445C0.686,14.533,0.863,14.705,0.866,14.934z"/>
				<path class="st35" d="M0.465,15.936c0.003,0.229-0.169,0.428-0.383,0.445c-0.214,0.017-0.391-0.155-0.393-0.384
					c-0.003-0.229,0.169-0.428,0.383-0.444C0.286,15.535,0.462,15.707,0.465,15.936z"/>
				<path class="st35" d="M0.89,16.875c0.003,0.229-0.169,0.428-0.383,0.445c-0.214,0.017-0.391-0.155-0.393-0.384
					c-0.003-0.229,0.169-0.428,0.383-0.444C0.711,16.474,0.887,16.646,0.89,16.875z"/>
				<path class="st35" d="M0.49,17.877c0.003,0.229-0.169,0.428-0.383,0.445c-0.214,0.017-0.391-0.155-0.393-0.384
					c-0.003-0.229,0.169-0.428,0.383-0.445C0.311,17.476,0.487,17.648,0.49,17.877z"/>
				<path class="st35" d="M0.913,18.728c0.003,0.229-0.169,0.428-0.383,0.445c-0.214,0.017-0.391-0.155-0.393-0.384
					c-0.003-0.229,0.169-0.428,0.383-0.445C0.734,18.327,0.91,18.499,0.913,18.728z"/>
				<path class="st35" d="M0.513,19.731c0.003,0.229-0.169,0.428-0.383,0.445c-0.214,0.017-0.391-0.155-0.393-0.384
					c-0.003-0.229,0.169-0.428,0.383-0.445C0.334,19.33,0.51,19.502,0.513,19.731z"/>
				<path class="st35" d="M0.01,20.883c0.003,0.229-0.169,0.428-0.383,0.445c-0.214,0.017-0.391-0.155-0.393-0.384
					c-0.003-0.229,0.169-0.428,0.383-0.445C-0.169,20.482,0.007,20.654,0.01,20.883z"/>
				<path class="st35" d="M0.938,20.669c0.003,0.229-0.169,0.428-0.383,0.445c-0.214,0.017-0.391-0.155-0.393-0.384
					c-0.003-0.229,0.169-0.428,0.383-0.445C0.759,20.269,0.935,20.441,0.938,20.669z"/>
				<path class="st35" d="M0.537,21.672c0.003,0.229-0.169,0.428-0.383,0.445c-0.214,0.017-0.391-0.155-0.393-0.384
					c-0.003-0.229,0.169-0.428,0.383-0.445C0.358,21.271,0.534,21.443,0.537,21.672z"/>
				<path class="st35" d="M0.033,22.737c0.003,0.229-0.169,0.428-0.383,0.444c-0.214,0.017-0.391-0.155-0.393-0.384
					c-0.003-0.229,0.169-0.428,0.383-0.445C-0.146,22.336,0.03,22.508,0.033,22.737z"/>
				<path class="st35" d="M0.961,22.523c0.003,0.229-0.169,0.428-0.383,0.445s-0.391-0.155-0.393-0.384
					c-0.003-0.229,0.169-0.428,0.383-0.445C0.782,22.122,0.958,22.294,0.961,22.523z"/>
				<path class="st35" d="M0.561,23.526c0.003,0.229-0.169,0.428-0.383,0.444c-0.214,0.017-0.391-0.155-0.393-0.384
					c-0.003-0.229,0.169-0.428,0.383-0.445C0.382,23.125,0.558,23.297,0.561,23.526z"/>
			</g>
		</g>
		<g style="clip-path:url(#SVGID_2_);">
			<defs>
				<path id="SVGID_42_" d="M43.848,4.692c1.398,0,2.543,1.147,2.543,2.55v26.517c0,1.402-1.144,2.55-2.543,2.55H4.726
					c-1.398,0-2.543-1.147-2.543-2.55V7.242c0-1.402,1.144-2.55,2.543-2.55H43.848z"/>
			</defs>
			<clipPath id="SVGID_8_">
				<use xlink:href="#SVGID_42_"  style="overflow:visible;"/>
			</clipPath>
			<path style="clip-path:url(#SVGID_8_);fill:#BCBEC0;" d="M46.721,4.419c0,1.021-1.043,1.848-2.331,1.848H2.27
				c-1.287,0-2.331-0.828-2.331-1.848V1.628c0-1.021,1.043-1.848,2.331-1.848h42.12c1.287,0,2.331,0.828,2.331,1.848V4.419z"/>
			<path style="clip-path:url(#SVGID_8_);fill:#BCBEC0;" d="M50.267,39.538c0,1.021-1.043,1.848-2.331,1.848H2.27
				c-1.287,0-2.331-0.828-2.331-1.848v-2.791c0-1.021,1.043-1.848,2.331-1.848h45.666c1.287,0,2.331,0.828,2.331,1.848V39.538z"/>
		</g>
		<polygon style="opacity:0.5;clip-path:url(#SVGID_2_);" points="28.02,32.966 41.778,34.787 41.778,10.274 28.585,9.155 		"/>
		<rect x="14.828" y="8.453" style="clip-path:url(#SVGID_2_);fill:#414042;" width="13.193" height="24.513"/>
		<linearGradient id="SVGID_9_" gradientUnits="userSpaceOnUse" x1="14.8275" y1="20.7097" x2="28.0204" y2="20.7097">
			<stop  offset="0" style="stop-color:#FFFFFF;stop-opacity:0"/>
			<stop  offset="0.0738" style="stop-color:#D8D7D7;stop-opacity:0.0702"/>
			<stop  offset="0.2169" style="stop-color:#A3A1A2;stop-opacity:0.2061"/>
			<stop  offset="0.36" style="stop-color:#797878;stop-opacity:0.342"/>
			<stop  offset="0.4999" style="stop-color:#5A5859;stop-opacity:0.4749"/>
			<stop  offset="0.6359" style="stop-color:#403D3E;stop-opacity:0.6041"/>
			<stop  offset="0.7669" style="stop-color:#282526;stop-opacity:0.7285"/>
			<stop  offset="0.8907" style="stop-color:#0D0C0C;stop-opacity:0.8462"/>
			<stop  offset="1" style="stop-color:#000000;stop-opacity:0.95"/>
		</linearGradient>
		<polygon style="opacity:0.2;clip-path:url(#SVGID_2_);fill:url(#SVGID_9_);" points="28.02,32.966 14.828,32.966 14.828,15.653 
			28.02,8.453 		"/>
		<polygon style="clip-path:url(#SVGID_2_);fill:#E6E7E8;" points="28.585,33.022 41.778,34.141 41.778,9.628 28.585,8.509 		"/>
		<polygon style="clip-path:url(#SVGID_2_);fill:#BCBEC0;" points="28.579,32.966 28.02,32.966 28.02,8.174 28.579,8.229 		"/>
		<polygon style="clip-path:url(#SVGID_2_);fill:#BCBEC0;" points="28.02,32.966 28.579,32.966 28.579,8.229 28.02,8.174 		"/>
		<polygon style="clip-path:url(#SVGID_2_);fill:#BCBEC0;" points="42.336,9.955 42.336,9.396 28.026,8.182 28.026,8.741 		"/>
		<polygon style="clip-path:url(#SVGID_2_);fill:#BCBEC0;" points="28.026,32.975 28.026,32.416 42.336,33.63 42.336,34.189 		"/>
		<path style="opacity:0.5;clip-path:url(#SVGID_2_);" d="M28.287,9.385c0.149,0.025,0.269,0.165,0.269,0.314v0.173l1.657,0.659
			c0.076,0.013,0.138,0.085,0.138,0.161v0.536c0,0.076-0.062,0.127-0.138,0.115l-1.657,0.107v0.173c0,0.149-0.12,0.249-0.269,0.224
			c-0.149-0.025-0.269-0.165-0.269-0.314V9.609C28.018,9.46,28.138,9.36,28.287,9.385z"/>
		<path style="clip-path:url(#SVGID_2_);fill:#A7A9AC;" d="M28.287,9.281c0.149,0.025,0.269,0.165,0.269,0.314v0.173l1.657,0.659
			c0.076,0.013,0.138,0.085,0.138,0.161v0.536c0,0.076-0.062,0.127-0.138,0.115l-1.657,0.107v0.173c0,0.149-0.12,0.249-0.269,0.224
			s-0.269-0.165-0.269-0.314V9.505C28.018,9.357,28.138,9.256,28.287,9.281z"/>
		<path style="opacity:0.5;clip-path:url(#SVGID_2_);" d="M28.287,28.558c0.149,0.025,0.269,0.165,0.269,0.314v0.173l1.657,0.659
			c0.076,0.013,0.138,0.085,0.138,0.161V30.4c0,0.076-0.062,0.127-0.138,0.115l-1.657,0.107v0.173c0,0.149-0.12,0.249-0.269,0.224
			c-0.149-0.025-0.269-0.165-0.269-0.314v-1.924C28.018,28.634,28.138,28.533,28.287,28.558z"/>
		<path style="clip-path:url(#SVGID_2_);fill:#A7A9AC;" d="M28.287,28.455c0.149,0.025,0.269,0.165,0.269,0.314v0.173l1.657,0.659
			c0.076,0.013,0.138,0.085,0.138,0.161v0.536c0,0.076-0.062,0.127-0.138,0.115l-1.657,0.107v0.173c0,0.149-0.12,0.249-0.269,0.224
			s-0.269-0.165-0.269-0.314v-1.924C28.018,28.53,28.138,28.43,28.287,28.455z"/>
		
			<linearGradient id="SVGID_10_" gradientUnits="userSpaceOnUse" x1="40.0326" y1="317.0161" x2="40.0326" y2="348.3614" gradientTransform="matrix(-1 0 0 -1 64.2367 353)">
			<stop  offset="0.4763" style="stop-color:#FFFFFF;stop-opacity:0"/>
			<stop  offset="0.515" style="stop-color:#D8D7D7;stop-opacity:0.0702"/>
			<stop  offset="0.5899" style="stop-color:#A3A1A2;stop-opacity:0.2061"/>
			<stop  offset="0.6649" style="stop-color:#797878;stop-opacity:0.342"/>
			<stop  offset="0.7381" style="stop-color:#5A5859;stop-opacity:0.4749"/>
			<stop  offset="0.8093" style="stop-color:#403D3E;stop-opacity:0.6041"/>
			<stop  offset="0.8779" style="stop-color:#282526;stop-opacity:0.7285"/>
			<stop  offset="0.9428" style="stop-color:#0D0C0C;stop-opacity:0.8462"/>
			<stop  offset="1" style="stop-color:#000000;stop-opacity:0.95"/>
		</linearGradient>
		<path style="opacity:0.1;clip-path:url(#SVGID_2_);fill:url(#SVGID_10_);" d="M4.726,36.308c-1.398,0-2.543-1.147-2.543-2.55
			V7.242c0-1.402,1.144-2.55,2.543-2.55h38.956c1.398,0,2.543,1.147,2.543,2.55v26.517c0,1.402-1.144,2.55-2.543,2.55H4.726z"/>
	</g>
	<ellipse class="st24" cx="20.556" cy="20.5" rx="19.944" ry="20"/>
	<ellipse class="st69" cx="20.444" cy="20.5" rx="19.944" ry="20"/>
</g>
</svg>
