<?xml version="1.0" encoding="utf-8"?>
<!-- Generator: Adobe Illustrator 16.0.0, SVG Export Plug-In . SVG Version: 6.00 Build 0)  -->
<!DOCTYPE svg PUBLIC "-//W3C//DTD SVG 1.1//EN" "http://www.w3.org/Graphics/SVG/1.1/DTD/svg11.dtd">
<svg version="1.1" id="Layer_1" xmlns="http://www.w3.org/2000/svg" xmlns:xlink="http://www.w3.org/1999/xlink" x="0px" y="0px"
	 width="40.32px" height="40.32px" viewBox="0 0 40.32 40.32" style="enable-background:new 0 0 40.32 40.32;" xml:space="preserve"
	>
<g>
	<path style="opacity:0.5;" d="M54.174,29.635c-2.943,0-5.188,0.83-6.666,2.479c-2.467,2.752-2.013,6.942-1.84,8.519
		c0,0.024,0.007,0.052,0.007,0.077c-0.907,1.109-0.88,2.837-0.425,4.098c0.336,0.912,0.876,1.559,1.521,1.847
		c0.619,2.702,2.311,4.782,2.99,5.536c-0.039,0.545-0.151,1.094-0.271,1.317c-2.938,0.563-13.97,5.221-13.97,10.97v0.9h0.902h17.751
		h17.751h0.902v-0.9c0-5.746-11.03-10.406-13.972-10.97c-0.118-0.221-0.233-0.78-0.271-1.317c0.679-0.754,2.368-2.834,2.99-5.536
		c0.645-0.288,1.185-0.935,1.521-1.847c0.454-1.261,0.48-2.988-0.425-4.098c0-0.025,0.008-0.053,0.008-0.077
		c0.173-1.576,0.626-5.767-1.841-8.519C59.359,30.465,57.115,29.635,54.174,29.635L54.174,29.635z"/>
	<linearGradient id="SVGID_1_" gradientUnits="userSpaceOnUse" x1="53.4805" y1="66.293" x2="53.4805" y2="18.2605">
		<stop  offset="0" style="stop-color:#BE1E2D"/>
		<stop  offset="0.4302" style="stop-color:#EF4130"/>
	</linearGradient>
	
		<path style="fill:url(#SVGID_1_);stroke:#8D3038;stroke-width:0.7162;stroke-linecap:round;stroke-linejoin:round;stroke-miterlimit:10;" d="
		M53.48,28.943c-2.944,0-5.188,0.83-6.666,2.479c-2.467,2.751-2.012,6.941-1.84,8.518c0,0.024,0.007,0.052,0.007,0.077
		c-0.907,1.109-0.88,2.837-0.423,4.099c0.334,0.911,0.874,1.559,1.52,1.846c0.62,2.704,2.311,4.784,2.99,5.535
		c-0.039,0.545-0.152,1.097-0.271,1.317c-2.938,0.563-13.97,5.221-13.97,10.97v0.902h0.902H53.48h17.752h0.901v-0.902
		c0-5.746-11.029-10.406-13.972-10.97c-0.118-0.221-0.231-0.777-0.271-1.317c0.68-0.751,2.368-2.831,2.99-5.535
		c0.646-0.287,1.184-0.935,1.52-1.846c0.455-1.262,0.481-2.989-0.423-4.099c0-0.025,0.007-0.053,0.007-0.077
		c0.173-1.576,0.625-5.767-1.842-8.518C58.666,29.773,56.422,28.943,53.48,28.943L53.48,28.943z"/>
</g>
<g>
</g>
<g>
	<g>
		<linearGradient id="SVGID_2_" gradientUnits="userSpaceOnUse" x1="6.8062" y1="32.9102" x2="39.368" y2="0.3483">
			<stop  offset="0" style="stop-color:#009444"/>
			<stop  offset="1" style="stop-color:#8DC63F"/>
		</linearGradient>
		
			<path style="fill:url(#SVGID_2_);stroke:#006838;stroke-width:0.7079;stroke-linecap:round;stroke-linejoin:round;stroke-miterlimit:10;" d="
			M26.257,18.292l-4.81,4.807l-4.83-4.831l4.808-4.808c0.663-0.664,0.663-1.743,0-2.407c-0.667-0.666-1.746-0.666-2.41,0
			l-4.807,4.808l-2.704-2.704l-9.22,9.22c-1.5,1.501-1.5,3.96,0,5.462l9.593,9.592c1.503,1.502,3.96,1.502,5.461,0l9.221-9.221
			l-2.704-2.704l4.808-4.805c0.666-0.666,0.666-1.747,0-2.41C28,17.627,26.921,17.627,26.257,18.292z"/>
		<linearGradient id="SVGID_3_" gradientUnits="userSpaceOnUse" x1="0.2397" y1="39.4795" x2="32.8016" y2="6.9176">
			<stop  offset="0" style="stop-color:#009444"/>
			<stop  offset="1" style="stop-color:#8DC63F"/>
		</linearGradient>
		
			<path style="fill:url(#SVGID_3_);stroke:#006838;stroke-width:0.7079;stroke-linecap:round;stroke-linejoin:round;stroke-miterlimit:10;" d="
			M37.432,11.878l-9.593-9.592c-1.502-1.501-3.961-1.501-5.462,0l-9.218,9.22L28.211,26.56l9.221-9.218
			C38.931,15.838,38.931,13.379,37.432,11.878z"/>
	</g>
	<path style="opacity:0.5;" d="M38.034,12.481l-9.592-9.592c-1.501-1.501-3.961-1.501-5.463,0l-9.218,9.22l2.702,2.702l-1.652,1.652
		l-2.702-2.704l-9.22,9.22c-1.501,1.501-1.501,3.96,0,5.462l9.594,9.592c1.501,1.501,3.958,1.501,5.459,0l9.222-9.221l-2.705-2.704
		l1.65-1.65l2.705,2.703l9.22-9.218C39.534,16.441,39.534,13.981,38.034,12.481z M22.05,23.701l-4.829-4.831l1.65-1.65l4.831,4.83
		L22.05,23.701z"/>
	<g>
		<linearGradient id="SVGID_4_" gradientUnits="userSpaceOnUse" x1="6.8062" y1="32.9102" x2="39.368" y2="0.3483">
			<stop  offset="0" style="stop-color:#009444"/>
			<stop  offset="1" style="stop-color:#8DC63F"/>
		</linearGradient>
		
			<path style="fill:url(#SVGID_4_);stroke:#006838;stroke-width:0.7079;stroke-linecap:round;stroke-linejoin:round;stroke-miterlimit:10;" d="
			M26.257,18.292l-4.81,4.807l-4.83-4.831l4.808-4.808c0.663-0.664,0.663-1.743,0-2.407c-0.667-0.666-1.746-0.666-2.41,0
			l-4.807,4.808l-2.704-2.704l-9.22,9.22c-1.5,1.501-1.5,3.96,0,5.462l9.593,9.592c1.503,1.502,3.96,1.502,5.461,0l9.221-9.221
			l-2.704-2.704l4.808-4.805c0.666-0.666,0.666-1.747,0-2.41C28,17.627,26.921,17.627,26.257,18.292z"/>
		<linearGradient id="SVGID_5_" gradientUnits="userSpaceOnUse" x1="0.2397" y1="39.4795" x2="32.8016" y2="6.9176">
			<stop  offset="0" style="stop-color:#009444"/>
			<stop  offset="1" style="stop-color:#8DC63F"/>
		</linearGradient>
		
			<path style="fill:url(#SVGID_5_);stroke:#006838;stroke-width:0.7079;stroke-linecap:round;stroke-linejoin:round;stroke-miterlimit:10;" d="
			M37.432,11.878l-9.593-9.592c-1.502-1.501-3.961-1.501-5.462,0l-9.218,9.22L28.211,26.56l9.221-9.218
			C38.931,15.838,38.931,13.379,37.432,11.878z"/>
	</g>
</g>
</svg>
