<?xml version="1.0" encoding="utf-8"?>
<!-- Generator: Adobe Illustrator 16.0.0, SVG Export Plug-In . SVG Version: 6.00 Build 0)  -->
<!DOCTYPE svg PUBLIC "-//W3C//DTD SVG 1.1//EN" "http://www.w3.org/Graphics/SVG/1.1/DTD/svg11.dtd">
<svg version="1.1" id="Layer_1" xmlns="http://www.w3.org/2000/svg" xmlns:xlink="http://www.w3.org/1999/xlink" x="0px" y="0px"
	 width="40px" height="40px" viewBox="0 0 40 40" enable-background="new 0 0 40 40" xml:space="preserve">
<g>
	<path opacity="0.5" fill="#231F20" d="M32.8085938,15.2939453l-1.2587891-0.1381836l-0.0058594-3.6333008
		c0-0.7695312-0.1025391-2.0214844-0.2255859-2.7822266l-1.2304688-3.1567383
		c-0.3125-0.7036133-1.1972656-1.387207-1.9179688-1.65625c-3.1591797-1.1787109-8.8579102-1.3764648-12.4223633,0
		c-0.71875,0.2773438-1.6054688,0.9526367-1.9179688,1.65625l-1.2304688,3.1567383
		c-0.1230469,0.7607422-0.2255859,2.0126953-0.2255859,2.7822266c0,0-0.0039062,1.7602539-0.0078125,4.2753906l-1.4667969-0.8100586
		c-0.2451172-0.1362305-0.5654297-0.0576172-0.7255859,0.1699219l-0.2421875,0.3442383
		c-0.1611328,0.2255859-0.0976562,0.5166016,0.1464844,0.6508789l1.8388672,1.0200195
		c-0.1376953,0.0766602-0.3144531,0.1787109-0.5205078,0.3017578c-0.4912109,0.293457-1.1376953,0.6928711-1.7685547,1.1401367
		c-0.1572266,0.1103516-0.3144531,0.2207031-0.4677734,0.3378906c-0.1533203,0.1123047-0.3037109,0.2314453-0.4462891,0.3457031
		c-0.1445312,0.1171875-0.2802734,0.234375-0.4101562,0.3486328c-0.0664062,0.0595703-0.1279297,0.1191406-0.1875,0.1748047
		c-0.0595703,0.0576172-0.1162109,0.1142578-0.171875,0.1699219s-0.1083984,0.1123047-0.1572266,0.1660156
		c-0.0488281,0.0546875-0.0957031,0.1103516-0.1386719,0.1591797c-0.0439453,0.0507812-0.0830078,0.1044922-0.1191406,0.1513672
		c-0.0185547,0.0253906-0.0361328,0.046875-0.0527344,0.0722656c-0.0166016,0.0234375-0.0322266,0.046875-0.046875,0.0673828
		c-0.0292969,0.0449219-0.0546875,0.0810547-0.0761719,0.1191406s-0.0410156,0.0722656-0.0556641,0.0976562
		C7.2680664,20.878418,7.253418,20.9057617,7.253418,20.9057617c-0.0087891,0.0126953-0.015625,0.0273438-0.0214844,0.0400391
		c-0.1699219,0.3637695-0.015625,0.7924805,0.3466797,0.965332c0.3613281,0.1699219,0.7919922,0.0146484,0.9628906-0.3466797
		l0.0205078-0.0429688c0,0,0.0068359-0.0126953,0.0175781-0.0380859c0.0058594-0.0126953,0.0126953-0.0273438,0.0214844-0.0449219
		c0.0078125-0.0185547,0.0234375-0.0419922,0.0361328-0.0654297c0.0058594-0.0146484,0.0146484-0.0273438,0.0234375-0.0429688
		c0.0058594-0.0126953,0.0185547-0.0292969,0.0273438-0.0458984c0.0234375-0.0302734,0.0419922-0.0664062,0.0722656-0.1044922
		c0.0273438-0.0361328,0.0546875-0.0791016,0.0888672-0.1210938c0.0341797-0.0429688,0.0722656-0.0893555,0.1103516-0.1362305
		c0.0410156-0.0458984,0.0859375-0.0976562,0.1298828-0.1484375c0.046875-0.0488281,0.09375-0.1015625,0.1445312-0.1552734
		c0.1044922-0.1083984,0.2167969-0.21875,0.3378906-0.3339844c0.1210938-0.1123047,0.2490234-0.2294922,0.3828125-0.34375
		c0.1337891-0.1191406,0.2744141-0.234375,0.4150391-0.3486328c0.5605469-0.4619141,1.1582031-0.8955078,1.6113281-1.2119141
		c0.1425781-0.1015625,0.2714844-0.1894531,0.3798828-0.2636719c-0.0078125,4.8842773-0.0166016,11.1391602-0.0166016,13.809082
		c0,1.6113281,0.4951172,2.7626953,0.4951172,2.7626953c0.3037109,0.7060547,1.15625,1.4716797,1.8916016,1.7011719
		c0,0,3.6054688,1.109375,7.2250977,1.109375c3.5546875,0,7.2275391-1.1162109,7.2275391-1.1162109
		c0.7382812-0.2226562,1.578125-0.9560547,1.8642578-1.6259766c0.2900391-0.671875,0.5253906-3.4609375,0.5234375-4.2324219
		l-0.0195312-13.9423828l1.2548828,0.1381836c0.2783203,0.0317383,0.4970703-0.1699219,0.4970703-0.4487305v-0.418457
		C33.3037109,15.5742188,33.0869141,15.3237305,32.8085938,15.2939453z"/>
	<path fill="#E2F4FD" d="M13.1606445,10.2983398c0,0-1.3222656,18.8764648-0.3486328,20.8276367
		c0.9755859,1.9492188,0.8369141,3.7607422,5.6416016,4.2470703c4.8061523,0.4892578,11.215332,0.4892578,11.7719727-3.6220703
		c0.5566406-4.109375,0-19.6416016,0-19.6416016S21.9375,2.5668945,13.1606445,10.2983398z"/>
	<linearGradient id="SVGID_1_" gradientUnits="userSpaceOnUse" x1="19.7661133" y1="37.4130859" x2="19.7661114" y2="2.3004112">
		<stop  offset="0" style="stop-color:#23B474"/>
		<stop  offset="1" style="stop-color:#00A89C"/>
	</linearGradient>
	
		<path fill="url(#SVGID_1_)" stroke="#038C84" stroke-width="0.4668362" stroke-linecap="round" stroke-linejoin="round" stroke-miterlimit="10" d="
		M32.3427734,14.8261719l-1.2607422-0.1381836l-0.0039062-3.6308594c-0.0019531-0.7714844-0.1044922-2.0214844-0.2255859-2.7827148
		l-1.2304688-3.1577148c-0.3144531-0.7036133-1.1972656-1.387207-1.9199219-1.6572266
		c-3.15625-1.1777344-8.8569336-1.375-12.4204102,0.0009766c-0.7207031,0.277832-1.6064453,0.9526367-1.9189453,1.65625
		l-1.2314453,3.1577148c-0.1210938,0.7612305-0.2226562,2.0112305-0.2255859,2.7827148c0,0-0.0019531,1.7578125-0.0058594,4.2749023
		l-1.4667969-0.8120117c-0.2441406-0.1362305-0.5654297-0.0551758-0.7265625,0.1699219L9.4633789,15.034668
		c-0.1591797,0.2250977-0.0957031,0.5161133,0.1494141,0.6523438l1.8388672,1.0180664
		c-0.1386719,0.0766602-0.3173828,0.1811523-0.5214844,0.3022461c-0.4902344,0.2929688-1.1386719,0.6948242-1.7705078,1.1396484
		c-0.1572266,0.1103516-0.3144531,0.2226562-0.4677734,0.3378906c-0.1533203,0.1142578-0.3017578,0.2314453-0.4462891,0.3466797
		c-0.1425781,0.1181641-0.2802734,0.2353516-0.4101562,0.3505859c-0.0634766,0.0566406-0.125,0.1162109-0.1875,0.171875
		c-0.0595703,0.0576172-0.1162109,0.1152344-0.171875,0.1699219c-0.0556641,0.0576172-0.1064453,0.1152344-0.1552734,0.1660156
		c-0.0507812,0.0556641-0.0957031,0.1103516-0.140625,0.1611328c-0.0419922,0.0488281-0.0820312,0.1044922-0.1181641,0.1513672
		c-0.0175781,0.0234375-0.0361328,0.0449219-0.0517578,0.0703125c-0.0166016,0.0253906-0.03125,0.046875-0.046875,0.0673828
		c-0.0292969,0.046875-0.0566406,0.0830078-0.078125,0.1191406c-0.0214844,0.0390625-0.0400391,0.0722656-0.0556641,0.0976562
		c-0.0292969,0.0556641-0.0439453,0.0830078-0.0439453,0.0830078c-0.0068359,0.0126953-0.015625,0.0283203-0.0195312,0.0410156
		c-0.171875,0.3613281-0.0166016,0.7924805,0.3447266,0.9624023c0.3613281,0.171875,0.7929688,0.0146484,0.9648438-0.3466797
		l0.0195312-0.0429688c0,0,0.0058594-0.0126953,0.0185547-0.0380859c0.0039062-0.0126953,0.0107422-0.0249023,0.0195312-0.043457
		c0.0078125-0.0195312,0.0234375-0.0410156,0.0380859-0.0664062c0.0058594-0.0126953,0.0126953-0.0253906,0.0214844-0.0419922
		c0.0078125-0.0136719,0.0185547-0.0302734,0.0292969-0.0449219c0.0214844-0.0322266,0.0400391-0.0664062,0.0703125-0.1044922
		c0.0273438-0.0380859,0.0576172-0.0810547,0.0888672-0.1230469c0.0361328-0.0429688,0.0722656-0.0898438,0.1113281-0.1357422
		c0.0419922-0.046875,0.0849609-0.0957031,0.1289062-0.1474609c0.046875-0.0507812,0.09375-0.1035156,0.1474609-0.1572266
		c0.1015625-0.1064453,0.2138672-0.21875,0.3349609-0.3310547c0.1220703-0.1132812,0.2509766-0.2324219,0.3847656-0.3466797
		c0.1318359-0.1171875,0.2724609-0.234375,0.4130859-0.3486328c0.5634766-0.4589844,1.1582031-0.8945312,1.6113281-1.2119141
		c0.1425781-0.0996094,0.2714844-0.1870117,0.3828125-0.2636719c-0.0087891,4.8852539-0.0195312,11.1391602-0.0195312,13.809082
		c0,1.6113281,0.4970703,2.7626953,0.4970703,2.7626953c0.3046875,0.7080078,1.1542969,1.4736328,1.8925781,1.7011719
		c0,0,3.6054688,1.1113281,7.222168,1.1113281c3.5546875,0,7.2304688-1.1181641,7.2304688-1.1181641
		c0.7353516-0.2226562,1.5751953-0.9560547,1.8642578-1.6259766c0.2871094-0.671875,0.5224609-3.4609375,0.5205078-4.2304688
		l-0.0185547-13.9418945l1.2539062,0.1381836c0.2783203,0.0292969,0.4970703-0.1704102,0.4970703-0.4506836v-0.4189453
		C32.8359375,15.1069336,32.6191406,14.855957,32.3427734,14.8261719z M14.9741211,11.0717773
		c0,0,0.9921875-0.5737305,6.5141602-0.5737305c5.5019531,0,6.4882812,0.5717773,6.4882812,0.5717773
		c0.6650391,0.3867188,0.9902344,1.2944336,0.7207031,2.0151367l-1.1582031,3.105957
		c-0.2705078,0.7226562-0.6103516,1.2924805-0.7548828,1.2709961c-0.1464844-0.0253906-1.6347656-0.2675781-2.3320312-0.3720703
		c-0.6972656-0.1040039-3.590332-0.1655273-4.3579102-0.105957c0,0-0.875,0.0019531-1.5810547,0.105957
		c-0.7080078,0.1044922-1.5839844,0.2402344-1.9492188,0.2998047c-0.3662109,0.0639648-0.8847656-0.4760742-1.1542969-1.1987305
		l-1.1582031-3.105957C13.980957,12.3642578,14.3061523,11.4589844,14.9741211,11.0717773z M14.862793,28.4628906
		c0,0.7714844-0.4248047,1.6259766-0.9326172,1.8974609c-0.5058594,0.2744141-0.9335938-0.1318359-0.9335938-0.9013672v-3.5498047
		c0-0.7695312,0.4277344-1.3046875,0.9335938-1.1904297c0.5078125,0.1191406,0.9326172,0.84375,0.9326172,1.6132812V28.4628906z
		 M27.2431641,33.7109375c0,0-1.9873047,0.4804688-5.7548828,0.4804688c-0.0039062,0-0.0078125,0-0.0146484,0
		c-0.0058594,0-0.0107422,0-0.0166016,0c-3.8364258,0-5.7563477-0.4765625-5.7563477-0.4765625
		c-0.7460938-0.1845703-0.9824219-0.7099609-0.5224609-1.1640625c0.4589844-0.4550781,1.4541016-0.7060547,2.2080078-0.5527344
		c0,0,1.2207031,0.2460938,4.1020508,0.2460938c2.7578125,0,4.0712891-0.2548828,4.0712891-0.2548828
		c0.7548828-0.1464844,1.75,0.1064453,2.2089844,0.5615234C28.2294922,33.0048828,27.9912109,33.5283203,27.2431641,33.7109375z
		 M29.9433594,29.4589844c0,0.7695312-0.4277344,1.1757812-0.9335938,0.9013672
		c-0.5078125-0.2714844-0.9355469-1.1259766-0.9355469-1.8974609v-2.1308594c0-0.7695312,0.4277344-1.4941406,0.9355469-1.6132812
		c0.5058594-0.1142578,0.9335938,0.4208984,0.9335938,1.1904297V29.4589844z M29.9433594,20.8842773
		c0,0.7709961-0.4277344,1.5258789-0.9335938,1.6791992c-0.5078125,0.1533203-0.9355469-0.3525391-0.9355469-1.1220703v-0.0683594
		c0-0.769043,0.2617188-1.9760742,0.5722656-2.6821289l0.7207031-1.6113281
		c0.3125-0.7060547,0.5761719-0.652832,0.5761719,0.1191406V20.8842773z"/>
	<ellipse fill="#038C84" cx="15.2587891" cy="4.5810547" rx="0.9946289" ry="0.3891605"/>
	<ellipse fill="#038C84" cx="27.6279297" cy="4.5810547" rx="0.9951172" ry="0.3891602"/>
	<ellipse fill="#FAED24" cx="15.2573242" cy="4.5810547" rx="0.8046875" ry="0.3144546"/>
	<ellipse fill="#FAED24" cx="27.6279297" cy="4.5810547" rx="0.8056641" ry="0.3144531"/>
	<g>
		<path fill="#038C84" d="M14.2695312,5.3359375c0,0,0.2680664,0.0932617,0.6938477,0.15625
			c0.4189453,0.0605469,1.0136719,0.0800781,1.5336914-0.1518555C16.75,5.21875,16.9775391,5.0395508,17.1245117,4.8178711
			c0.0932617-0.097168,0.1230469-0.2290039,0.1835938-0.3344727c0.0634766-0.1064453,0.0722656-0.2265625,0.1049805-0.328125
			c0.0673828-0.2050781,0.0620117-0.3881836,0.078125-0.5126953c0.0112305-0.1254883,0.0180664-0.1972656,0.0180664-0.1972656
			c-0.0009766-0.0146484,0.0102539-0.0268555,0.0253906-0.027832c0.0141602-0.0004883,0.0263672,0.0141602,0.0273438,0.0288086
			c0,0-0.0048828,0.0727539-0.0136719,0.2001953c-0.0136719,0.1269531-0.0043945,0.3125-0.0688477,0.5249023
			c-0.03125,0.1054688-0.0385742,0.2285156-0.1010742,0.3408203c-0.0600586,0.1113281-0.0898438,0.2485352-0.1850586,0.3535156
			c-0.1494141,0.2363281-0.387207,0.4326172-0.652832,0.5668945c-0.5454102,0.2563477-1.1621094,0.246582-1.5947266,0.1943359
			c-0.4370117-0.0546875-0.722168-0.1474609-0.722168-0.1474609c-0.0400391-0.0112305-0.0629883-0.0532227-0.0517578-0.0932617
			c0.0117188-0.0400391,0.0537109-0.0634766,0.09375-0.0517578C14.265625,5.3344727,14.269043,5.3354492,14.2695312,5.3359375z"/>
	</g>
	<g>
		<path fill="#038C84" d="M28.7128906,5.4794922c0,0-0.2841797,0.0927734-0.7216797,0.1474609
			c-0.4326172,0.0522461-1.0488281,0.0620117-1.5947266-0.1943359c-0.265625-0.1342773-0.5029297-0.3305664-0.6523438-0.5668945
			c-0.0947266-0.1049805-0.125-0.2421875-0.1845703-0.3535156c-0.0634766-0.1123047-0.0703125-0.2353516-0.1015625-0.3408203
			c-0.0644531-0.2128906-0.0546875-0.3979492-0.0683594-0.5249023c-0.0087891-0.1274414-0.0136719-0.2001953-0.0136719-0.2001953
			C25.375,3.4316406,25.3857422,3.4189453,25.4003906,3.4179688s0.0273438,0.0131836,0.0283203,0.0273438
			c0,0,0.0068359,0.0717773,0.0175781,0.1972656c0.0166016,0.1245117,0.0107422,0.3076172,0.078125,0.5126953
			c0.0332031,0.1015625,0.0419922,0.2216797,0.1044922,0.328125c0.0605469,0.1054688,0.0908203,0.2373047,0.1835938,0.3344727
			c0.1474609,0.2216797,0.375,0.4008789,0.6279297,0.5224609c0.5195312,0.2319336,1.1142578,0.2124023,1.5332031,0.1518555
			c0.4257812-0.0629883,0.6943359-0.15625,0.6943359-0.15625C28.7070312,5.3222656,28.75,5.3427734,28.7636719,5.3823242
			c0.0136719,0.0390625-0.0068359,0.0825195-0.046875,0.0961914C28.7167969,5.4785156,28.7138672,5.4794922,28.7128906,5.4794922z"
			/>
	</g>
	<g>
		<path opacity="0.5" fill="#434244" enable-background="new    " d="M18.0541992,3.3481445
			c0-0.0864258,0.2255859-0.1533203,0.5019531-0.1533203h5.8725586c0.2763672,0,0.5019531,0.0668945,0.5019531,0.1533203
			l-0.0976562,0.152832c0,0.0849609-0.2236328,0.1606445-0.5019531,0.1606445h-5.7055664
			c-0.2763672,0-0.5009766-0.0756836-0.5009766-0.1606445L18.0541992,3.3481445z"/>
		<path opacity="0.5" fill="#434244" enable-background="new    " d="M18.0541992,3.3129883
			c0-0.0859375,0.2255859-0.1645508,0.5019531-0.1645508h5.8725586c0.2763672,0,0.5019531,0.0786133,0.5019531,0.1645508
			l-0.0976562,0.1464844c0,0.0849609-0.2236328,0.1552734-0.5019531,0.1552734h-5.7055664
			c-0.2763672,0-0.5009766-0.0703125-0.5009766-0.1552734L18.0541992,3.3129883z"/>
	</g>
	<linearGradient id="SVGID_2_" gradientUnits="userSpaceOnUse" x1="11.9213867" y1="16.4521484" x2="11.9213867" y2="16.4521484">
		<stop  offset="0" style="stop-color:#FFFFFF;stop-opacity:0"/>
		<stop  offset="1" style="stop-color:#010101"/>
	</linearGradient>
	<path fill="url(#SVGID_2_)" d="M11.9213867,16.4521484"/>
	<path fill="#04312D" d="M11.6889648,22.8486328h3.2675781c0,0,0-2.9887695,0-4.480957
		c-0.5117188-1.2158203-2.4042969-1.6157227-2.4042969-1.6157227s-0.5185547,0.2700195-0.4423828,0.4677734
		c0.0322266,0.0849609,0.0234375,0.2636719,0.0087891,0.3530273c-0.0273438,0.1679688-0.4589844,0.5478516-0.4589844,0.5478516
		L11.6889648,22.8486328z"/>
</g>
</svg>
