<?xml version="1.0" encoding="utf-8"?>
<!-- Generator: Adobe Illustrator 16.0.0, SVG Export Plug-In . SVG Version: 6.00 Build 0)  -->
<!DOCTYPE svg PUBLIC "-//W3C//DTD SVG 1.1//EN" "http://www.w3.org/Graphics/SVG/1.1/DTD/svg11.dtd">
<svg version="1.1" id="Layer_1" xmlns="http://www.w3.org/2000/svg" xmlns:xlink="http://www.w3.org/1999/xlink" x="0px" y="0px"
	 width="40.32px" height="40.32px" viewBox="0 0 40.32 40.32" style="enable-background:new 0 0 40.32 40.32;" xml:space="preserve"
	>
<g>
	<path style="opacity:0.5;" d="M20.523,2.668c-2.941,0-5.183,0.83-6.66,2.477c-2.465,2.749-2.012,6.936-1.839,8.51
		c0,0.024,0.007,0.052,0.007,0.077c-0.906,1.108-0.88,2.834-0.424,4.094c0.335,0.911,0.875,1.557,1.52,1.845
		c0.619,2.701,2.309,4.779,2.987,5.531c-0.039,0.544-0.151,1.094-0.271,1.315C12.91,27.081,1.887,31.734,1.887,37.479v0.9h0.901
		h17.735h17.735h0.901v-0.9c0-5.741-11.021-10.397-13.96-10.961c-0.117-0.221-0.232-0.777-0.271-1.315
		c0.679-0.752,2.366-2.83,2.987-5.531c0.645-0.288,1.184-0.934,1.52-1.845c0.453-1.26,0.479-2.986-0.424-4.094
		c0-0.025,0.007-0.053,0.007-0.077c0.173-1.575,0.626-5.762-1.839-8.51C25.704,3.498,23.463,2.668,20.523,2.668L20.523,2.668z"/>
	<linearGradient id="SVGID_1_" gradientUnits="userSpaceOnUse" x1="19.7974" y1="39.2588" x2="19.7974" y2="-8.7304">
		<stop  offset="0" style="stop-color:#009444"/>
		<stop  offset="0.4302" style="stop-color:#8DC63F"/>
	</linearGradient>
	
		<path style="fill:url(#SVGID_1_);stroke:#006838;stroke-width:0.7156;stroke-linecap:round;stroke-linejoin:round;stroke-miterlimit:10;" d="
		M19.797,1.942c-2.941,0-5.183,0.829-6.66,2.476c-2.464,2.749-2.011,6.936-1.839,8.511c0,0.024,0.007,0.051,0.007,0.077
		c-0.906,1.109-0.88,2.835-0.424,4.095c0.335,0.911,0.875,1.557,1.52,1.845c0.618,2.701,2.309,4.779,2.987,5.531
		c-0.038,0.544-0.151,1.094-0.271,1.315C12.183,26.354,1.16,31.008,1.16,36.752v0.9h0.901h17.735h17.735h0.901v-0.9
		c0-5.741-11.021-10.397-13.959-10.961c-0.118-0.22-0.233-0.777-0.271-1.315c0.679-0.752,2.366-2.83,2.987-5.531
		c0.645-0.288,1.185-0.934,1.52-1.845c0.453-1.26,0.479-2.986-0.424-4.095c0-0.025,0.007-0.053,0.007-0.077
		c0.173-1.575,0.626-5.762-1.839-8.511C24.978,2.771,22.736,1.942,19.797,1.942L19.797,1.942z"/>
</g>
</svg>
