<?xml version="1.0" encoding="utf-8"?>
<!-- Generator: Adobe Illustrator 16.0.0, SVG Export Plug-In . SVG Version: 6.00 Build 0)  -->
<!DOCTYPE svg PUBLIC "-//W3C//DTD SVG 1.1//EN" "http://www.w3.org/Graphics/SVG/1.1/DTD/svg11.dtd">
<svg version="1.1" id="Layer_1" xmlns="http://www.w3.org/2000/svg" xmlns:xlink="http://www.w3.org/1999/xlink" x="0px" y="0px"
	 width="40.32px" height="40.32px" viewBox="0 0 40.32 40.32" style="enable-background:new 0 0 40.32 40.32;" xml:space="preserve"
	>
<g>
	<path style="opacity:0.5;" d="M20.507,2.635c-2.944,0-5.188,0.83-6.666,2.479c-2.467,2.751-2.013,6.942-1.84,8.518
		c0,0.024,0.007,0.052,0.007,0.077c-0.907,1.11-0.88,2.837-0.424,4.099c0.336,0.912,0.875,1.558,1.521,1.846
		c0.619,2.702,2.311,4.782,2.99,5.536c-0.039,0.545-0.151,1.094-0.271,1.317c-2.937,0.563-13.97,5.221-13.97,10.97v0.9h0.902h17.751
		h17.751h0.902v-0.9c0-5.746-11.03-10.406-13.972-10.97c-0.118-0.221-0.233-0.78-0.271-1.317c0.679-0.754,2.368-2.834,2.99-5.536
		c0.645-0.288,1.185-0.935,1.521-1.846c0.454-1.261,0.48-2.989-0.425-4.099c0-0.025,0.008-0.053,0.008-0.077
		c0.173-1.576,0.626-5.767-1.841-8.518C25.692,3.465,23.448,2.635,20.507,2.635L20.507,2.635z"/>
	<linearGradient id="SVGID_1_" gradientUnits="userSpaceOnUse" x1="19.814" y1="39.293" x2="19.814" y2="-8.7395">
		<stop  offset="0" style="stop-color:#BE1E2D"/>
		<stop  offset="0.4302" style="stop-color:#EF4130"/>
	</linearGradient>
	
		<path style="fill:url(#SVGID_1_);stroke:#8D3038;stroke-width:0.7162;stroke-linecap:round;stroke-linejoin:round;stroke-miterlimit:10;" d="
		M19.813,1.943c-2.944,0-5.188,0.831-6.666,2.479c-2.467,2.751-2.012,6.941-1.84,8.518c0,0.024,0.007,0.052,0.007,0.077
		c-0.907,1.109-0.88,2.837-0.423,4.098c0.334,0.912,0.875,1.559,1.52,1.846c0.62,2.704,2.311,4.784,2.99,5.535
		c-0.039,0.545-0.151,1.097-0.271,1.317c-2.937,0.563-13.97,5.221-13.97,10.97v0.902h0.902h17.751h17.752h0.901v-0.902
		c0-5.746-11.029-10.406-13.972-10.97c-0.118-0.221-0.231-0.777-0.271-1.317c0.68-0.751,2.368-2.831,2.99-5.535
		c0.646-0.288,1.184-0.935,1.52-1.846c0.455-1.261,0.481-2.989-0.423-4.098c0-0.025,0.007-0.053,0.007-0.077
		c0.173-1.576,0.625-5.767-1.842-8.518C24.999,2.773,22.755,1.943,19.813,1.943L19.813,1.943z"/>
</g>
</svg>
