<?xml version="1.0" encoding="utf-8"?>
<!-- Generator: Adobe Illustrator 16.0.0, SVG Export Plug-In . SVG Version: 6.00 Build 0)  -->
<!DOCTYPE svg PUBLIC "-//W3C//DTD SVG 1.1//EN" "http://www.w3.org/Graphics/SVG/1.1/DTD/svg11.dtd">
<svg version="1.1" id="Layer_1" xmlns="http://www.w3.org/2000/svg" xmlns:xlink="http://www.w3.org/1999/xlink" x="0px" y="0px"
	 width="40px" height="40px" viewBox="0 0 40 40" enable-background="new 0 0 40 40" xml:space="preserve">
<g>
	<path fill="#414042" d="M19.9375,1.5395508c-3.1723633,0-5.7456055,2.5722656-5.7456055,5.7456055
		c0,3.1743164,2.5732422,5.7470703,5.7456055,5.7470703c3.1738281,0,5.7470703-2.5727539,5.7470703-5.7470703
		C25.6845703,4.1118164,23.1113281,1.5395508,19.9375,1.5395508z M19.9375,12.0683594
		c-2.6401367,0-4.7822266-2.1416016-4.7822266-4.7832031c0-2.6411133,2.1420898-4.7827148,4.7822266-4.7827148
		c2.6425781,0,4.7832031,2.1416016,4.7832031,4.7827148C24.7207031,9.9267578,22.5800781,12.0683594,19.9375,12.0683594z"/>
	<g>
		
			<rect x="8.0453291" y="11.2490387" transform="matrix(-0.7072229 0.7069906 -0.7069906 -0.7072229 24.7060814 15.7326508)" fill="#58595B" width="2.1002591" height="3.4657898"/>
		<linearGradient id="SVGID_1_" gradientUnits="userSpaceOnUse" x1="7.1269531" y1="12.9819336" x2="11.0634766" y2="12.9819336">
			<stop  offset="0" style="stop-color:#000000"/>
			<stop  offset="1" style="stop-color:#F1F2F2"/>
		</linearGradient>
		<polygon opacity="0.5" fill="url(#SVGID_1_)" points="9.578125,14.949707 11.0634766,13.4648438 8.612793,11.0141602 
			7.1269531,12.4990234 		"/>
		<path fill="#58595B" d="M5.7402344,13.9331055c0.1816406,0.1831055,0.4770508,0.1831055,0.6586914,0l3.6479492-3.6479492
			c0.1821289-0.1821289,0.1821289-0.4760742,0-0.6586914L9.4433594,9.0229492c-0.1816406-0.1816406-0.4770508-0.1816406-0.6591797,0
			L5.1362305,12.671875c-0.1816406,0.1816406-0.1816406,0.4760742,0,0.6591797L5.7402344,13.9331055z"/>
		<linearGradient id="SVGID_2_" gradientUnits="userSpaceOnUse" x1="8.5751953" y1="12.4619141" x2="6.8136358" y2="10.7003546">
			<stop  offset="0" style="stop-color:#000000"/>
			<stop  offset="1" style="stop-color:#F1F2F2"/>
		</linearGradient>
		<path opacity="0.5" fill="url(#SVGID_2_)" d="M5.7402344,13.9331055c0.1816406,0.1831055,0.4770508,0.1831055,0.6586914,0
			l3.6479492-3.6479492c0.1821289-0.1821289,0.1821289-0.4760742,0-0.6586914L9.4433594,9.0229492
			c-0.1816406-0.1816406-0.4770508-0.1816406-0.6591797,0L5.1362305,12.671875
			c-0.1816406,0.1816406-0.1816406,0.4760742,0,0.6591797L5.7402344,13.9331055z"/>
	</g>
	<g>
		<rect x="18.8271484" y="6.6376953" fill="#58595B" width="2.1000977" height="3.465332"/>
		
			<linearGradient id="SVGID_3_" gradientUnits="userSpaceOnUse" x1="120.5996094" y1="-55.6166992" x2="124.5351562" y2="-55.6166992" gradientTransform="matrix(0.7071 0.7071 -0.7071 0.7071 -106.1173401 -38.9701233)">
			<stop  offset="0" style="stop-color:#000000"/>
			<stop  offset="1" style="stop-color:#F1F2F2"/>
		</linearGradient>
		<rect x="18.8271484" y="6.6376953" opacity="0.5" fill="url(#SVGID_3_)" width="2.1000977" height="3.465332"/>
		<path fill="#58595B" d="M16.8320312,6.6713867c0,0.2563477,0.2089844,0.4658203,0.4667969,0.4658203h5.1582031
			c0.2568359,0,0.4667969-0.2094727,0.4667969-0.4658203V5.8173828c0-0.2573242-0.2099609-0.4658203-0.4667969-0.4658203h-5.1591797
			c-0.2568359,0-0.4658203,0.2084961-0.4658203,0.4658203V6.6713867z"/>
		
			<linearGradient id="SVGID_4_" gradientUnits="userSpaceOnUse" x1="122.0498047" y1="-56.1362305" x2="120.2872849" y2="-57.8987541" gradientTransform="matrix(0.7071 0.7071 -0.7071 0.7071 -106.1173401 -38.9701233)">
			<stop  offset="0" style="stop-color:#000000"/>
			<stop  offset="1" style="stop-color:#F1F2F2"/>
		</linearGradient>
		<path opacity="0.5" fill="url(#SVGID_4_)" d="M16.8320312,6.6713867c0,0.2563477,0.2089844,0.4658203,0.4667969,0.4658203
			h5.1582031c0.2568359,0,0.4667969-0.2094727,0.4667969-0.4658203V5.8173828c0-0.2573242-0.2099609-0.4658203-0.4667969-0.4658203
			h-5.1591797c-0.2568359,0-0.4658203,0.2084961-0.4658203,0.4658203V6.6713867z"/>
	</g>
	<circle opacity="0.5" cx="20.6062012" cy="24.0644531" r="14.3937988"/>
	<linearGradient id="SVGID_5_" gradientUnits="userSpaceOnUse" x1="20.2900391" y1="37.75" x2="20.2900372" y2="9.967062">
		<stop  offset="0" style="stop-color:#D1D3D4"/>
		<stop  offset="1" style="stop-color:#F1F2F2"/>
	</linearGradient>
	<circle fill="url(#SVGID_5_)" cx="20.2897949" cy="23.7490234" r="13.9172363"/>
	
		<radialGradient id="SVGID_6_" cx="20.3681641" cy="24.7675781" r="17.703125" gradientTransform="matrix(0.7861776 0 0 0.7861777 4.2775879 4.2769775)" gradientUnits="userSpaceOnUse">
		<stop  offset="0.734432" style="stop-color:#F1F2F2"/>
		<stop  offset="0.8344184" style="stop-color:#EFF0F1"/>
		<stop  offset="0.8704394" style="stop-color:#EAEBEB"/>
		<stop  offset="0.8961112" style="stop-color:#E0E1E2"/>
		<stop  offset="0.9168802" style="stop-color:#D2D3D5"/>
		<stop  offset="0.9346784" style="stop-color:#C0C1C4"/>
		<stop  offset="0.9504219" style="stop-color:#A9ABAE"/>
		<stop  offset="0.9646818" style="stop-color:#909295"/>
		<stop  offset="0.9777755" style="stop-color:#747678"/>
		<stop  offset="0.9894216" style="stop-color:#525355"/>
		<stop  offset="1" style="stop-color:#000000"/>
	</radialGradient>
	<circle opacity="0.5" fill="url(#SVGID_6_)" cx="20.2897949" cy="23.7490234" r="13.9172363"/>
	<circle fill="#ED1C24" cx="20.2888184" cy="23.7490234" r="1.295166"/>
	<path fill="#ED1C24" d="M30.8701172,24.0917969c0,0.0234375-0.0029297,0.046875-0.0029297,0.0742188h3.2460938
		c0-0.0273438,0.0039062-0.0507812,0.0039062-0.0742188c0-7.9570312-6.3691406-14.4106445-14.2402344-14.4492188v3.2768555
		C25.9550781,12.9594727,30.8701172,17.9443359,30.8701172,24.0917969z"/>
	
		<circle fill="none" stroke="#414042" stroke-width="0.907375" stroke-miterlimit="10" cx="20.2897949" cy="23.7490234" r="13.9172363"/>
	<path opacity="0.8" d="M30.9404297,24.5175781l-10.581543,0.5615234c-0.7275391,0.0380859-1.3457031-0.5185547-1.3857422-1.2451172
		c-0.0366211-0.7265625,0.5195312-1.3447266,1.2451172-1.3828125c0.0732422-0.0048828,0.152832,0,0.2236328,0.0058594
		L30.9648438,23.6875c0.2285156,0.0263672,0.3925781,0.234375,0.3662109,0.4628906
		C31.3095703,24.3554688,31.1386719,24.5078125,30.9404297,24.5175781z"/>
	<path d="M30.9453125,24.3730469l-10.5732422,0.6884766c-0.7246094,0.046875-1.3496094-0.5019531-1.3989258-1.2275391
		c-0.0458984-0.7246094,0.503418-1.3515625,1.2290039-1.3984375c0.0722656-0.0048828,0.1513672-0.0019531,0.2226562,0.0039062
		l10.5390625,1.1015625c0.2294922,0.0234375,0.3935547,0.2304688,0.3701172,0.4599609
		C31.3144531,24.2070312,31.1464844,24.3613281,30.9453125,24.3730469z"/>
</g>
</svg>
