<?xml version="1.0" encoding="utf-8"?>
<!-- Generator: Adobe Illustrator 16.0.0, SVG Export Plug-In . SVG Version: 6.00 Build 0)  -->
<!DOCTYPE svg PUBLIC "-//W3C//DTD SVG 1.1//EN" "http://www.w3.org/Graphics/SVG/1.1/DTD/svg11.dtd">
<svg version="1.1" id="Layer_1" xmlns="http://www.w3.org/2000/svg" xmlns:xlink="http://www.w3.org/1999/xlink" x="0px" y="0px"
	 width="40.32px" height="40.32px" viewBox="0 0 40.32 40.32" style="enable-background:new 0 0 40.32 40.32;" xml:space="preserve"
	>
<g>
	<path style="opacity:0.5;" d="M54.174,29.635c-2.943,0-5.188,0.83-6.666,2.479c-2.467,2.752-2.013,6.942-1.84,8.519
		c0,0.024,0.007,0.052,0.007,0.077c-0.907,1.109-0.88,2.837-0.425,4.098c0.336,0.912,0.876,1.559,1.521,1.847
		c0.619,2.702,2.311,4.782,2.99,5.536c-0.039,0.545-0.151,1.094-0.271,1.317c-2.938,0.563-13.97,5.221-13.97,10.97v0.9h0.902h17.751
		h17.751h0.902v-0.9c0-5.746-11.03-10.406-13.972-10.97c-0.118-0.221-0.233-0.78-0.271-1.317c0.679-0.754,2.368-2.834,2.99-5.536
		c0.645-0.288,1.185-0.935,1.521-1.847c0.454-1.261,0.48-2.988-0.425-4.098c0-0.025,0.008-0.053,0.008-0.077
		c0.173-1.576,0.626-5.767-1.841-8.519C59.359,30.465,57.115,29.635,54.174,29.635L54.174,29.635z"/>
	<linearGradient id="SVGID_1_" gradientUnits="userSpaceOnUse" x1="53.4805" y1="66.293" x2="53.4805" y2="18.2605">
		<stop  offset="0" style="stop-color:#BE1E2D"/>
		<stop  offset="0.4302" style="stop-color:#EF4130"/>
	</linearGradient>
	
		<path style="fill:url(#SVGID_1_);stroke:#8D3038;stroke-width:0.7162;stroke-linecap:round;stroke-linejoin:round;stroke-miterlimit:10;" d="
		M53.48,28.943c-2.944,0-5.188,0.83-6.666,2.479c-2.467,2.751-2.012,6.941-1.84,8.518c0,0.024,0.007,0.052,0.007,0.077
		c-0.907,1.109-0.88,2.837-0.423,4.099c0.334,0.911,0.874,1.559,1.52,1.846c0.62,2.704,2.311,4.784,2.99,5.535
		c-0.039,0.545-0.152,1.097-0.271,1.317c-2.938,0.563-13.97,5.221-13.97,10.97v0.902h0.902H53.48h17.752h0.901v-0.902
		c0-5.746-11.029-10.406-13.972-10.97c-0.118-0.221-0.231-0.777-0.271-1.317c0.68-0.751,2.368-2.831,2.99-5.535
		c0.646-0.287,1.184-0.935,1.52-1.846c0.455-1.262,0.481-2.989-0.423-4.099c0-0.025,0.007-0.053,0.007-0.077
		c0.173-1.576,0.625-5.767-1.842-8.518C58.666,29.773,56.422,28.943,53.48,28.943L53.48,28.943z"/>
</g>
<g>
	<circle style="opacity:0.5;" cx="20.16" cy="20.179" r="19"/>
	<linearGradient id="SVGID_2_" gradientUnits="userSpaceOnUse" x1="19.7407" y1="38.2412" x2="19.7407" y2="1.5693">
		<stop  offset="0" style="stop-color:#D1D3D4"/>
		<stop  offset="1" style="stop-color:#F1F2F2"/>
	</linearGradient>
	<circle style="fill:url(#SVGID_2_);" cx="19.74" cy="19.759" r="18.371"/>
	<circle style="fill:#ED1C24;" cx="19.741" cy="19.759" r="1.709"/>
	<path style="opacity:0.5;fill:#ED1C24;" d="M33.437,23.104l-13.885-1.697c-0.951-0.117-1.628-0.982-1.513-1.936
		c0.118-0.952,0.982-1.628,1.934-1.512c0.096,0.013,0.199,0.035,0.289,0.06l13.402,4.009c0.29,0.088,0.455,0.396,0.368,0.686
		C33.955,22.979,33.699,23.137,33.437,23.104z"/>
	<path style="opacity:0.5;fill:#ED1C24;" d="M33.303,23.634l-13.818-2.175c-0.946-0.15-1.595-1.037-1.447-1.985
		c0.151-0.948,1.039-1.594,1.985-1.445c0.095,0.017,0.198,0.041,0.288,0.07l13.255,4.466c0.287,0.099,0.442,0.412,0.344,0.699
		C33.824,23.526,33.563,23.675,33.303,23.634z"/>
	<linearGradient id="SVGID_3_" gradientUnits="userSpaceOnUse" x1="38.6943" y1="19.1724" x2="19.8216" y2="0.1562">
		<stop  offset="0.2667" style="stop-color:#ED1C24"/>
		<stop  offset="0.3141" style="stop-color:#ED2424"/>
		<stop  offset="0.3634" style="stop-color:#ED3725"/>
		<stop  offset="0.4134" style="stop-color:#EE4D25"/>
		<stop  offset="0.4641" style="stop-color:#EE6726"/>
		<stop  offset="0.5151" style="stop-color:#F08228"/>
		<stop  offset="0.5666" style="stop-color:#F2A22C"/>
		<stop  offset="0.6174" style="stop-color:#F5C730"/>
		<stop  offset="0.6487" style="stop-color:#F8E032"/>
		<stop  offset="1" style="stop-color:#FFFFFF"/>
	</linearGradient>
	<path style="opacity:0.5;fill:url(#SVGID_3_);" d="M33.709,20.214c0,0.032-0.004,0.064-0.005,0.097h4.284
		c0-0.033,0.006-0.065,0.006-0.097c0-10.504-8.408-19.021-18.798-19.074v4.327C27.22,5.519,33.709,12.099,33.709,20.214z"/>
	<path style="opacity:0.5;fill:#ED1C24;" d="M32.898,24.895L19.31,21.576c-0.93-0.229-1.5-1.167-1.276-2.1
		c0.23-0.933,1.17-1.502,2.099-1.276c0.095,0.024,0.196,0.058,0.281,0.095l12.836,5.556c0.278,0.12,0.407,0.446,0.286,0.725
		C33.428,24.828,33.156,24.957,32.898,24.895z"/>
	<path style="opacity:0.5;fill:#ED1C24;" d="M32.703,25.403l-13.466-3.785c-0.922-0.26-1.461-1.217-1.204-2.141
		c0.261-0.924,1.219-1.46,2.141-1.203c0.093,0.028,0.191,0.065,0.277,0.103l12.638,5.996c0.274,0.13,0.391,0.46,0.26,0.733
		C33.233,25.357,32.957,25.475,32.703,25.403z"/>
	<g>
		<defs>
			<circle id="SVGID_17_" cx="19.74" cy="19.759" r="18.371"/>
		</defs>
		<clipPath id="SVGID_4_">
			<use xlink:href="#SVGID_17_"  style="overflow:visible;"/>
		</clipPath>
		<path style="clip-path:url(#SVGID_4_);fill:#EF4136;" d="M27.145,0.771c-0.283-0.111-0.601,0.031-0.711,0.313l-2.15,5.523
			c0.348,0.12,0.691,0.247,1.025,0.393l2.148-5.519C27.567,1.199,27.426,0.88,27.145,0.771z M37.033,2.459
			c-0.216-0.213-0.563-0.213-0.777,0L29.175,9.54c0.271,0.249,0.528,0.506,0.777,0.775l7.081-7.079
			C37.247,3.021,37.247,2.674,37.033,2.459z M42.631,11.147c-0.106-0.285-0.425-0.428-0.707-0.322l-9.354,3.514
			c0.143,0.335,0.262,0.683,0.378,1.032l9.361-3.516C42.594,11.748,42.737,11.43,42.631,11.147z M19.741-0.642
			c-0.303,0-0.549,0.245-0.549,0.549v5.954c0.184-0.007,0.364-0.028,0.549-0.028s0.367,0.021,0.549,0.028v-5.954
			C20.29-0.396,20.044-0.642,19.741-0.642z M43.635,19.21h-9.997c0.007,0.184,0.027,0.364,0.027,0.549s-0.021,0.366-0.027,0.549
			h9.997c0.303,0,0.549-0.245,0.549-0.549C44.184,19.456,43.938,19.21,43.635,19.21z M-4.153,19.21
			c-0.304,0-0.549,0.246-0.549,0.549c0,0.304,0.246,0.549,0.549,0.549h9.998c-0.009-0.184-0.029-0.364-0.029-0.549
			s0.02-0.365,0.029-0.549H-4.153z M-3.033,10.92c-0.11,0.282,0.031,0.601,0.313,0.71l9.3,3.618
			c0.118-0.348,0.243-0.692,0.388-1.027l-9.289-3.615C-2.604,10.495-2.924,10.636-3.033,10.92z M5.322,5.318
			c-0.214,0.213-0.214,0.561,0,0.775l4.215,4.214c0.249-0.269,0.507-0.527,0.777-0.775L6.1,5.318
			C5.884,5.103,5.537,5.103,5.322,5.318z M12.573,0.645c-0.283,0.107-0.427,0.424-0.32,0.708l2.09,5.568
			c0.338-0.142,0.684-0.263,1.033-0.377l-2.094-5.577C13.174,0.682,12.857,0.541,12.573,0.645z"/>
	</g>
	<circle style="fill:none;stroke:#414042;stroke-width:1.0986;stroke-miterlimit:10;" cx="19.74" cy="19.759" r="18.371"/>
	<g style="opacity:0.8;">
		<path d="M17.237,25.551c0.018,0.031,0.004,0.052-0.031,0.052h-0.497c-0.028,0-0.042-0.012-0.056-0.032l-0.188-0.371
			c-0.068-0.128-0.142-0.219-0.301-0.219h-0.028v0.577c0,0.028-0.018,0.045-0.045,0.045H15.63c-0.028,0-0.045-0.017-0.045-0.045
			v-2.437c0-0.027,0.018-0.045,0.045-0.045h0.461c0.028,0,0.045,0.018,0.045,0.045v1.377h0.03c0.15,0,0.213-0.113,0.278-0.239
			l0.171-0.328c0.012-0.022,0.028-0.032,0.056-0.032h0.496c0.034,0,0.048,0.021,0.03,0.053l-0.277,0.541
			c-0.062,0.117-0.146,0.184-0.253,0.225c-0.01,0.004-0.014,0.021,0,0.028c0.108,0.048,0.219,0.121,0.275,0.232L17.237,25.551z"/>
		<path d="M17.947,24.003c0.034,0.052,0.056,0.048,0.111,0c0.135-0.111,0.28-0.143,0.38-0.143c0.146,0,0.309,0.053,0.42,0.156
			c0.066,0.059,0.105,0.041,0.163-0.003c0.163-0.132,0.296-0.153,0.396-0.153c0.417,0,0.646,0.235,0.646,0.643v1.055
			c0,0.028-0.017,0.045-0.045,0.045H19.56c-0.028,0-0.045-0.017-0.045-0.045v-0.986c0-0.142-0.051-0.222-0.185-0.222
			c-0.159,0-0.247,0.123-0.247,0.354v0.854c0,0.028-0.017,0.045-0.044,0.045h-0.458c-0.028,0-0.045-0.017-0.045-0.045v-0.992
			c0-0.136-0.059-0.216-0.184-0.216c-0.167,0-0.243,0.123-0.243,0.354v0.854c0,0.028-0.017,0.045-0.044,0.045h-0.462
			c-0.028,0-0.045-0.017-0.045-0.045v-1.614c0-0.027,0.017-0.045,0.045-0.045h0.246c0.025,0,0.042,0.01,0.053,0.032L17.947,24.003z"
			/>
		<path d="M21.999,22.943c0.035,0,0.049,0.021,0.035,0.054l-1.131,2.921c-0.011,0.023-0.025,0.035-0.052,0.035h-0.427
			c-0.035,0-0.049-0.021-0.035-0.052l1.127-2.923c0.01-0.024,0.024-0.035,0.052-0.035H21.999z"/>
		<path d="M22.928,23.5c0,0.186-0.024,0.305-0.086,0.438c-0.021,0.041,0,0.079,0.059,0.044c0.113-0.08,0.235-0.121,0.374-0.121
			c0.409,0,0.66,0.235,0.66,0.643v1.055c0,0.028-0.018,0.045-0.046,0.045h-0.461c-0.029,0-0.046-0.017-0.046-0.045v-0.986
			c0-0.142-0.073-0.222-0.193-0.222c-0.161,0-0.257,0.117-0.261,0.354v0.854c0,0.028-0.018,0.045-0.046,0.045h-0.461
			c-0.027,0-0.045-0.017-0.045-0.045v-2.437c0-0.027,0.018-0.045,0.045-0.045h0.461c0.028,0,0.046,0.018,0.046,0.045V23.5z"/>
	</g>
	<path style="opacity:0.8;" d="M33.133,24.207l-13.725-2.694c-0.942-0.186-1.554-1.098-1.371-2.039
		c0.187-0.942,1.098-1.555,2.039-1.369c0.096,0.019,0.197,0.05,0.284,0.081l13.076,4.968c0.283,0.107,0.428,0.426,0.317,0.711
		C33.658,24.12,33.393,24.261,33.133,24.207z"/>
	<path style="fill:#D71920;" d="M33.188,24.025l-13.757-2.529c-0.943-0.176-1.566-1.078-1.395-2.022
		c0.174-0.944,1.08-1.568,2.023-1.394c0.094,0.017,0.195,0.046,0.284,0.077l13.135,4.81c0.285,0.104,0.431,0.422,0.326,0.707
		C33.713,23.931,33.448,24.073,33.188,24.025z"/>
</g>
</svg>
