<?xml version="1.0" encoding="utf-8"?>
<!-- Generator: Adobe Illustrator 16.0.0, SVG Export Plug-In . SVG Version: 6.00 Build 0)  -->
<!DOCTYPE svg PUBLIC "-//W3C//DTD SVG 1.1//EN" "http://www.w3.org/Graphics/SVG/1.1/DTD/svg11.dtd">
<svg version="1.1" id="Layer_1" xmlns="http://www.w3.org/2000/svg" xmlns:xlink="http://www.w3.org/1999/xlink" x="0px" y="0px"
	 width="40px" height="40px" viewBox="0 0 40 40" enable-background="new 0 0 40 40" xml:space="preserve">
<g>
	<rect x="4.9160156" y="12.6660156" opacity="0.5" fill="#231F20" width="30.5341797" height="24.8339844"/>
	<rect x="4.5498047" y="12.2998047" fill="#E5AA38" width="30.5341797" height="24.8339844"/>
	<linearGradient id="SVGID_1_" gradientUnits="userSpaceOnUse" x1="19.8168945" y1="9.8891602" x2="19.8168926" y2="41.8158569">
		<stop  offset="0" style="stop-color:#FFFFFF"/>
		<stop  offset="1" style="stop-color:#000000"/>
	</linearGradient>
	<rect x="4.5498047" y="12.2998047" opacity="0.5" fill="url(#SVGID_1_)" width="30.5341797" height="24.8339844"/>
	<g>
		<defs>
			<rect id="SVGID_240_" x="4.5498047" y="12.2998047" width="30.5341797" height="24.8339844"/>
		</defs>
		<clipPath id="SVGID_2_">
			<use xlink:href="#SVGID_240_"  overflow="visible"/>
		</clipPath>
		
			<rect x="16.9677734" y="10.9570313" opacity="0.8" clip-path="url(#SVGID_2_)" fill="#412312" width="5.6992188" height="28.171875"/>
		
			<line clip-path="url(#SVGID_2_)" fill="none" stroke="#412312" stroke-width="0.2035577" stroke-linecap="round" stroke-linejoin="round" stroke-miterlimit="10" x1="19.796875" y1="10.0605469" x2="19.796875" y2="40.5136719"/>
	</g>
	<g opacity="0.8">
		<path fill="#010101" d="M31.71875,33.6328125h2.4951172c0.0751953,0,0.1416016,0.0332031,0.1914063,0.0830078v0.0009766
			l-0.0058594,0.0009766c0.0488281,0.0498047,0.0742188,0.1181641,0.0742188,0.1914063v2.4951172
			c0,0.0751953-0.0253906,0.1425781-0.0742188,0.1914063l0.0029297,0.0058594
			c-0.0488281,0.0488281-0.1132813,0.0849609-0.1884766,0.0849609H31.71875c-0.0742188,0-0.1416016-0.0361328-0.1904297-0.0849609
			l0.0048828-0.0029297c-0.0478516-0.0488281-0.0722656-0.1191406-0.0722656-0.1943359v-2.4951172
			c0-0.0732422,0.0244141-0.1416016,0.0722656-0.1904297H31.53125l-0.0019531-0.0029297
			C31.5791016,33.6660156,31.6445313,33.6328125,31.71875,33.6328125L31.71875,33.6328125z M34.2138672,33.7548828H31.71875
			c-0.0390625,0-0.0742188,0.0224609-0.0996094,0.0478516l0.0019531,0.0039063
			c-0.0253906,0.0253906-0.0390625,0.0644531-0.0390625,0.1025391v2.4951172c0,0.0390625,0,0.0751953,0.0410156,0.1005859l0,0
			c0.0410156,0.0253906,0.0566406,0.0595703,0.0957031,0.0595703h2.4951172c0.0390625,0,0.0556641-0.0341797,0.0966797-0.0595703
			l0,0c0.0400391-0.0253906,0.0400391-0.0615234,0.0400391-0.1005859v-2.4951172
			c0-0.0380859-0.0136719-0.0742188-0.0390625-0.0996094L34.3125,33.8027344
			C34.2871094,33.7773438,34.2529297,33.7548828,34.2138672,33.7548828L34.2138672,33.7548828z"/>
		<polygon fill-rule="evenodd" clip-rule="evenodd" fill="#010101" points="33.984375,35.7910156 33.984375,36.2382813 
			31.9482422,36.2382813 31.9482422,35.7910156 32.3154297,35.7910156 32.3154297,34.8544922 32.0527344,34.8544922 
			32.2734375,34.4648438 32.4951172,34.0771484 32.7158203,34.4658203 32.9375,34.8544922 32.6816406,34.8544922 
			32.6816406,35.7910156 33.2519531,35.7910156 33.2519531,34.8544922 32.9960938,34.8544922 33.2167969,34.4648438 
			33.4384766,34.0771484 33.6601563,34.4658203 33.8808594,34.8544922 33.6181641,34.8544922 33.6181641,35.7910156 
			33.984375,35.7910156 		"/>
	</g>
	<g opacity="0.8">
		<path fill="#010101" d="M31.71875,27.0380859h2.4951172c0.0751953,0,0.1425781,0.0253906,0.1914063,0.0742188
			l-0.0058594-0.0019531c0.0488281,0.0488281,0.0742188,0.1142578,0.0742188,0.1884766v2.4951172
			c0,0.0751953-0.0253906,0.1347656-0.0742188,0.1845703c-0.0488281,0.0488281-0.1103516,0.0722656-0.1855469,0.0722656H31.71875
			c-0.0742188,0-0.1416016-0.0234375-0.1904297-0.0722656l0.0048828,0.0029297
			c-0.0478516-0.0488281-0.0722656-0.1123047-0.0722656-0.1875v-2.4951172c0-0.0742188,0.0244141-0.1416016,0.0722656-0.1904297
			H31.53125l-0.0019531,0.0039063C31.5791016,27.0634766,31.6445313,27.0380859,31.71875,27.0380859L31.71875,27.0380859z
			 M34.2138672,27.1591797H31.71875c-0.0390625,0-0.0742188,0.015625-0.0996094,0.0410156l0.0019531-0.0009766
			c-0.0253906,0.0253906-0.0390625,0.0605469-0.0390625,0.0996094v2.4951172c0,0.0390625,0,0.0751953,0.0410156,0.1005859l0,0
			c0.0410156,0.0253906,0.0566406,0.0341797,0.0957031,0.0341797h2.4951172c0.0390625,0,0.0722656-0.0126953,0.0976563-0.0390625
			c0.0253906-0.0253906,0.0390625-0.0566406,0.0390625-0.0957031v-2.4951172c0-0.0390625-0.0107422-0.0576172-0.0361328-0.0976563
			l0,0C34.2890625,27.1591797,34.2529297,27.1591797,34.2138672,27.1591797L34.2138672,27.1591797z"/>
		<path fill-rule="evenodd" clip-rule="evenodd" fill="#010101" d="M33.0488281,28.4199219v1.0166016l0.1953125,0.0683594
			l0.2851563,0.0976563h-0.5625h-0.5634766l0.2851563-0.0976563l0.1972656-0.0683594v-1.0166016
			c-0.4892578-0.0419922-0.8496094-0.4189453-0.8496094-0.875c0-0.0185547-0.0029297-0.0185547-0.0019531-0.0595703h0.4589844
			l-0.0898438,0.2080078l0.1269531,0.0683594L32.40625,28.1445313l0.3339844-0.4609375l-0.0859375-0.0625l0.0683594-0.1357422
			h1.1767578c0.0009766,0.0410156-0.0029297,0.0410156-0.0029297,0.0595703
			C33.8964844,28.0009766,33.5361328,28.3779297,33.0488281,28.4199219L33.0488281,28.4199219z"/>
	</g>
	<g opacity="0.8">
		<path fill="#010101" d="M31.71875,30.3349609h2.4951172c0.0751953,0,0.1416016,0.0214844,0.1914063,0.0712891v-0.0048828
			l-0.0058594-0.0019531c0.0488281,0.0488281,0.0742188,0.1142578,0.0742188,0.1884766v2.4951172
			c0,0.0742188-0.0253906,0.1416016-0.0742188,0.1914063l0.0029297-0.0029297
			c-0.0488281,0.0488281-0.1132813,0.0771484-0.1884766,0.0771484H31.71875c-0.0742188,0-0.1357422-0.0283203-0.1855469-0.0771484
			c-0.0478516-0.0488281-0.0722656-0.1142578-0.0722656-0.1884766v-2.4951172c0-0.0742188,0.0244141-0.1416016,0.0722656-0.1914063
			L31.53125,30.40625C31.5800781,30.3564453,31.6445313,30.3349609,31.71875,30.3349609L31.71875,30.3349609z
			 M34.2138672,30.4580078H31.71875c-0.0390625,0-0.0742188,0-0.0996094,0.0400391l0,0
			c-0.0263672,0-0.0371094,0.0507813-0.0371094,0.0898438v2.4951172c0,0.0390625,0.0136719,0.0751953,0.0400391,0.1005859
			c0.0253906,0.0253906,0.0576172,0.0419922,0.0966797,0.0419922h2.4951172c0.0400391,0,0.0556641-0.0166016,0.0966797-0.0419922
			v-0.0009766c0.0400391-0.0253906,0.0400391-0.0605469,0.0400391-0.0996094v-2.4951172
			c0-0.0390625-0.0136719-0.0742188-0.0390625-0.0996094L34.3125,30.4931641
			C34.2871094,30.4677734,34.2539063,30.4580078,34.2138672,30.4580078L34.2138672,30.4580078z"/>
		<path fill-rule="evenodd" clip-rule="evenodd" fill="#010101" d="M32.2324219,31.4306641
			c0.109375,0.1972656,0.2255859,0.3876953,0.3349609,0.5859375c-0.15625,0.0869141-0.3076172,0.1767578-0.4648438,0.2636719
			c-0.0439453-0.0556641-0.0927734-0.1445313-0.1455078-0.234375c-0.0507813-0.0839844-0.1132813-0.171875-0.1347656-0.2470703
			c-0.0039063-0.0146484-0.0068359-0.0595703-0.0039063-0.0791016
			C31.8369141,31.5566406,32.0273438,31.4335938,32.2324219,31.4306641L32.2324219,31.4306641z"/>
		<path fill-rule="evenodd" clip-rule="evenodd" fill="#010101" d="M33.5546875,31.4394531
			c-0.0009766-0.0039063,0.0019531-0.0039063,0.0048828-0.0039063c0.2490234,0.0039063,0.5029297,0.0507813,0.5146484,0.2841797
			c0.0058594,0.1230469-0.0537109,0.2285156-0.109375,0.3134766c0.0449219,0.0380859,0.1083984,0.0566406,0.1513672,0.0957031
			c-0.1738281,0.0087891-0.3427734,0.0205078-0.5195313,0.0253906c-0.0771484-0.1552734-0.1591797-0.3056641-0.234375-0.4638672
			c0.0458984,0.0253906,0.0927734,0.0488281,0.1347656,0.0791016
			C33.5527344,31.7001953,33.6542969,31.5341797,33.5546875,31.4394531L33.5546875,31.4394531z"/>
		<path fill-rule="evenodd" clip-rule="evenodd" fill="#010101" d="M33.7851563,32.3896484
			c-0.0595703,0.1220703-0.1416016,0.2626953-0.2177734,0.3886719c-0.0439453,0.0742188-0.0820313,0.1435547-0.1835938,0.1552734
			c-0.1787109,0.0195313-0.328125-0.1074219-0.4023438-0.2226563c0.109375-0.2001953,0.2255859-0.3935547,0.3398438-0.5898438
			C33.4765625,32.2089844,33.6259766,32.3037109,33.7851563,32.3896484L33.7851563,32.3896484z"/>
		<path fill-rule="evenodd" clip-rule="evenodd" fill="#010101" d="M32.5966797,30.8701172
			c0.0097656-0.0488281,0.0019531-0.1162109,0.0039063-0.171875c0.0097656-0.0078125,0.0283203,0.0224609,0.0380859,0.0371094
			c0.0800781,0.1259766,0.1660156,0.2685547,0.2509766,0.3896484c-0.0947266,0.1474609-0.1669922,0.3007813-0.2900391,0.4394531
			c0-0.0527344,0-0.1064453,0-0.1591797c-0.1210938,0.0068359-0.2783203-0.0087891-0.4052734,0
			c-0.1611328,0.0107422-0.2734375,0.0898438-0.3515625,0.1796875c0.0419922-0.0917969,0.1113281-0.1962891,0.1757813-0.3085938
			c0.0625-0.1083984,0.1152344-0.2285156,0.1806641-0.3144531C32.2714844,30.8662109,32.4072266,30.8583984,32.5966797,30.8701172
			L32.5966797,30.8701172z"/>
		<path fill-rule="evenodd" clip-rule="evenodd" fill="#010101" d="M33.0068359,31.4091797c0-0.1796875,0-0.3408203,0-0.5439453
			c0.2041016,0,0.4130859,0,0.6113281,0c0.0664063,0.0400391,0.0908203,0.1015625,0.125,0.1611328
			c0.1005859,0.1728516,0.2119141,0.3554688,0.3105469,0.5332031c-0.0009766,0.0039063-0.0126953,0.0029297-0.0126953,0
			C33.8710938,31.3369141,33.4140625,31.4277344,33.0068359,31.4091797L33.0068359,31.4091797z"/>
		<path fill-rule="evenodd" clip-rule="evenodd" fill="#010101" d="M32.3916016,32.2841797
			c0.1728516,0.0087891,0.3417969,0.0205078,0.5195313,0.0253906c-0.0361328,0.0371094-0.0898438,0.0556641-0.1347656,0.0839844
			c0.140625,0.2246094,0.2167969,0.5146484,0.5283203,0.5693359c-0.2207031-0.0087891-0.4912109,0.0263672-0.7080078,0.0039063
			c-0.1757813-0.0175781-0.2021484-0.1826172-0.2841797-0.3017578c-0.0556641,0.0263672-0.1044922,0.0585938-0.1552734,0.0888672
			C32.2236328,32.6025391,32.3164063,32.4404297,32.3916016,32.2841797L32.3916016,32.2841797z"/>
	</g>
	
		<path fill="#F3F3F3" stroke="#4E4E4E" stroke-width="0.0814231" stroke-linecap="round" stroke-linejoin="round" stroke-miterlimit="10" d="
		M15.5419922,36.0751953c0,0.1357422-0.109375,0.2441406-0.2441406,0.2441406H5.9755859
		c-0.1357422,0-0.2451172-0.1083984-0.2451172-0.2441406v-5.1289063c0-0.1357422,0.109375-0.2441406,0.2451172-0.2441406h9.3222656
		c0.1347656,0,0.2441406,0.1083984,0.2441406,0.2441406V36.0751953z"/>
	<g>
		<rect x="6.3007813" y="31.7197266" fill="#333333" width="0.1630859" height="1.2216797"/>
		<rect x="6.3007813" y="33.1044922" fill="#333333" width="0.1630859" height="0.5283203"/>
		<rect x="6.3007813" y="34.1220703" fill="#333333" width="0.1630859" height="1.2207031"/>
		<rect x="6.4638672" y="31.7197266" fill="#333333" width="0.1621094" height="0.1630859"/>
		<rect x="6.4638672" y="32.7373047" fill="#333333" width="0.1621094" height="0.2041016"/>
		<rect x="6.4638672" y="33.4296875" fill="#333333" width="0.1621094" height="0.203125"/>
		<rect x="6.4638672" y="34.1220703" fill="#333333" width="0.1621094" height="0.203125"/>
		<rect x="6.4638672" y="35.1806641" fill="#333333" width="0.1621094" height="0.1621094"/>
		<rect x="6.6259766" y="31.7197266" fill="#333333" width="0.2041016" height="0.1630859"/>
		<rect x="6.6259766" y="32.0449219" fill="#333333" width="0.2041016" height="0.5292969"/>
		<rect x="6.6259766" y="32.7373047" fill="#333333" width="0.2041016" height="0.2041016"/>
		<rect x="6.6259766" y="33.4296875" fill="#333333" width="0.2041016" height="0.5292969"/>
		<rect x="6.6259766" y="34.1220703" fill="#333333" width="0.2041016" height="0.203125"/>
		<rect x="6.6259766" y="34.4873047" fill="#333333" width="0.2041016" height="0.5302734"/>
		<rect x="6.6259766" y="35.1806641" fill="#333333" width="0.2041016" height="0.1621094"/>
		<rect x="6.8300781" y="31.7197266" fill="#333333" width="0.1630859" height="0.1630859"/>
		<rect x="6.8300781" y="32.0449219" fill="#333333" width="0.1630859" height="0.5292969"/>
		<rect x="6.8300781" y="32.7373047" fill="#333333" width="0.1630859" height="0.2041016"/>
		<rect x="6.8300781" y="33.6328125" fill="#333333" width="0.1630859" height="0.1630859"/>
		<rect x="6.8300781" y="34.1220703" fill="#333333" width="0.1630859" height="0.203125"/>
		<rect x="6.8300781" y="34.4873047" fill="#333333" width="0.1630859" height="0.5302734"/>
		<rect x="6.8300781" y="35.1806641" fill="#333333" width="0.1630859" height="0.1621094"/>
		<rect x="6.9931641" y="31.7197266" fill="#333333" width="0.1621094" height="0.1630859"/>
		<rect x="6.9931641" y="32.0449219" fill="#333333" width="0.1621094" height="0.5292969"/>
		<rect x="6.9931641" y="32.7373047" fill="#333333" width="0.1621094" height="0.2041016"/>
		<rect x="6.9931641" y="33.1044922" fill="#333333" width="0.1621094" height="0.1621094"/>
		<rect x="6.9931641" y="33.4296875" fill="#333333" width="0.1621094" height="0.203125"/>
		<rect x="6.9931641" y="34.1220703" fill="#333333" width="0.1621094" height="0.203125"/>
		<rect x="6.9931641" y="34.4873047" fill="#333333" width="0.1621094" height="0.5302734"/>
		<rect x="6.9931641" y="35.1806641" fill="#333333" width="0.1621094" height="0.1621094"/>
		<rect x="7.1552734" y="31.7197266" fill="#333333" width="0.1630859" height="0.1630859"/>
		<rect x="7.1552734" y="32.7373047" fill="#333333" width="0.1630859" height="0.2041016"/>
		<rect x="7.1552734" y="33.6328125" fill="#333333" width="0.1630859" height="0.1630859"/>
		<rect x="7.1552734" y="34.1220703" fill="#333333" width="0.1630859" height="0.203125"/>
		<rect x="7.1552734" y="35.1806641" fill="#333333" width="0.1630859" height="0.1621094"/>
		<rect x="7.3183594" y="31.7197266" fill="#333333" width="0.203125" height="1.2216797"/>
		<rect x="7.3183594" y="33.1044922" fill="#333333" width="0.203125" height="0.1621094"/>
		<rect x="7.3183594" y="33.4296875" fill="#333333" width="0.203125" height="0.203125"/>
		<rect x="7.3183594" y="33.7958984" fill="#333333" width="0.203125" height="0.1630859"/>
		<rect x="7.3183594" y="34.1220703" fill="#333333" width="0.203125" height="1.2207031"/>
		<rect x="7.5214844" y="33.1044922" fill="#333333" width="0.1630859" height="0.3251953"/>
		<rect x="7.5214844" y="33.6328125" fill="#333333" width="0.1630859" height="0.1630859"/>
		<rect x="7.6845703" y="31.7197266" fill="#333333" width="0.1630859" height="0.1630859"/>
		<rect x="7.6845703" y="32.2490234" fill="#333333" width="0.1630859" height="1.1806641"/>
		<rect x="7.6845703" y="33.6328125" fill="#333333" width="0.1630859" height="0.1630859"/>
		<rect x="7.6845703" y="33.9589844" fill="#333333" width="0.1630859" height="0.3662109"/>
		<rect x="7.6845703" y="34.4873047" fill="#333333" width="0.1630859" height="0.1630859"/>
		<rect x="7.6845703" y="35.1806641" fill="#333333" width="0.1630859" height="0.1621094"/>
		<rect x="7.8476563" y="31.8828125" fill="#333333" width="0.1630859" height="0.8544922"/>
		<rect x="7.8476563" y="33.4296875" fill="#333333" width="0.1630859" height="0.3662109"/>
		<rect x="7.8476563" y="33.9589844" fill="#333333" width="0.1630859" height="0.3662109"/>
		<rect x="7.8476563" y="34.6503906" fill="#333333" width="0.1630859" height="0.3671875"/>
		<rect x="7.8476563" y="35.1806641" fill="#333333" width="0.1630859" height="0.1621094"/>
		<rect x="8.0107422" y="31.7197266" fill="#333333" width="0.203125" height="0.1630859"/>
		<rect x="8.0107422" y="32.0449219" fill="#333333" width="0.203125" height="0.2041016"/>
		<rect x="8.0107422" y="32.4111328" fill="#333333" width="0.203125" height="0.1630859"/>
		<rect x="8.0107422" y="32.7373047" fill="#333333" width="0.203125" height="0.2041016"/>
		<rect x="8.0107422" y="33.1044922" fill="#333333" width="0.203125" height="0.1621094"/>
		<rect x="8.0107422" y="33.4296875" fill="#333333" width="0.203125" height="0.203125"/>
		<rect x="8.0107422" y="33.7958984" fill="#333333" width="0.203125" height="0.1630859"/>
		<rect x="8.0107422" y="34.1220703" fill="#333333" width="0.203125" height="0.3652344"/>
		<rect x="8.0107422" y="34.6503906" fill="#333333" width="0.203125" height="0.1630859"/>
		<rect x="8.0107422" y="35.0175781" fill="#333333" width="0.203125" height="0.3251953"/>
		<rect x="8.2138672" y="31.7197266" fill="#333333" width="0.1630859" height="0.1630859"/>
		<rect x="8.2138672" y="32.0449219" fill="#333333" width="0.1630859" height="0.2041016"/>
		<rect x="8.2138672" y="32.5742188" fill="#333333" width="0.1630859" height="0.1630859"/>
		<rect x="8.2138672" y="32.9414063" fill="#333333" width="0.1630859" height="0.6914063"/>
		<rect x="8.2138672" y="34.3251953" fill="#333333" width="0.1630859" height="0.6923828"/>
		<rect x="8.3769531" y="31.7197266" fill="#333333" width="0.1621094" height="0.1630859"/>
		<rect x="8.3769531" y="32.0449219" fill="#333333" width="0.1621094" height="0.5292969"/>
		<rect x="8.3769531" y="32.7373047" fill="#333333" width="0.1621094" height="0.3671875"/>
		<rect x="8.3769531" y="33.2666016" fill="#333333" width="0.1621094" height="0.1630859"/>
		<rect x="8.3769531" y="33.7958984" fill="#333333" width="0.1621094" height="0.6914063"/>
		<rect x="8.3769531" y="34.6503906" fill="#333333" width="0.1621094" height="0.1630859"/>
		<rect x="8.3769531" y="35.1806641" fill="#333333" width="0.1621094" height="0.1621094"/>
		<rect x="8.5390625" y="33.1044922" fill="#333333" width="0.1630859" height="0.1621094"/>
		<rect x="8.5390625" y="33.6328125" fill="#333333" width="0.1630859" height="0.6923828"/>
		<rect x="8.5390625" y="35.0175781" fill="#333333" width="0.1630859" height="0.3251953"/>
		<rect x="8.7021484" y="31.7197266" fill="#333333" width="0.2041016" height="1.2216797"/>
		<rect x="8.7021484" y="33.1044922" fill="#333333" width="0.2041016" height="0.1621094"/>
		<rect x="8.7021484" y="33.4296875" fill="#333333" width="0.2041016" height="0.6923828"/>
		<rect x="8.7021484" y="34.4873047" fill="#333333" width="0.2041016" height="0.1630859"/>
		<rect x="8.7021484" y="34.8134766" fill="#333333" width="0.2041016" height="0.5292969"/>
		<rect x="8.90625" y="31.7197266" fill="#333333" width="0.1630859" height="0.1630859"/>
		<rect x="8.90625" y="32.7373047" fill="#333333" width="0.1630859" height="0.2041016"/>
		<rect x="8.90625" y="33.1044922" fill="#333333" width="0.1630859" height="0.1621094"/>
		<rect x="8.90625" y="33.4296875" fill="#333333" width="0.1630859" height="0.203125"/>
		<rect x="8.90625" y="33.9589844" fill="#333333" width="0.1630859" height="0.1630859"/>
		<rect x="8.90625" y="34.3251953" fill="#333333" width="0.1630859" height="0.1621094"/>
		<rect x="8.90625" y="34.6503906" fill="#333333" width="0.1630859" height="0.1630859"/>
		<rect x="8.90625" y="35.1806641" fill="#333333" width="0.1630859" height="0.1621094"/>
		<rect x="9.0693359" y="31.7197266" fill="#333333" width="0.1630859" height="0.1630859"/>
		<rect x="9.0693359" y="32.0449219" fill="#333333" width="0.1630859" height="0.5292969"/>
		<rect x="9.0693359" y="32.7373047" fill="#333333" width="0.1630859" height="0.2041016"/>
		<rect x="9.0693359" y="33.1044922" fill="#333333" width="0.1630859" height="0.1621094"/>
		<rect x="9.0693359" y="33.4296875" fill="#333333" width="0.1630859" height="0.203125"/>
		<rect x="9.0693359" y="33.9589844" fill="#333333" width="0.1630859" height="0.5283203"/>
		<rect x="9.0693359" y="34.6503906" fill="#333333" width="0.1630859" height="0.3671875"/>
		<rect x="9.2324219" y="31.7197266" fill="#333333" width="0.1621094" height="0.1630859"/>
		<rect x="9.2324219" y="32.0449219" fill="#333333" width="0.1621094" height="0.5292969"/>
		<rect x="9.2324219" y="32.7373047" fill="#333333" width="0.1621094" height="0.2041016"/>
		<rect x="9.2324219" y="33.1044922" fill="#333333" width="0.1621094" height="0.3251953"/>
		<rect x="9.2324219" y="33.9589844" fill="#333333" width="0.1621094" height="0.1630859"/>
		<rect x="9.3945313" y="31.7197266" fill="#333333" width="0.203125" height="0.1630859"/>
		<rect x="9.3945313" y="32.0449219" fill="#333333" width="0.203125" height="0.5292969"/>
		<rect x="9.3945313" y="32.7373047" fill="#333333" width="0.203125" height="0.2041016"/>
		<rect x="9.3945313" y="33.2666016" fill="#333333" width="0.203125" height="0.1630859"/>
		<rect x="9.3945313" y="33.9589844" fill="#333333" width="0.203125" height="0.1630859"/>
		<rect x="9.3945313" y="34.8134766" fill="#333333" width="0.203125" height="0.2041016"/>
		<rect x="9.5976563" y="31.7197266" fill="#333333" width="0.1630859" height="0.1630859"/>
		<rect x="9.5976563" y="32.7373047" fill="#333333" width="0.1630859" height="0.2041016"/>
		<rect x="9.5976563" y="33.2666016" fill="#333333" width="0.1630859" height="0.3662109"/>
		<rect x="9.5976563" y="33.7958984" fill="#333333" width="0.1630859" height="0.1630859"/>
		<rect x="9.5976563" y="34.1220703" fill="#333333" width="0.1630859" height="0.3652344"/>
		<rect x="9.5976563" y="34.6503906" fill="#333333" width="0.1630859" height="0.1630859"/>
		<rect x="9.7607422" y="31.7197266" fill="#333333" width="0.1630859" height="1.2216797"/>
		<rect x="9.7607422" y="33.1044922" fill="#333333" width="0.1630859" height="0.1621094"/>
		<rect x="9.7607422" y="33.6328125" fill="#333333" width="0.1630859" height="0.1630859"/>
		<rect x="9.7607422" y="34.3251953" fill="#333333" width="0.1630859" height="0.4882813"/>
		<rect x="9.7607422" y="35.1806641" fill="#333333" width="0.1630859" height="0.1621094"/>
	</g>
	<rect x="10.3310547" y="31.9228516" fill="#333333" width="4.9667969" height="0.3261719"/>
	<rect x="10.3310547" y="32.4521484" fill="#333333" width="2.1982422" height="0.3261719"/>
	<rect x="12.7734375" y="32.4521484" fill="#333333" width="2.1992188" height="0.3261719"/>
	<rect x="10.3310547" y="32.9814453" fill="#333333" width="4.9667969" height="0.3261719"/>
	<rect x="10.3310547" y="33.5117188" fill="#333333" width="2.1982422" height="0.3251953"/>
	<rect x="12.7734375" y="33.5117188" fill="#333333" width="2.1992188" height="0.3251953"/>
	<rect x="10.3310547" y="34.0400391" fill="#333333" width="4.9667969" height="0.3261719"/>
	<rect x="10.3310547" y="34.5693359" fill="#333333" width="2.1982422" height="0.3251953"/>
	<rect x="12.7734375" y="34.5693359" fill="#333333" width="2.1992188" height="0.3251953"/>
	<circle opacity="0.5" fill="#231F20" cx="20.0615234" cy="12.8212891" r="9.7539063"/>
	<g>
		<linearGradient id="SVGID_3_" gradientUnits="userSpaceOnUse" x1="19.8178711" y1="21.9873047" x2="19.8178711" y2="2.5918388">
			<stop  offset="0" style="stop-color:#059347"/>
			<stop  offset="0.430191" style="stop-color:#8CC541"/>
		</linearGradient>
		
			<circle fill="url(#SVGID_3_)" stroke="#046938" stroke-width="0.340057" stroke-linecap="round" stroke-linejoin="round" stroke-miterlimit="10" cx="19.8164063" cy="12.2543945" r="9.7543945"/>
	</g>
	<g>
		<path fill="#414142" d="M26.8544922,13.0332031l-4.9042969,2.8300781
			c-0.4775391,0.2744141-0.8710938,0.0488281-0.8710938-0.4980469v-1.7216797h-7.5068359
			c-0.6142578,0-1.1123047-0.5058594-1.1123047-1.1191406c0-0.6162109,0.4980469-1.1201172,1.1123047-1.1201172h7.5068359V9.7041016
			c0-0.5498047,0.3935547-0.7753906,0.8710938-0.5009766l4.9023438,2.8300781
			C27.3291016,12.3085938,27.3310547,12.7578125,26.8544922,13.0332031z"/>
		<linearGradient id="SVGID_4_" gradientUnits="userSpaceOnUse" x1="19.5522461" y1="8.0395508" x2="19.5522461" y2="16.185173">
			<stop  offset="0" style="stop-color:#F2F2F2"/>
			<stop  offset="1" style="stop-color:#D1D2D3"/>
		</linearGradient>
		<path fill="url(#SVGID_4_)" stroke="#E7E7E7" stroke-width="0.4071155" stroke-miterlimit="10" d="M26.5722656,12.6572266
			l-4.90625,2.8300781c-0.4775391,0.2763672-0.8720703,0.0507813-0.8720703-0.4970703v-1.7128906h-7.5048828
			c-0.6152344,0-1.1123047-0.5058594-1.1123047-1.1201172c0-0.6162109,0.4970703-1.1191406,1.1123047-1.1191406h7.5048828V9.3300781
			c0-0.5507813,0.3945313-0.7773438,0.8720703-0.5019531l4.9033203,2.8310547
			C27.0458984,11.9345703,27.0478516,12.3828125,26.5722656,12.6572266z"/>
	</g>
</g>
</svg>
