<?xml version="1.0" encoding="utf-8"?>
<!-- Generator: Adobe Illustrator 19.0.1, SVG Export Plug-In . SVG Version: 6.00 Build 0)  -->
<svg version="1.1" id="Layer_1" xmlns="http://www.w3.org/2000/svg" xmlns:xlink="http://www.w3.org/1999/xlink" x="0px" y="0px"
	 width="45px" height="45px" viewBox="0 0 45 45" style="enable-background:new 0 0 45 45;" xml:space="preserve">
<style type="text/css">
	.st0{fill:#005129;}
	.st1{fill:url(#SVGID_1_);}
	.st2{fill:#7A0511;}
	.st3{fill:url(#SVGID_2_);}
	.st4{fill:url(#SVGID_3_);}
	.st5{fill:none;stroke:#7A0511;stroke-width:1.1677;stroke-miterlimit:10;}
	.st6{fill:none;stroke:#7A0511;stroke-width:1.022;stroke-miterlimit:10;}
	.st7{fill:url(#SVGID_4_);}
	.st8{fill:url(#SVGID_5_);}
	.st9{fill:url(#SVGID_6_);}
	.st10{fill:url(#SVGID_7_);}
	.st11{fill:url(#SVGID_8_);}
	.st12{fill:url(#SVGID_9_);}
	.st13{fill:url(#SVGID_10_);}
	.st14{fill:url(#SVGID_11_);}
	.st15{fill:#231F20;}
	.st16{fill:url(#SVGID_12_);}
	.st17{fill:url(#SVGID_13_);}
	.st18{fill:url(#SVGID_14_);}
	.st19{fill:url(#SVGID_15_);}
	.st20{fill:url(#SVGID_16_);}
	.st21{fill:url(#SVGID_17_);}
	.st22{fill:url(#SVGID_18_);}
	.st23{fill:url(#SVGID_19_);}
	.st24{fill:url(#SVGID_20_);}
	.st25{fill:url(#SVGID_21_);}
	.st26{fill:url(#SVGID_22_);}
	.st27{fill:#8CC63F;}
	.st28{fill:url(#SVGCleanerId_0_8_);}
	.st29{fill:url(#SVGCleanerId_0_9_);}
	.st30{fill:url(#SVGID_23_);}
	.st31{fill:url(#SVGID_24_);}
	.st32{fill:#EE412E;}
	.st33{fill:url(#SVGCleanerId_0_10_);}
	.st34{fill:url(#SVGID_25_);}
	.st35{fill:url(#SVGID_26_);}
	.st36{fill:url(#SVGID_27_);}
	.st37{fill:url(#SVGID_28_);}
	.st38{fill:url(#SVGID_29_);}
	.st39{fill:url(#SVGID_30_);}
	.st40{fill:url(#SVGID_31_);}
	.st41{fill:url(#SVGID_32_);}
	.st42{fill:url(#SVGID_33_);}
	.st43{fill:url(#SVGID_34_);}
	.st44{fill:#006838;}
	.st45{fill:url(#SVGID_35_);}
	.st46{fill:url(#SVGID_36_);}
	.st47{fill:url(#SVGID_37_);}
	.st48{fill:url(#SVGID_38_);}
	.st49{fill:url(#SVGID_39_);}
	.st50{fill:url(#SVGID_40_);}
	.st51{fill:url(#SVGID_41_);}
	.st52{fill:url(#SVGID_42_);}
	.st53{fill:url(#SVGID_43_);}
	.st54{fill:url(#SVGID_44_);}
	.st55{fill:url(#SVGID_45_);}
	.st56{fill:url(#SVGID_46_);}
	.st57{fill:url(#SVGID_47_);}
	.st58{fill:url(#SVGID_48_);}
	.st59{fill:url(#SVGID_49_);}
	.st60{fill:url(#SVGID_50_);}
	.st61{fill:url(#SVGID_51_);}
	.st62{fill:url(#SVGID_52_);}
	.st63{fill:url(#SVGID_53_);}
	.st64{fill:url(#SVGID_54_);}
	.st65{fill:url(#SVGID_55_);}
	.st66{fill:url(#SVGID_56_);}
	.st67{fill:url(#SVGID_57_);}
	.st68{fill:url(#SVGID_58_);}
	.st69{fill:url(#SVGID_59_);}
	.st70{fill:url(#SVGID_60_);}
	.st71{fill:url(#SVGID_61_);}
	.st72{fill:url(#SVGID_62_);}
	.st73{fill:url(#SVGID_63_);}
	.st74{fill:url(#SVGID_64_);}
	.st75{fill:url(#SVGID_65_);}
	.st76{fill:url(#SVGID_66_);}
	.st77{fill:url(#SVGID_67_);}
	.st78{fill:url(#SVGID_68_);}
	.st79{fill:url(#SVGID_69_);}
	.st80{fill:url(#SVGID_70_);}
	.st81{fill:url(#SVGID_71_);}
	.st82{fill:url(#SVGID_72_);}
	.st83{fill:url(#SVGID_73_);}
	.st84{fill:url(#SVGID_74_);}
	.st85{fill:url(#SVGID_75_);}
	.st86{fill:url(#SVGID_76_);}
	.st87{fill:url(#SVGID_77_);}
	.st88{fill:url(#SVGID_78_);}
	.st89{fill:url(#SVGID_79_);}
	.st90{fill:url(#SVGID_80_);}
	.st91{fill:url(#SVGID_81_);}
	.st92{fill:url(#SVGID_82_);}
	.st93{fill:url(#SVGID_83_);}
	.st94{fill:url(#SVGID_84_);}
	.st95{fill:url(#SVGID_85_);}
	.st96{fill:url(#SVGID_86_);}
	.st97{fill:url(#SVGID_87_);}
	.st98{fill:url(#SVGID_88_);}
	.st99{fill:#91ACB4;}
	.st100{fill:url(#SVGCleanerId_0_11_);}
	.st101{fill:url(#SVGID_89_);}
	.st102{fill:url(#SVGID_90_);}
	.st103{fill:url(#SVGID_91_);}
	.st104{fill:url(#SVGID_92_);}
	.st105{fill:url(#SVGID_93_);}
	.st106{fill:url(#SVGCleanerId_0_12_);}
	.st107{fill:url(#SVGID_94_);}
	.st108{fill:url(#SVGID_95_);}
	.st109{fill:url(#SVGID_96_);}
	.st110{fill:url(#SVGID_97_);}
	.st111{fill:url(#SVGID_98_);}
	.st112{fill:url(#SVGID_99_);}
	.st113{fill:url(#SVGID_100_);}
	.st114{fill:url(#SVGID_101_);}
	.st115{fill:url(#SVGID_102_);}
	.st116{fill:url(#SVGID_103_);}
	.st117{fill:url(#SVGID_104_);}
	.st118{fill:url(#SVGID_105_);}
	.st119{fill:url(#SVGID_106_);}
	.st120{fill:url(#SVGID_107_);}
	.st121{fill:url(#SVGID_108_);}
	.st122{fill:url(#SVGID_109_);}
	.st123{fill:url(#SVGID_110_);}
	.st124{fill:url(#SVGID_111_);}
	.st125{fill:url(#SVGID_112_);}
	.st126{fill:url(#SVGID_113_);}
	.st127{fill:url(#SVGID_114_);}
	.st128{fill:url(#SVGID_115_);}
	.st129{fill:url(#SVGID_116_);}
	.st130{fill:url(#SVGID_117_);}
	.st131{fill:url(#SVGID_118_);}
	.st132{fill:url(#SVGID_119_);}
	.st133{fill:url(#SVGID_120_);}
	.st134{fill:url(#SVGID_121_);}
	.st135{fill:url(#SVGID_122_);}
	.st136{fill:#535353;}
	.st137{fill:#A1A0A0;}
	.st138{fill:#CACCD0;}
	.st139{fill:url(#SVGID_123_);}
	.st140{fill:url(#SVGID_124_);}
	.st141{fill:url(#SVGID_125_);}
	.st142{fill:url(#SVGID_126_);}
	.st143{fill:url(#SVGID_127_);}
	.st144{fill:url(#SVGID_128_);}
	.st145{fill:url(#SVGID_129_);}
	.st146{fill:url(#SVGID_130_);}
	.st147{fill:url(#SVGID_131_);}
	.st148{fill-rule:evenodd;clip-rule:evenodd;fill:#8CC63F;}
	.st149{fill:url(#SVGID_132_);}
	.st150{fill:url(#SVGID_133_);}
	.st151{fill:url(#SVGID_134_);}
	.st152{fill:url(#SVGID_135_);}
	.st153{fill-rule:evenodd;clip-rule:evenodd;fill:#EE412E;}
	.st154{fill:url(#SVGID_136_);}
	.st155{fill:url(#SVGID_137_);}
	.st156{fill:url(#SVGID_138_);}
	.st157{fill:url(#SVGID_139_);}
	.st158{fill:url(#SVGID_140_);}
	.st159{fill:url(#SVGID_141_);}
	.st160{fill:url(#SVGID_142_);}
	.st161{fill:url(#SVGID_143_);}
	.st162{fill:url(#SVGID_144_);}
	.st163{fill:url(#SVGID_145_);}
	.st164{fill:url(#SVGID_146_);}
	.st165{fill:url(#SVGID_147_);}
	.st166{fill:url(#SVGID_148_);}
	.st167{fill:url(#SVGID_149_);}
	.st168{fill:url(#SVGID_150_);}
	.st169{fill:url(#SVGID_151_);}
	.st170{fill:url(#SVGID_152_);}
	.st171{fill:url(#SVGID_153_);}
	.st172{fill:url(#SVGID_154_);}
	.st173{fill:url(#SVGID_155_);}
	.st174{fill:url(#SVGID_156_);}
	.st175{fill:url(#SVGID_157_);}
	.st176{fill:url(#SVGID_158_);}
	.st177{fill:url(#SVGID_159_);}
	.st178{fill:url(#SVGID_160_);}
	.st179{fill:url(#SVGID_161_);}
	.st180{fill:url(#SVGID_162_);}
	.st181{fill:url(#SVGID_163_);}
	.st182{fill:url(#SVGID_164_);}
	.st183{fill:url(#SVGID_165_);}
	.st184{fill:url(#SVGID_166_);}
	.st185{fill:url(#SVGID_167_);}
	.st186{fill:url(#SVGID_168_);}
	.st187{fill:url(#SVGID_169_);}
	.st188{fill:url(#SVGID_170_);}
	.st189{fill:url(#SVGID_171_);}
	.st190{fill:url(#SVGID_172_);}
	.st191{fill:url(#SVGID_173_);}
	.st192{fill:url(#SVGID_174_);}
	.st193{fill:url(#SVGID_175_);}
	.st194{fill:url(#SVGID_176_);}
	.st195{fill:url(#SVGID_177_);}
</style>
<g>
	
		<linearGradient id="SVGID_1_" gradientUnits="userSpaceOnUse" x1="22.4252" y1="-308.2134" x2="22.4252" y2="-294.0458" gradientTransform="matrix(1 0 0 -1 0 -280)">
		<stop  offset="0" style="stop-color:#079247"/>
		<stop  offset="1" style="stop-color:#8BC342"/>
	</linearGradient>
	<path class="st1" d="M42.446,20.221h-5.905l0.929-3.903l0.411-1.479c0-0.532-0.432-0.964-0.964-0.964H2.16
		c-0.796,0-1.442,0.646-1.442,1.442v12.852h37.53v-0.757h5.885v-5.503C44.134,20.977,43.379,20.221,42.446,20.221z"/>
	<path class="st0" d="M29.971,28.153H1.707c-0.546,0-0.989-0.442-0.989-0.989v-3.323h29.253V28.153z"/>
	<path class="st0" d="M44.121,23.578h-0.649c-0.171,0-0.338-0.138-0.372-0.309l-0.214-1.052c-0.035-0.171,0.075-0.309,0.246-0.309h1
		L44.121,23.578z"/>
	<rect x="0.719" y="23.841" class="st15" width="29.253" height="0.861"/>
	<path class="st0" d="M0.719,23.289L0.719,23.289v-1.851l0,0c0.336,0,0.61,0.272,0.61,0.61v0.632
		C1.328,23.016,1.055,23.289,0.719,23.289z"/>
	<path class="st15" d="M44.439,28.495H9.948v-1.123h34.49c0.311,0,0.561,0.251,0.561,0.561l0,0
		C45,28.243,44.749,28.495,44.439,28.495z"/>
	<circle class="st15" cx="38.249" cy="28.17" r="2.63"/>
	
		<linearGradient id="SVGID_2_" gradientUnits="userSpaceOnUse" x1="38.2489" y1="-310.7661" x2="38.2489" y2="-305.5223" gradientTransform="matrix(1 0 0 -1 0 -280)">
		<stop  offset="0" style="stop-color:#079247"/>
		<stop  offset="1" style="stop-color:#8BC342"/>
	</linearGradient>
	<circle class="st3" cx="38.249" cy="28.17" r="1.708"/>
	<circle class="st0" cx="38.249" cy="28.17" r="0.781"/>
	<circle class="st15" cx="8.241" cy="28.495" r="2.63"/>
	<path class="st15" d="M0.561,28.495h6.9v-1.123h-6.9C0.251,27.372,0,27.623,0,27.934l0,0C0,28.243,0.251,28.495,0.561,28.495z"/>
	<g>
		
			<linearGradient id="SVGID_3_" gradientUnits="userSpaceOnUse" x1="8.2406" y1="-311.0916" x2="8.2406" y2="-305.8477" gradientTransform="matrix(1 0 0 -1 0 -280)">
			<stop  offset="0" style="stop-color:#079247"/>
			<stop  offset="1" style="stop-color:#8BC342"/>
		</linearGradient>
		<circle class="st4" cx="8.241" cy="28.495" r="1.708"/>
		<circle class="st0" cx="8.241" cy="28.495" r="0.781"/>
	</g>
	<g>
		<path class="st0" d="M37.47,16.318h-0.021h-9.336c-0.43,0-0.779,0.349-0.779,0.779v2.334c0,0.43,0.349,0.779,0.779,0.779h10.136
			C38.249,20.168,37.47,16.318,37.47,16.318z"/>
	</g>
	<g>
		<path class="st15" d="M29.879,14.927h5.251c0.269,0,0.486,0.218,0.486,0.486v11.963h-6.225V15.414
			C29.392,15.145,29.61,14.927,29.879,14.927z"/>
	</g>
	<g>
		<path class="st0" d="M33.38,26.597h1.361c0.054,0,0.097-0.044,0.097-0.097V15.802c0-0.054-0.044-0.097-0.097-0.097H33.38
			c-0.054,0-0.097,0.044-0.097,0.097v10.699C33.282,26.554,33.326,26.597,33.38,26.597z"/>
	</g>
	<g>
		<path class="st0" d="M30.267,26.597h2.14c0.054,0,0.097-0.044,0.097-0.097V15.802c0-0.054-0.044-0.097-0.097-0.097h-2.14
			c-0.054,0-0.097,0.044-0.097,0.097v10.699C30.17,26.554,30.213,26.597,30.267,26.597z"/>
	</g>
	<path class="st0" d="M4.241,16.318H0.718v3.89h2.659c0.43,0,0.855-0.349,0.951-0.778l0.519-2.334
		C4.942,16.667,4.671,16.318,4.241,16.318z"/>
	<path class="st0" d="M9.705,20.232H6.384c-0.409,0-0.667-0.332-0.576-0.74l0.54-2.432c0.091-0.409,0.496-0.74,0.906-0.74h3.321
		c0.409,0,0.667,0.332,0.576,0.74l-0.54,2.432C10.52,19.9,10.115,20.232,9.705,20.232z"/>
	<path class="st0" d="M17.093,20.232h-3.321c-0.409,0-0.667-0.332-0.576-0.74l0.54-2.432c0.091-0.409,0.496-0.74,0.906-0.74h3.321
		c0.409,0,0.667,0.332,0.576,0.74l-0.54,2.432C17.908,19.9,17.503,20.232,17.093,20.232z"/>
	<path class="st0" d="M24.095,20.232h-3.321c-0.409,0-0.667-0.332-0.576-0.74l0.54-2.432c0.091-0.409,0.496-0.74,0.906-0.74h3.321
		c0.409,0,0.667,0.332,0.576,0.74l-0.54,2.432C24.91,19.9,24.504,20.232,24.095,20.232z"/>
</g>
</svg>
