<?xml version="1.0" encoding="utf-8"?>
<!-- Generator: Adobe Illustrator 19.0.1, SVG Export Plug-In . SVG Version: 6.00 Build 0)  -->
<svg version="1.1" id="Layer_1" xmlns="http://www.w3.org/2000/svg" xmlns:xlink="http://www.w3.org/1999/xlink" x="0px" y="0px"
	 width="45px" height="45px" viewBox="0 0 45 45" style="enable-background:new 0 0 45 45;" xml:space="preserve">
<style type="text/css">
	.st0{fill:#005129;}
	.st1{fill:url(#SVGID_1_);}
	.st2{fill:#7A0511;}
	.st3{fill:url(#SVGID_2_);}
	.st4{fill:url(#SVGID_3_);}
	.st5{fill:none;stroke:#7A0511;stroke-width:1.1677;stroke-miterlimit:10;}
	.st6{fill:none;stroke:#7A0511;stroke-width:1.022;stroke-miterlimit:10;}
	.st7{fill:url(#SVGID_4_);}
	.st8{fill:url(#SVGID_5_);}
	.st9{fill:url(#SVGID_6_);}
	.st10{fill:url(#SVGID_7_);}
	.st11{fill:url(#SVGID_8_);}
	.st12{fill:url(#SVGID_9_);}
	.st13{fill:url(#SVGID_10_);}
	.st14{fill:url(#SVGID_11_);}
	.st15{fill:#231F20;}
	.st16{fill:url(#SVGID_12_);}
	.st17{fill:url(#SVGID_13_);}
	.st18{fill:url(#SVGID_14_);}
	.st19{fill:url(#SVGID_15_);}
	.st20{fill:url(#SVGID_16_);}
	.st21{fill:url(#SVGID_17_);}
	.st22{fill:url(#SVGID_18_);}
	.st23{fill:url(#SVGID_19_);}
	.st24{fill:url(#SVGID_20_);}
	.st25{fill:url(#SVGID_21_);}
	.st26{fill:url(#SVGID_22_);}
	.st27{fill:#8CC63F;}
	.st28{fill:url(#SVGCleanerId_0_8_);}
	.st29{fill:url(#SVGCleanerId_0_9_);}
	.st30{fill:url(#SVGID_23_);}
	.st31{fill:url(#SVGID_24_);}
	.st32{fill:#EE412E;}
	.st33{fill:url(#SVGCleanerId_0_10_);}
	.st34{fill:url(#SVGID_25_);}
	.st35{fill:url(#SVGID_26_);}
	.st36{fill:url(#SVGID_27_);}
	.st37{fill:url(#SVGID_28_);}
	.st38{fill:url(#SVGID_29_);}
	.st39{fill:url(#SVGID_30_);}
	.st40{fill:url(#SVGID_31_);}
	.st41{fill:url(#SVGID_32_);}
	.st42{fill:url(#SVGID_33_);}
	.st43{fill:url(#SVGID_34_);}
	.st44{fill:#006838;}
	.st45{fill:url(#SVGID_35_);}
	.st46{fill:url(#SVGID_36_);}
	.st47{fill:url(#SVGID_37_);}
	.st48{fill:url(#SVGID_38_);}
	.st49{fill:url(#SVGID_39_);}
	.st50{fill:url(#SVGID_40_);}
	.st51{fill:url(#SVGID_41_);}
	.st52{fill:url(#SVGID_42_);}
	.st53{fill:url(#SVGID_43_);}
	.st54{fill:url(#SVGID_44_);}
	.st55{fill:url(#SVGID_45_);}
	.st56{fill:url(#SVGID_46_);}
	.st57{fill:url(#SVGID_47_);}
	.st58{fill:url(#SVGID_48_);}
	.st59{fill:url(#SVGID_49_);}
	.st60{fill:url(#SVGID_50_);}
	.st61{fill:url(#SVGID_51_);}
	.st62{fill:url(#SVGID_52_);}
	.st63{fill:url(#SVGID_53_);}
	.st64{fill:url(#SVGID_54_);}
	.st65{fill:url(#SVGID_55_);}
	.st66{fill:url(#SVGID_56_);}
	.st67{fill:url(#SVGID_57_);}
	.st68{fill:url(#SVGID_58_);}
	.st69{fill:url(#SVGID_59_);}
	.st70{fill:url(#SVGID_60_);}
	.st71{fill:url(#SVGID_61_);}
	.st72{fill:url(#SVGID_62_);}
	.st73{fill:url(#SVGID_63_);}
	.st74{fill:url(#SVGID_64_);}
	.st75{fill:url(#SVGID_65_);}
	.st76{fill:url(#SVGID_66_);}
	.st77{fill:url(#SVGID_67_);}
	.st78{fill:url(#SVGID_68_);}
	.st79{fill:url(#SVGID_69_);}
	.st80{fill:url(#SVGID_70_);}
	.st81{fill:url(#SVGID_71_);}
	.st82{fill:url(#SVGID_72_);}
	.st83{fill:url(#SVGID_73_);}
	.st84{fill:url(#SVGID_74_);}
	.st85{fill:url(#SVGID_75_);}
	.st86{fill:url(#SVGID_76_);}
	.st87{fill:url(#SVGID_77_);}
	.st88{fill:url(#SVGID_78_);}
	.st89{fill:url(#SVGID_79_);}
	.st90{fill:url(#SVGID_80_);}
	.st91{fill:url(#SVGID_81_);}
	.st92{fill:url(#SVGID_82_);}
	.st93{fill:url(#SVGID_83_);}
	.st94{fill:url(#SVGID_84_);}
	.st95{fill:url(#SVGID_85_);}
	.st96{fill:url(#SVGID_86_);}
	.st97{fill:url(#SVGID_87_);}
	.st98{fill:url(#SVGID_88_);}
	.st99{fill:#91ACB4;}
	.st100{fill:url(#SVGCleanerId_0_11_);}
	.st101{fill:url(#SVGID_89_);}
	.st102{fill:url(#SVGID_90_);}
	.st103{fill:url(#SVGID_91_);}
	.st104{fill:url(#SVGID_92_);}
	.st105{fill:url(#SVGID_93_);}
	.st106{fill:url(#SVGCleanerId_0_12_);}
	.st107{fill:url(#SVGID_94_);}
	.st108{fill:url(#SVGID_95_);}
	.st109{fill:url(#SVGID_96_);}
	.st110{fill:url(#SVGID_97_);}
	.st111{fill:url(#SVGID_98_);}
	.st112{fill:url(#SVGID_99_);}
	.st113{fill:url(#SVGID_100_);}
	.st114{fill:url(#SVGID_101_);}
	.st115{fill:url(#SVGID_102_);}
	.st116{fill:url(#SVGID_103_);}
	.st117{fill:url(#SVGID_104_);}
	.st118{fill:url(#SVGID_105_);}
	.st119{fill:url(#SVGID_106_);}
	.st120{fill:url(#SVGID_107_);}
	.st121{fill:url(#SVGID_108_);}
	.st122{fill:url(#SVGID_109_);}
	.st123{fill:url(#SVGID_110_);}
	.st124{fill:url(#SVGID_111_);}
	.st125{fill:url(#SVGID_112_);}
	.st126{fill:url(#SVGID_113_);}
	.st127{fill:url(#SVGID_114_);}
	.st128{fill:url(#SVGID_115_);}
	.st129{fill:url(#SVGID_116_);}
	.st130{fill:url(#SVGID_117_);}
	.st131{fill:url(#SVGID_118_);}
	.st132{fill:url(#SVGID_119_);}
	.st133{fill:url(#SVGID_120_);}
	.st134{fill:url(#SVGID_121_);}
	.st135{fill:url(#SVGID_122_);}
	.st136{fill:#535353;}
	.st137{fill:#A1A0A0;}
	.st138{fill:#CACCD0;}
	.st139{fill:url(#SVGID_123_);}
	.st140{fill:url(#SVGID_124_);}
	.st141{fill:url(#SVGID_125_);}
	.st142{fill:url(#SVGID_126_);}
	.st143{fill:url(#SVGID_127_);}
	.st144{fill:url(#SVGID_128_);}
	.st145{fill:url(#SVGID_129_);}
	.st146{fill:url(#SVGID_130_);}
	.st147{fill:url(#SVGID_131_);}
	.st148{fill-rule:evenodd;clip-rule:evenodd;fill:#8CC63F;}
	.st149{fill:url(#SVGID_132_);}
	.st150{fill:url(#SVGID_133_);}
	.st151{fill:url(#SVGID_134_);}
	.st152{fill:url(#SVGID_135_);}
	.st153{fill-rule:evenodd;clip-rule:evenodd;fill:#EE412E;}
	.st154{fill:url(#SVGID_136_);}
	.st155{fill:url(#SVGID_137_);}
	.st156{fill:url(#SVGID_138_);}
	.st157{fill:url(#SVGID_139_);}
	.st158{fill:url(#SVGID_140_);}
	.st159{fill:url(#SVGID_141_);}
	.st160{fill:url(#SVGID_142_);}
	.st161{fill:url(#SVGID_143_);}
	.st162{fill:url(#SVGID_144_);}
	.st163{fill:url(#SVGID_145_);}
	.st164{fill:url(#SVGID_146_);}
	.st165{fill:url(#SVGID_147_);}
	.st166{fill:url(#SVGID_148_);}
	.st167{fill:url(#SVGID_149_);}
	.st168{fill:url(#SVGID_150_);}
	.st169{fill:url(#SVGID_151_);}
	.st170{fill:url(#SVGID_152_);}
	.st171{fill:url(#SVGID_153_);}
	.st172{fill:url(#SVGID_154_);}
	.st173{fill:url(#SVGID_155_);}
	.st174{fill:url(#SVGID_156_);}
	.st175{fill:url(#SVGID_157_);}
	.st176{fill:url(#SVGID_158_);}
	.st177{fill:url(#SVGID_159_);}
	.st178{fill:url(#SVGID_160_);}
	.st179{fill:url(#SVGID_161_);}
	.st180{fill:url(#SVGID_162_);}
	.st181{fill:url(#SVGID_163_);}
	.st182{fill:url(#SVGID_164_);}
	.st183{fill:url(#SVGID_165_);}
	.st184{fill:url(#SVGID_166_);}
	.st185{fill:url(#SVGID_167_);}
	.st186{fill:url(#SVGID_168_);}
	.st187{fill:url(#SVGID_169_);}
	.st188{fill:url(#SVGID_170_);}
	.st189{fill:url(#SVGID_171_);}
	.st190{fill:url(#SVGID_172_);}
	.st191{fill:url(#SVGID_173_);}
	.st192{fill:url(#SVGID_174_);}
	.st193{fill:url(#SVGID_175_);}
	.st194{fill:url(#SVGID_176_);}
	.st195{fill:url(#SVGID_177_);}
</style>
<g>
	<polygon class="st15" points="6.114,6.781 4.41,25.145 40.884,25.145 38.422,6.781 	"/>
	<g>
		<path class="st15" d="M42.282,21.11l-1.692-0.234V8.457h1.873c0.731,0,1.323,0.593,1.323,1.323v10.019
			C43.786,20.601,43.077,21.219,42.282,21.11z"/>
		<path class="st15" d="M2.718,21.11l1.692-0.234V8.457H2.537c-0.731,0-1.323,0.593-1.323,1.323v10.019
			C1.214,20.601,1.923,21.219,2.718,21.11z"/>
		<path class="st15" d="M40.884,41.894c0,1.715-1.389,3.106-3.104,3.106l0,0c-1.716,0-3.105-1.392-3.105-3.106v-5.479
			c0-1.715,1.389-3.106,3.105-3.106v1.554c1.715,0,3.104-0.162,3.104,1.554V41.894z"/>
		<path class="st15" d="M9.949,41.894C9.949,43.608,8.56,45,6.846,45l0,0c-1.716,0-3.105-1.392-3.105-3.106v-5.479
			c0-1.715,1.389-3.106,3.105-3.106v1.554c1.715,0,3.104-0.162,3.104,1.554V41.894z"/>
		
			<linearGradient id="SVGID_1_" gradientUnits="userSpaceOnUse" x1="22.4713" y1="-324.6704" x2="22.4713" y2="-295.4362" gradientTransform="matrix(1 0 0 -1 0 -280)">
			<stop  offset="0" style="stop-color:#079247"/>
			<stop  offset="1" style="stop-color:#8BC342"/>
		</linearGradient>
		<path class="st1" d="M40.441,5.385c-0.128-2.645-2.31-4.723-4.958-4.723l-6.989-0.529C27.318,0.045,26.138,0,24.958,0h-4.911
			c-1.17,0-2.34,0.044-3.507,0.132l-7.08,0.531c-2.648,0-4.83,2.079-4.958,4.723L3.738,21.177v17.668h37.135l0.331-17.668
			L40.441,5.385z M37.591,24.284H7.268c-1.215,0-2.17-1.038-2.069-2.249l0.857-10.243c0.157-1.885,1.735-3.336,3.627-3.336h25.493
			c1.892,0,3.47,1.45,3.627,3.336l0.857,10.243C39.761,23.246,38.805,24.284,37.591,24.284z"/>
		<path class="st0" d="M37.761,35.63h-5.186c-0.366,0-0.661-0.296-0.661-0.661v-2.105c0-0.366,0.296-0.661,0.661-0.661h5.186
			c0.366,0,0.661,0.296,0.661,0.661v2.105C38.422,35.333,38.126,35.63,37.761,35.63z"/>
		<path class="st0" d="M12.283,35.63H7.096c-0.366,0-0.661-0.296-0.661-0.661v-2.105c0-0.366,0.296-0.661,0.661-0.661h5.186
			c0.366,0,0.661,0.296,0.661,0.661v2.105C12.944,35.333,12.648,35.63,12.283,35.63z"/>
		<g>
			<path class="st0" d="M33.508,6.78c-7.392-0.179-14.768-0.179-22.159,0c-0.366,0.011-0.67-0.276-0.683-0.641
				C10.63,4.979,10.611,4.4,10.575,3.24c-0.011-0.366,0.279-0.671,0.648-0.682c7.476-0.181,14.934-0.181,22.41,0
				c0.369,0.011,0.659,0.316,0.648,0.682c-0.036,1.16-0.055,1.739-0.091,2.899C34.179,6.504,33.874,6.79,33.508,6.78z"/>
		</g>
	</g>
</g>
</svg>
