<?xml version="1.0" encoding="utf-8"?>
<!-- Generator: Adobe Illustrator 19.0.1, SVG Export Plug-In . SVG Version: 6.00 Build 0)  -->
<svg version="1.1" id="Layer_1" xmlns="http://www.w3.org/2000/svg" xmlns:xlink="http://www.w3.org/1999/xlink" x="0px" y="0px"
	 width="45px" height="45px" viewBox="0 0 45 45" style="enable-background:new 0 0 45 45;" xml:space="preserve">
<style type="text/css">
	.st0{fill:#005129;}
	.st1{fill:url(#SVGID_1_);}
	.st2{fill:#7A0511;}
	.st3{fill:url(#SVGID_2_);}
	.st4{fill:url(#SVGID_3_);}
	.st5{fill:none;stroke:#7A0511;stroke-width:1.1677;stroke-miterlimit:10;}
	.st6{fill:none;stroke:#7A0511;stroke-width:1.022;stroke-miterlimit:10;}
	.st7{fill:url(#SVGID_4_);}
	.st8{fill:url(#SVGID_5_);}
	.st9{fill:url(#SVGID_6_);}
	.st10{fill:url(#SVGID_7_);}
	.st11{fill:url(#SVGID_8_);}
	.st12{fill:url(#SVGID_9_);}
	.st13{fill:url(#SVGID_10_);}
	.st14{fill:url(#SVGID_11_);}
	.st15{fill:#231F20;}
	.st16{fill:url(#SVGID_12_);}
	.st17{fill:url(#SVGID_13_);}
	.st18{fill:url(#SVGID_14_);}
	.st19{fill:url(#SVGID_15_);}
	.st20{fill:url(#SVGID_16_);}
	.st21{fill:url(#SVGID_17_);}
	.st22{fill:url(#SVGID_18_);}
	.st23{fill:url(#SVGID_19_);}
	.st24{fill:url(#SVGID_20_);}
	.st25{fill:url(#SVGID_21_);}
	.st26{fill:url(#SVGID_22_);}
	.st27{fill:#8CC63F;}
	.st28{fill:url(#SVGCleanerId_0_8_);}
	.st29{fill:url(#SVGCleanerId_0_9_);}
	.st30{fill:url(#SVGID_23_);}
	.st31{fill:url(#SVGID_24_);}
	.st32{fill:#EE412E;}
	.st33{fill:url(#SVGCleanerId_0_10_);}
	.st34{fill:url(#SVGID_25_);}
	.st35{fill:url(#SVGID_26_);}
	.st36{fill:url(#SVGID_27_);}
	.st37{fill:url(#SVGID_28_);}
	.st38{fill:url(#SVGID_29_);}
	.st39{fill:url(#SVGID_30_);}
	.st40{fill:url(#SVGID_31_);}
	.st41{fill:url(#SVGID_32_);}
	.st42{fill:url(#SVGID_33_);}
	.st43{fill:url(#SVGID_34_);}
	.st44{fill:#006838;}
	.st45{fill:url(#SVGID_35_);}
	.st46{fill:url(#SVGID_36_);}
	.st47{fill:url(#SVGID_37_);}
	.st48{fill:url(#SVGID_38_);}
	.st49{fill:url(#SVGID_39_);}
	.st50{fill:url(#SVGID_40_);}
	.st51{fill:url(#SVGID_41_);}
	.st52{fill:url(#SVGID_42_);}
	.st53{fill:url(#SVGID_43_);}
	.st54{fill:url(#SVGID_44_);}
	.st55{fill:url(#SVGID_45_);}
	.st56{fill:url(#SVGID_46_);}
	.st57{fill:url(#SVGID_47_);}
	.st58{fill:url(#SVGID_48_);}
	.st59{fill:url(#SVGID_49_);}
	.st60{fill:url(#SVGID_50_);}
	.st61{fill:url(#SVGID_51_);}
	.st62{fill:url(#SVGID_52_);}
	.st63{fill:url(#SVGID_53_);}
	.st64{fill:url(#SVGID_54_);}
	.st65{fill:url(#SVGID_55_);}
	.st66{fill:url(#SVGID_56_);}
	.st67{fill:url(#SVGID_57_);}
	.st68{fill:url(#SVGID_58_);}
	.st69{fill:url(#SVGID_59_);}
	.st70{fill:url(#SVGID_60_);}
	.st71{fill:url(#SVGID_61_);}
	.st72{fill:url(#SVGID_62_);}
	.st73{fill:url(#SVGID_63_);}
	.st74{fill:url(#SVGID_64_);}
	.st75{fill:url(#SVGID_65_);}
	.st76{fill:url(#SVGID_66_);}
	.st77{fill:url(#SVGID_67_);}
	.st78{fill:url(#SVGID_68_);}
	.st79{fill:url(#SVGID_69_);}
	.st80{fill:url(#SVGID_70_);}
	.st81{fill:url(#SVGID_71_);}
	.st82{fill:url(#SVGID_72_);}
	.st83{fill:url(#SVGID_73_);}
	.st84{fill:url(#SVGID_74_);}
	.st85{fill:url(#SVGID_75_);}
	.st86{fill:url(#SVGID_76_);}
	.st87{fill:url(#SVGID_77_);}
	.st88{fill:url(#SVGID_78_);}
	.st89{fill:url(#SVGID_79_);}
	.st90{fill:url(#SVGID_80_);}
	.st91{fill:url(#SVGID_81_);}
	.st92{fill:url(#SVGID_82_);}
	.st93{fill:url(#SVGID_83_);}
	.st94{fill:url(#SVGID_84_);}
	.st95{fill:url(#SVGID_85_);}
	.st96{fill:url(#SVGID_86_);}
	.st97{fill:url(#SVGID_87_);}
	.st98{fill:url(#SVGID_88_);}
	.st99{fill:#91ACB4;}
	.st100{fill:url(#SVGCleanerId_0_11_);}
	.st101{fill:url(#SVGID_89_);}
	.st102{fill:url(#SVGID_90_);}
	.st103{fill:url(#SVGID_91_);}
	.st104{fill:url(#SVGID_92_);}
	.st105{fill:url(#SVGID_93_);}
	.st106{fill:url(#SVGCleanerId_0_12_);}
	.st107{fill:url(#SVGID_94_);}
	.st108{fill:url(#SVGID_95_);}
	.st109{fill:url(#SVGID_96_);}
	.st110{fill:url(#SVGID_97_);}
	.st111{fill:url(#SVGID_98_);}
	.st112{fill:url(#SVGID_99_);}
	.st113{fill:url(#SVGID_100_);}
	.st114{fill:url(#SVGID_101_);}
	.st115{fill:url(#SVGID_102_);}
	.st116{fill:url(#SVGID_103_);}
	.st117{fill:url(#SVGID_104_);}
	.st118{fill:url(#SVGID_105_);}
	.st119{fill:url(#SVGID_106_);}
	.st120{fill:url(#SVGID_107_);}
	.st121{fill:url(#SVGID_108_);}
	.st122{fill:url(#SVGID_109_);}
	.st123{fill:url(#SVGID_110_);}
	.st124{fill:url(#SVGID_111_);}
	.st125{fill:url(#SVGID_112_);}
	.st126{fill:url(#SVGID_113_);}
	.st127{fill:url(#SVGID_114_);}
	.st128{fill:url(#SVGID_115_);}
	.st129{fill:url(#SVGID_116_);}
	.st130{fill:url(#SVGID_117_);}
	.st131{fill:url(#SVGID_118_);}
	.st132{fill:url(#SVGID_119_);}
	.st133{fill:url(#SVGID_120_);}
	.st134{fill:url(#SVGID_121_);}
	.st135{fill:url(#SVGID_122_);}
	.st136{fill:#535353;}
	.st137{fill:#A1A0A0;}
	.st138{fill:#CACCD0;}
	.st139{fill:url(#SVGID_123_);}
	.st140{fill:url(#SVGID_124_);}
	.st141{fill:url(#SVGID_125_);}
	.st142{fill:url(#SVGID_126_);}
	.st143{fill:url(#SVGID_127_);}
	.st144{fill:url(#SVGID_128_);}
	.st145{fill:url(#SVGID_129_);}
	.st146{fill:url(#SVGID_130_);}
	.st147{fill:url(#SVGID_131_);}
	.st148{fill-rule:evenodd;clip-rule:evenodd;fill:#8CC63F;}
	.st149{fill:url(#SVGID_132_);}
	.st150{fill:url(#SVGID_133_);}
	.st151{fill:url(#SVGID_134_);}
	.st152{fill:url(#SVGID_135_);}
	.st153{fill-rule:evenodd;clip-rule:evenodd;fill:#EE412E;}
	.st154{fill:url(#SVGID_136_);}
	.st155{fill:url(#SVGID_137_);}
	.st156{fill:url(#SVGID_138_);}
	.st157{fill:url(#SVGID_139_);}
	.st158{fill:url(#SVGID_140_);}
	.st159{fill:url(#SVGID_141_);}
	.st160{fill:url(#SVGID_142_);}
	.st161{fill:url(#SVGID_143_);}
	.st162{fill:url(#SVGID_144_);}
	.st163{fill:url(#SVGID_145_);}
	.st164{fill:url(#SVGID_146_);}
	.st165{fill:url(#SVGID_147_);}
	.st166{fill:url(#SVGID_148_);}
	.st167{fill:url(#SVGID_149_);}
	.st168{fill:url(#SVGID_150_);}
	.st169{fill:url(#SVGID_151_);}
	.st170{fill:url(#SVGID_152_);}
	.st171{fill:url(#SVGID_153_);}
	.st172{fill:url(#SVGID_154_);}
	.st173{fill:url(#SVGID_155_);}
	.st174{fill:url(#SVGID_156_);}
	.st175{fill:url(#SVGID_157_);}
	.st176{fill:url(#SVGID_158_);}
	.st177{fill:url(#SVGID_159_);}
	.st178{fill:url(#SVGID_160_);}
	.st179{fill:url(#SVGID_161_);}
	.st180{fill:url(#SVGID_162_);}
	.st181{fill:url(#SVGID_163_);}
	.st182{fill:url(#SVGID_164_);}
	.st183{fill:url(#SVGID_165_);}
	.st184{fill:url(#SVGID_166_);}
	.st185{fill:url(#SVGID_167_);}
	.st186{fill:url(#SVGID_168_);}
	.st187{fill:url(#SVGID_169_);}
	.st188{fill:url(#SVGID_170_);}
	.st189{fill:url(#SVGID_171_);}
	.st190{fill:url(#SVGID_172_);}
	.st191{fill:url(#SVGID_173_);}
	.st192{fill:url(#SVGID_174_);}
	.st193{fill:url(#SVGID_175_);}
	.st194{fill:url(#SVGID_176_);}
	.st195{fill:url(#SVGID_177_);}
</style>
<g>
	<polygon class="st0" points="26.211,22.049 31.076,22.049 29.067,9.481 24.202,9.481 	"/>
	
		<linearGradient id="SVGID_1_" gradientUnits="userSpaceOnUse" x1="-4698.2617" y1="-185.2913" x2="-4698.2617" y2="-180.1334" gradientTransform="matrix(-1 0 0 -1 -4671.2861 -172)">
		<stop  offset="0" style="stop-color:#079247"/>
		<stop  offset="1" style="stop-color:#8BC342"/>
	</linearGradient>
	<polygon class="st1" points="24.67,12.409 29.523,12.409 29.28,10.891 24.428,10.891 	"/>
	<polygon class="st0" points="12.833,22.049 17.697,22.049 15.688,9.481 10.824,9.481 	"/>
	
		<linearGradient id="SVGID_2_" gradientUnits="userSpaceOnUse" x1="-4684.8833" y1="-185.2913" x2="-4684.8833" y2="-180.1334" gradientTransform="matrix(-1 0 0 -1 -4671.2861 -172)">
		<stop  offset="0" style="stop-color:#079247"/>
		<stop  offset="1" style="stop-color:#8BC342"/>
	</linearGradient>
	<polygon class="st3" points="11.292,12.409 16.145,12.409 15.902,10.891 11.05,10.891 	"/>
	
		<linearGradient id="SVGID_3_" gradientUnits="userSpaceOnUse" x1="-4692.6714" y1="-194.2897" x2="-4692.6714" y2="-186.3311" gradientTransform="matrix(-1 0 0 -1 -4671.2861 -172)">
		<stop  offset="0" style="stop-color:#079247"/>
		<stop  offset="1" style="stop-color:#8BC342"/>
	</linearGradient>
	<path class="st4" d="M3.942,23.487h34.887l-1.135-7.23c-0.119-0.762-0.776-1.323-1.547-1.323H3.943v8.553H3.942z"/>
	<g>
		
			<linearGradient id="SVGID_4_" gradientUnits="userSpaceOnUse" x1="-4693.7856" y1="-205.6342" x2="-4693.7856" y2="-193.1024" gradientTransform="matrix(-1 0 0 -1 -4671.2861 -172)">
			<stop  offset="0" style="stop-color:#079247"/>
			<stop  offset="1" style="stop-color:#8BC342"/>
		</linearGradient>
		<path class="st7" d="M45,22.049l-5.906,10.164c-1.268,1.835-2.54,3.305-4.632,3.305h-3.743H3.854H3.181
			C1.09,35.519,0,22.049,0,22.049L45,22.049z"/>
	</g>
	<path class="st2" d="M41.503,28.068c0.119-0.192,0.151-0.25,0.28-0.482l0.237-0.411"/>
	<path class="st0" d="M36.581,27.586c0.088,0.088,0.229,0.088,0.317,0l0.053-0.053c0.051,0.969,0.852,1.74,1.832,1.74
		c0.978,0,1.776-0.768,1.832-1.731l0.054,0.054c0.044,0.044,0.101,0.065,0.159,0.065c0.057,0,0.115-0.021,0.159-0.065
		c0.088-0.088,0.088-0.23,0-0.317l-0.437-0.437c-0.042-0.042-0.099-0.065-0.159-0.065c-0.06,0-0.117,0.024-0.159,0.065l-0.426,0.426
		c-0.088,0.088-0.088,0.23,0,0.317c0.088,0.088,0.229,0.088,0.317,0l0.043-0.043c-0.048,0.64-0.533,1.16-1.158,1.261v-2.603
		c0.343-0.098,0.597-0.412,0.597-0.786c0-0.453-0.369-0.821-0.821-0.821c-0.453,0-0.821,0.369-0.821,0.821
		c0,0.375,0.253,0.688,0.597,0.786v2.603c-0.621-0.101-1.104-0.615-1.156-1.251l0.043,0.043c0.044,0.044,0.101,0.065,0.159,0.065
		c0.057,0,0.115-0.021,0.159-0.065c0.088-0.088,0.088-0.23,0-0.317l-0.437-0.437c-0.088-0.088-0.229-0.088-0.317,0l-0.426,0.426
		C36.493,27.356,36.493,27.498,36.581,27.586z M38.783,25.787c-0.205,0-0.372-0.168-0.372-0.372c0-0.205,0.168-0.372,0.372-0.372
		c0.205,0,0.372,0.168,0.372,0.372C39.156,25.619,38.988,25.787,38.783,25.787z"/>
	<circle class="st15" cx="33.838" cy="26.933" r="0.926"/>
	<circle class="st15" cx="29.943" cy="26.933" r="0.926"/>
	<circle class="st15" cx="26.047" cy="26.933" r="0.926"/>
	<circle class="st15" cx="22.152" cy="26.933" r="0.926"/>
	<circle class="st15" cx="18.258" cy="26.933" r="0.926"/>
	<circle class="st0" cx="14.362" cy="26.933" r="0.926"/>
	<circle class="st15" cx="14.362" cy="26.933" r="0.926"/>
	<circle class="st0" cx="10.467" cy="26.933" r="0.926"/>
	<circle class="st15" cx="10.467" cy="26.933" r="0.926"/>
	<circle class="st15" cx="6.572" cy="26.933" r="0.926"/>
	<circle class="st15" cx="35.493" cy="19.21" r="0.926"/>
	<circle class="st15" cx="31.598" cy="19.21" r="0.926"/>
	<circle class="st15" cx="27.702" cy="19.21" r="0.926"/>
	<circle class="st15" cx="23.807" cy="19.21" r="0.926"/>
	<circle class="st15" cx="19.913" cy="19.21" r="0.926"/>
	<circle class="st15" cx="16.018" cy="19.21" r="0.926"/>
	<circle class="st15" cx="12.122" cy="19.21" r="0.926"/>
	<circle class="st15" cx="8.227" cy="19.21" r="0.926"/>
	<g>
		<path class="st0" d="M1.19,30.939h38.644l-0.74,1.275c-0.297,0.43-0.594,0.837-0.902,1.213H1.806
			C1.58,32.709,1.375,31.854,1.19,30.939z"/>
	</g>
</g>
</svg>
