<?xml version="1.0" encoding="utf-8"?>
<!-- Generator: Adobe Illustrator 22.0.1, SVG Export Plug-In . SVG Version: 6.00 Build 0)  -->
<svg version="1.1" id="Layer_1" xmlns="http://www.w3.org/2000/svg" xmlns:xlink="http://www.w3.org/1999/xlink" x="0px" y="0px"
	 width="45px" height="45px" viewBox="0 0 45 45" style="enable-background:new 0 0 45 45;" xml:space="preserve">
<style type="text/css">
	.st0{fill:#005129;}
	.st1{fill:url(#SVGID_1_);}
	.st2{fill:#7A0511;}
	.st3{fill:url(#SVGID_2_);}
	.st4{fill:url(#SVGID_3_);}
	.st5{fill:none;stroke:#7A0511;stroke-width:1.1677;stroke-miterlimit:10;}
	.st6{fill:none;stroke:#7A0511;stroke-width:1.022;stroke-miterlimit:10;}
	.st7{fill:url(#SVGID_4_);}
	.st8{fill:url(#SVGID_5_);}
	.st9{fill:url(#SVGID_6_);}
	.st10{fill:url(#SVGID_7_);}
	.st11{fill:url(#SVGID_8_);}
	.st12{fill:url(#SVGID_9_);}
	.st13{fill:url(#SVGID_10_);}
	.st14{fill:url(#SVGID_11_);}
	.st15{fill:#231F20;}
	.st16{fill:url(#SVGID_12_);}
	.st17{fill:url(#SVGID_13_);}
	.st18{fill:url(#SVGID_14_);}
	.st19{fill:url(#SVGID_15_);}
	.st20{fill:url(#SVGID_16_);}
	.st21{fill:url(#SVGID_17_);}
	.st22{fill:url(#SVGID_18_);}
	.st23{fill:url(#SVGID_19_);}
	.st24{fill:url(#SVGID_20_);}
	.st25{fill:url(#SVGID_21_);}
	.st26{fill:url(#SVGID_22_);}
	.st27{fill:#8CC63F;}
	.st28{fill:url(#SVGCleanerId_0_8_);}
	.st29{fill:url(#SVGCleanerId_0_9_);}
	.st30{fill:url(#SVGID_23_);}
	.st31{fill:url(#SVGID_24_);}
	.st32{fill:#EE412E;}
	.st33{fill:url(#SVGCleanerId_0_10_);}
	.st34{fill:url(#SVGID_25_);}
	.st35{fill:url(#SVGID_26_);}
	.st36{fill:url(#SVGID_27_);}
	.st37{fill:url(#SVGID_28_);}
	.st38{fill:url(#SVGID_29_);}
	.st39{fill:url(#SVGID_30_);}
	.st40{fill:url(#SVGID_31_);}
	.st41{fill:url(#SVGID_32_);}
	.st42{fill:url(#SVGID_33_);}
	.st43{fill:url(#SVGID_34_);}
	.st44{fill:#006838;}
	.st45{fill:url(#SVGID_35_);}
	.st46{fill:url(#SVGID_36_);}
	.st47{fill:url(#SVGID_37_);}
	.st48{fill:url(#SVGID_38_);}
	.st49{fill:url(#SVGID_39_);}
	.st50{fill:url(#SVGID_40_);}
	.st51{fill:url(#SVGID_41_);}
	.st52{fill:url(#SVGID_42_);}
	.st53{fill:url(#SVGID_43_);}
	.st54{fill:url(#SVGID_44_);}
	.st55{fill:url(#SVGID_45_);}
	.st56{fill:url(#SVGID_46_);}
	.st57{fill:url(#SVGID_47_);}
	.st58{fill:url(#SVGID_48_);}
	.st59{fill:url(#SVGID_49_);}
	.st60{fill:url(#SVGID_50_);}
	.st61{fill:url(#SVGID_51_);}
	.st62{fill:url(#SVGID_52_);}
	.st63{fill:url(#SVGID_53_);}
	.st64{fill:url(#SVGID_54_);}
	.st65{fill:url(#SVGID_55_);}
	.st66{fill:url(#SVGID_56_);}
	.st67{fill:url(#SVGID_57_);}
	.st68{fill:url(#SVGID_58_);}
	.st69{fill:url(#SVGID_59_);}
	.st70{fill:url(#SVGID_60_);}
	.st71{fill:url(#SVGID_61_);}
	.st72{fill:url(#SVGID_62_);}
	.st73{fill:url(#SVGID_63_);}
	.st74{fill:url(#SVGID_64_);}
	.st75{fill:url(#SVGID_65_);}
	.st76{fill:url(#SVGID_66_);}
	.st77{fill:url(#SVGID_67_);}
	.st78{fill:url(#SVGID_68_);}
	.st79{fill:url(#SVGID_69_);}
	.st80{fill:url(#SVGID_70_);}
	.st81{fill:url(#SVGID_71_);}
	.st82{fill:url(#SVGID_72_);}
	.st83{fill:url(#SVGID_73_);}
	.st84{fill:url(#SVGID_74_);}
	.st85{fill:url(#SVGID_75_);}
	.st86{fill:url(#SVGID_76_);}
	.st87{fill:url(#SVGID_77_);}
	.st88{fill:url(#SVGID_78_);}
	.st89{fill:url(#SVGID_79_);}
	.st90{fill:url(#SVGID_80_);}
	.st91{fill:url(#SVGID_81_);}
	.st92{fill:url(#SVGID_82_);}
	.st93{fill:url(#SVGID_83_);}
	.st94{fill:url(#SVGID_84_);}
	.st95{fill:url(#SVGID_85_);}
	.st96{fill:url(#SVGID_86_);}
	.st97{fill:url(#SVGID_87_);}
	.st98{fill:url(#SVGID_88_);}
	.st99{fill:#91ACB4;}
	.st100{fill:url(#SVGCleanerId_0_11_);}
	.st101{fill:url(#SVGID_89_);}
	.st102{fill:url(#SVGID_90_);}
	.st103{fill:url(#SVGID_91_);}
	.st104{fill:url(#SVGID_92_);}
	.st105{fill:url(#SVGID_93_);}
	.st106{fill:url(#SVGCleanerId_0_12_);}
	.st107{fill:url(#SVGID_94_);}
	.st108{fill:url(#SVGID_95_);}
	.st109{fill:url(#SVGID_96_);}
	.st110{fill:url(#SVGID_97_);}
	.st111{fill:url(#SVGID_98_);}
	.st112{fill:url(#SVGID_99_);}
	.st113{fill:url(#SVGID_100_);}
	.st114{fill:url(#SVGID_101_);}
	.st115{fill:url(#SVGID_102_);}
	.st116{fill:url(#SVGID_103_);}
	.st117{fill:url(#SVGID_104_);}
	.st118{fill:url(#SVGID_105_);}
	.st119{fill:url(#SVGID_106_);}
	.st120{fill:url(#SVGID_107_);}
	.st121{fill:url(#SVGID_108_);}
	.st122{fill:url(#SVGID_109_);}
	.st123{fill:url(#SVGID_110_);}
	.st124{fill:url(#SVGID_111_);}
	.st125{fill:url(#SVGID_112_);}
	.st126{fill:url(#SVGID_113_);}
	.st127{fill:url(#SVGID_114_);}
	.st128{fill:url(#SVGID_115_);}
	.st129{fill:url(#SVGID_116_);}
	.st130{fill:url(#SVGID_117_);}
	.st131{fill:url(#SVGID_118_);}
	.st132{fill:url(#SVGID_119_);}
	.st133{fill:url(#SVGID_120_);}
	.st134{fill:url(#SVGID_121_);}
	.st135{fill:url(#SVGID_122_);}
	.st136{fill:#535353;}
	.st137{fill:#A1A0A0;}
	.st138{fill:#CACCD0;}
	.st139{fill:url(#SVGID_123_);}
	.st140{fill:url(#SVGID_124_);}
	.st141{fill:url(#SVGID_125_);}
	.st142{fill:url(#SVGID_126_);}
	.st143{fill:url(#SVGID_127_);}
	.st144{fill:url(#SVGID_128_);}
	.st145{fill:url(#SVGID_129_);}
	.st146{fill:url(#SVGID_130_);}
	.st147{fill:url(#SVGID_131_);}
	.st148{fill-rule:evenodd;clip-rule:evenodd;fill:#8CC63F;}
	.st149{fill:url(#SVGID_132_);}
	.st150{fill:url(#SVGID_133_);}
	.st151{fill:url(#SVGID_134_);}
	.st152{fill:url(#SVGID_135_);}
	.st153{fill-rule:evenodd;clip-rule:evenodd;fill:#EE412E;}
	.st154{fill:url(#SVGID_136_);}
	.st155{fill:url(#SVGID_137_);}
	.st156{fill:url(#SVGID_138_);}
	.st157{fill:url(#SVGID_139_);}
	.st158{fill:url(#SVGID_140_);}
	.st159{fill:url(#SVGID_141_);}
	.st160{fill:url(#SVGID_142_);}
	.st161{fill:url(#SVGID_143_);}
	.st162{fill:url(#SVGID_144_);}
	.st163{fill:url(#SVGID_145_);}
	.st164{fill:url(#SVGID_146_);}
	.st165{fill:url(#SVGID_147_);}
	.st166{fill:url(#SVGID_148_);}
	.st167{fill:url(#SVGID_149_);}
	.st168{fill:url(#SVGID_150_);}
	.st169{fill:url(#SVGID_151_);}
	.st170{fill:url(#SVGID_152_);}
	.st171{fill:url(#SVGID_153_);}
	.st172{fill:url(#SVGID_154_);}
	.st173{fill:url(#SVGID_155_);}
	.st174{fill:url(#SVGID_156_);}
	.st175{fill:url(#SVGID_157_);}
	.st176{fill:url(#SVGID_158_);}
	.st177{fill:url(#SVGID_159_);}
	.st178{fill:url(#SVGID_160_);}
	.st179{fill:url(#SVGID_161_);}
	.st180{fill:url(#SVGID_162_);}
	.st181{fill:url(#SVGID_163_);}
	.st182{fill:url(#SVGID_164_);}
	.st183{fill:url(#SVGID_165_);}
	.st184{fill:url(#SVGID_166_);}
	.st185{fill:url(#SVGID_167_);}
	.st186{fill:url(#SVGID_168_);}
	.st187{fill:url(#SVGID_169_);}
	.st188{fill:url(#SVGID_170_);}
	.st189{fill:url(#SVGID_171_);}
	.st190{fill:url(#SVGID_172_);}
	.st191{fill:url(#SVGID_173_);}
	.st192{fill:url(#SVGID_174_);}
	.st193{fill:url(#SVGID_175_);}
	.st194{fill:url(#SVGID_176_);}
	.st195{fill:url(#SVGID_177_);}
	.st196{fill:url(#SVGID_178_);}
	.st197{fill:url(#SVGID_179_);}
</style>
<g>
	<g>
		<path class="st15" d="M5.5,26.4C0.9,28.6-1,34,1.1,38.6c2.2,4.6,7.6,6.6,12.2,4.4s6.6-7.6,4.4-12.2C15.6,26.2,10.1,24.2,5.5,26.4z
			 M16,31.4l-5.3,2.5c-0.2-0.3-0.4-0.5-0.6-0.6l2-5.5C13.8,28.5,15.2,29.7,16,31.4z M9.8,33.2c-0.3-0.1-0.6-0.1-0.9,0L6.5,28
			c1.7-0.8,3.6-0.8,5.3-0.2L9.8,33.2z M8.6,33.4C8.4,33.5,8.2,33.8,8,34l-5.5-2c0.6-1.7,1.9-3.1,3.6-3.9L8.6,33.4z M9.1,36.2
			c0.3,0.1,0.6,0.1,0.8,0l2.5,5.3c-1.7,0.8-3.6,0.8-5.3,0.3L9.1,36.2z M10.3,36c0.3-0.2,0.4-0.4,0.6-0.6l5.5,2
			c-0.6,1.6-1.9,3.1-3.6,3.9L10.3,36z M2.5,32.4l5.5,2c-0.1,0.3-0.1,0.6,0,0.9l-5.3,2.5C1.9,36,1.9,34.1,2.5,32.4z M2.9,38l5.3-2.5
			c0.2,0.3,0.4,0.4,0.6,0.6l-2,5.5C5.1,41,3.7,39.7,2.9,38z M16.4,37.1l-5.5-2c0.1-0.3,0.1-0.6,0-0.9l5.3-2.5
			C17,33.5,17,35.4,16.4,37.1z"/>
	</g>
	<g>
		<path class="st15" d="M34.1,25.6c-5,0.8-8.4,5.5-7.6,10.5c0.8,5,5.5,8.4,10.5,7.6s8.4-5.5,7.6-10.5C43.8,28.2,39.1,24.8,34.1,25.6
			z M42.8,33.4l-5.7,0.9c-0.1-0.3-0.2-0.5-0.4-0.7l3.4-4.7C41.4,29.9,42.5,31.5,42.8,33.4z M36.3,33.4c-0.3-0.1-0.5-0.2-0.8-0.2
			l-0.9-5.7c1.9-0.3,3.7,0.2,5.2,1.2L36.3,33.4z M35.1,33.2c-0.3,0.1-0.5,0.2-0.7,0.5l-4.7-3.4c1.1-1.4,2.7-2.4,4.5-2.8L35.1,33.2z
			 M34.8,36.1c0.2,0.1,0.5,0.2,0.8,0.2l0.9,5.7c-1.9,0.3-3.7-0.2-5.2-1.2L34.8,36.1z M36,36.2c0.3-0.1,0.5-0.2,0.7-0.4l4.7,3.4
			c-1.1,1.4-2.6,2.4-4.5,2.8L36,36.2z M29.5,30.6l4.7,3.4C34,34.2,34,34.5,34,34.8l-5.7,0.9C28,33.8,28.5,32,29.5,30.6z M28.3,36.1
			l5.7-0.9c0.1,0.3,0.2,0.5,0.5,0.7l-3.4,4.7C29.7,39.5,28.7,37.9,28.3,36.1z M41.6,38.9l-4.7-3.4c0.1-0.2,0.2-0.5,0.2-0.8l5.7-0.9
			C43.1,35.6,42.6,37.4,41.6,38.9z"/>
	</g>
	<linearGradient id="SVGID_1_" gradientUnits="userSpaceOnUse" x1="22.4761" y1="36.6927" x2="22.4761" y2="18.3046">
		<stop  offset="0" style="stop-color:#079247"/>
		<stop  offset="1" style="stop-color:#8BC342"/>
	</linearGradient>
	<path class="st1" d="M36.2,34.2l-2.3-3.8l-3.8-10.7c-0.1-0.4-0.6-0.6-1-0.5c-0.4,0.1-0.6,0.6-0.5,1l0.2,0.6c-3.3,1-5,3.5-6.5,5.4
		c-0.9,1.2-1.6,2.2-2.5,2.8l-2.8-7.9l-1.4,0.5l1.6,4.5L8.9,34c-0.2,0.2-0.3,0.5-0.2,0.8s0.4,0.5,0.7,0.5h11.5c2.3,0,3.5-2.3,4.6-4.7
		c1.1-2.3,2.3-4.8,4.7-5.9l2.3,6.3c0,0,0,0.1,0.1,0.1l2.3,3.8c0.1,0.2,0.4,0.4,0.7,0.4c0.1,0,0.3,0,0.4-0.1
		C36.3,35,36.4,34.5,36.2,34.2z M17.8,27.9l2.1,5.9h-8.5L17.8,27.9z M24.2,29.9c-1,2.1-1.7,3.5-2.7,3.8l-1.1-3.1
		c1.3-0.7,2.3-2,3.3-3.4c1.4-2,2.9-4,5.8-4.9l0.3,0.9C26.8,24.5,25.3,27.5,24.2,29.9z"/>
	<path class="st15" d="M12.9,21.5c0,0.4,0.3,0.8,0.8,0.8l2.3-0.2c0.5,0,2.2-0.5,3.2-0.7c0.4-0.1,0.6-0.2,0.7-0.5l0,0
		c0-0.5-0.4-0.9-0.9-0.9h-4.5C13.6,20,12.9,20.7,12.9,21.5L12.9,21.5L12.9,21.5z"/>
	<path d="M29.9,21.5c0.1,0,0.2-0.1,0.3-0.2c0.2-0.2,0.2-0.5,0.1-0.8l-0.7-1.8c-0.5-1.5-2.2-2.2-3.6-1.7c-0.4,0.1-0.6,0.6-0.4,1
		s0.6,0.6,1,0.4c0.7-0.3,1.5,0.1,1.7,0.8l0.5,1.3l0.2,0.4C29.1,21.4,29.6,21.6,29.9,21.5z"/>
</g>
</svg>
