<?xml version="1.0" encoding="utf-8"?>
<!-- Generator: Adobe Illustrator 25.2.3, SVG Export Plug-In . SVG Version: 6.00 Build 0)  -->
<svg version="1.1" id="Layer_1" xmlns="http://www.w3.org/2000/svg" xmlns:xlink="http://www.w3.org/1999/xlink" x="0px" y="0px"
	 width="40px" height="40px" viewBox="0 0 40 40" style="enable-background:new 0 0 40 40;" xml:space="preserve">
<style type="text/css">
	.st0{fill:#005129;}
	.st1{fill:#231F20;}
	.st2{fill:url(#SVGID_1_);}
	.st3{fill:url(#SVGID_2_);}
	.st4{fill:url(#SVGID_3_);}
	.st5{fill:url(#SVGID_4_);}
	.st6{fill:#7A0511;}
	.st7{fill:#006838;}
	.st8{fill:url(#SVGID_5_);}
	.st9{fill:url(#SVGID_6_);}
	.st10{fill:url(#SVGID_7_);}
	.st11{fill:url(#SVGID_8_);}
	.st12{fill:url(#SVGID_9_);}
	.st13{fill:url(#SVGID_10_);}
	.st14{fill:url(#SVGID_11_);}
	.st15{fill:url(#SVGID_12_);}
	.st16{fill:url(#SVGID_13_);}
	.st17{fill:url(#SVGID_14_);}
	.st18{fill:url(#SVGID_15_);}
	.st19{fill:url(#SVGID_16_);}
	.st20{fill:#3E6CB3;}
	.st21{fill:url(#SVGID_17_);}
	.st22{fill:url(#SVGID_18_);}
	.st23{fill:url(#SVGID_19_);}
	.st24{fill:none;stroke:#7A0511;stroke-width:1.038;stroke-miterlimit:10;}
	.st25{fill:none;stroke:#7A0511;stroke-width:0.9085;stroke-miterlimit:10;}
	.st26{fill:url(#SVGID_20_);}
	.st27{fill:#FCD4C1;}
	.st28{fill:url(#SVGID_21_);}
	.st29{fill:url(#SVGID_22_);}
	.st30{fill:url(#SVGID_23_);}
	.st31{fill:url(#SVGID_24_);}
	.st32{fill:url(#SVGID_25_);}
	.st33{fill:url(#SVGID_26_);}
	.st34{fill:url(#SVGID_27_);}
	.st35{fill:url(#SVGID_28_);}
	.st36{fill:url(#SVGID_29_);}
	.st37{fill:url(#SVGID_30_);}
	.st38{fill:url(#SVGID_31_);}
	.st39{fill:url(#SVGID_32_);}
	.st40{fill:url(#SVGID_33_);}
	.st41{fill:none;stroke:#231F20;stroke-width:0.322;stroke-linecap:round;stroke-linejoin:round;stroke-miterlimit:10;}
	.st42{fill:none;stroke:#7A0511;stroke-width:0.6439;stroke-linecap:round;stroke-linejoin:round;stroke-miterlimit:10;}
	.st43{fill:url(#SVGID_34_);}
	.st44{fill:#7A0511;stroke:#7A0511;stroke-width:0.6439;stroke-linecap:round;stroke-linejoin:round;stroke-miterlimit:10;}
	.st45{fill:url(#SVGID_35_);}
	.st46{fill:url(#SVGID_36_);}
	.st47{fill:url(#SVGID_37_);}
	.st48{fill:url(#SVGID_38_);}
	.st49{fill:url(#SVGID_39_);}
	.st50{fill:url(#SVGID_40_);}
	.st51{fill:url(#SVGID_41_);}
	.st52{fill:url(#SVGID_42_);}
	.st53{fill:url(#SVGID_43_);}
	.st54{fill:url(#SVGID_44_);}
	.st55{fill:url(#SVGID_45_);}
	.st56{fill:url(#SVGID_46_);}
	.st57{fill:url(#SVGID_47_);}
	.st58{fill:url(#SVGID_48_);}
	.st59{fill:url(#SVGID_49_);}
	.st60{fill:url(#SVGID_50_);}
	.st61{fill:url(#SVGID_51_);}
	.st62{fill:url(#SVGID_52_);}
	.st63{fill:url(#SVGID_53_);}
	.st64{fill:url(#SVGID_54_);}
	.st65{fill:url(#SVGID_55_);}
	.st66{fill:url(#SVGID_56_);}
	.st67{fill:url(#SVGID_57_);}
	.st68{fill:url(#SVGID_58_);}
	.st69{fill:url(#SVGID_59_);}
	.st70{fill:url(#SVGID_60_);}
	.st71{fill:url(#SVGID_61_);}
	.st72{fill:url(#SVGID_62_);}
	.st73{fill:url(#SVGID_63_);}
	.st74{fill:url(#SVGID_64_);}
	.st75{fill:url(#SVGID_65_);}
	.st76{fill:url(#SVGID_66_);}
	.st77{fill:url(#SVGID_67_);}
	.st78{fill:url(#SVGID_68_);}
	.st79{fill:url(#SVGID_69_);}
	.st80{fill:url(#SVGID_70_);}
	.st81{fill:url(#SVGID_71_);}
	.st82{fill:url(#SVGID_72_);}
	.st83{fill:url(#SVGID_73_);}
	.st84{fill:url(#SVGID_74_);}
	.st85{fill:url(#SVGID_75_);}
	.st86{fill:url(#SVGID_76_);}
	.st87{fill:url(#SVGID_77_);}
	.st88{fill:url(#SVGID_78_);}
	.st89{fill:url(#SVGID_79_);}
	.st90{fill:url(#SVGID_80_);}
	.st91{fill:url(#SVGID_81_);}
	.st92{fill:url(#SVGID_82_);}
	.st93{fill:#91ACB4;}
	.st94{fill:url(#SVGCleanerId_0_1_);}
	.st95{fill:url(#SVGID_83_);}
	.st96{fill:url(#SVGID_84_);}
	.st97{fill:url(#SVGID_85_);}
	.st98{fill:url(#SVGID_86_);}
	.st99{fill:url(#SVGID_87_);}
	.st100{fill:url(#SVGCleanerId_0_2_);}
	.st101{fill:url(#SVGID_88_);}
	.st102{fill:url(#SVGID_89_);}
	.st103{fill:url(#SVGID_90_);}
	.st104{fill:url(#SVGID_91_);}
	.st105{fill:url(#SVGID_92_);}
	.st106{fill:url(#SVGID_93_);}
	.st107{fill:url(#SVGID_94_);}
	.st108{fill:url(#SVGID_95_);}
	.st109{fill:url(#SVGID_96_);}
	.st110{fill:url(#SVGID_97_);}
	.st111{fill:url(#SVGID_98_);}
	.st112{fill:url(#SVGID_99_);}
	.st113{fill:url(#SVGID_100_);}
	.st114{fill:url(#SVGID_101_);}
	.st115{fill:url(#SVGID_102_);}
	.st116{fill:url(#SVGID_103_);}
	.st117{fill:url(#SVGID_104_);}
	.st118{fill:url(#SVGID_105_);}
	.st119{fill:url(#SVGID_106_);}
	.st120{fill:url(#SVGID_107_);}
	.st121{fill:url(#SVGID_108_);}
	.st122{fill:url(#SVGID_109_);}
	.st123{fill:url(#SVGID_110_);}
	.st124{fill:url(#SVGID_111_);}
	.st125{fill:url(#SVGID_112_);}
	.st126{fill:url(#SVGID_113_);}
	.st127{fill:url(#SVGID_114_);}
	.st128{fill:url(#SVGID_115_);}
	.st129{fill:url(#SVGID_116_);}
	.st130{fill:url(#SVGID_117_);}
	.st131{fill:url(#SVGID_118_);}
	.st132{fill:url(#SVGID_119_);}
	.st133{fill:url(#SVGID_120_);}
	.st134{fill:url(#SVGID_121_);}
	.st135{fill:url(#SVGID_122_);}
	.st136{fill:url(#SVGID_123_);}
	.st137{fill:url(#SVGID_124_);}
	.st138{fill:url(#SVGID_125_);}
	.st139{fill:url(#SVGID_126_);}
	.st140{fill:url(#SVGID_127_);}
	.st141{fill:url(#SVGID_128_);}
	.st142{fill:url(#SVGID_129_);}
	.st143{fill:url(#SVGID_130_);}
	.st144{fill:url(#SVGID_131_);}
	.st145{fill:url(#SVGID_132_);}
	.st146{fill:url(#SVGID_133_);}
	.st147{fill:url(#SVGID_134_);}
	.st148{fill:url(#SVGID_135_);}
	.st149{fill:url(#SVGID_136_);}
	.st150{fill:url(#SVGID_137_);}
	.st151{fill:url(#SVGID_138_);}
	.st152{fill:url(#SVGID_139_);}
	.st153{fill:url(#SVGID_140_);}
	.st154{fill:url(#SVGID_141_);}
	.st155{fill:url(#SVGID_142_);}
	.st156{fill:url(#SVGID_143_);}
	.st157{fill:url(#SVGID_144_);}
	.st158{fill:url(#SVGID_145_);}
	.st159{fill:url(#SVGID_146_);}
	.st160{fill:url(#SVGID_147_);}
	.st161{fill:url(#SVGID_148_);}
	.st162{fill:#535353;}
	.st163{fill:#A1A0A0;}
	.st164{fill:#CACCD0;}
	.st165{fill:url(#SVGID_149_);}
	.st166{fill:url(#SVGID_150_);}
	.st167{fill:url(#SVGID_151_);}
	.st168{fill:url(#SVGID_152_);}
	.st169{fill:url(#SVGID_153_);}
	.st170{fill:url(#SVGID_154_);}
	.st171{fill:url(#SVGID_155_);}
	.st172{fill:url(#SVGID_156_);}
	.st173{fill:url(#SVGID_157_);}
	.st174{fill:url(#SVGID_158_);}
	.st175{fill:url(#SVGID_159_);}
	.st176{fill:url(#SVGID_160_);}
	.st177{fill:url(#SVGID_161_);}
	.st178{fill:url(#SVGID_162_);}
	.st179{fill:url(#SVGID_163_);}
	.st180{fill:url(#SVGID_164_);}
	.st181{fill:url(#SVGID_165_);}
	.st182{fill:url(#SVGCleanerId_0_3_);}
	.st183{fill:url(#SVGCleanerId_0_16_);}
	.st184{fill:url(#SVGID_166_);}
	.st185{fill:url(#SVGID_167_);}
	.st186{fill:url(#SVGCleanerId_0_17_);}
	.st187{fill:url(#SVGCleanerId_0_18_);}
	.st188{fill:url(#SVGID_168_);}
	.st189{fill:url(#SVGID_169_);}
	.st190{fill:url(#SVGID_170_);}
	.st191{fill:url(#SVGID_171_);}
	.st192{fill:url(#SVGID_172_);}
	.st193{fill:url(#SVGID_173_);}
	.st194{fill:url(#SVGID_174_);}
	.st195{fill:url(#SVGID_175_);}
	.st196{fill:url(#SVGCleanerId_0_19_);}
	.st197{fill:url(#SVGCleanerId_0_20_);}
	.st198{fill:url(#SVGID_176_);}
	.st199{fill:url(#SVGID_177_);}
	.st200{fill:url(#SVGCleanerId_0_21_);}
	.st201{fill:url(#SVGCleanerId_0_22_);}
	.st202{fill:url(#SVGID_178_);}
	.st203{fill:url(#SVGID_179_);}
	.st204{fill:url(#SVGID_180_);}
	.st205{fill:url(#SVGID_181_);}
	.st206{fill:url(#SVGID_182_);}
	.st207{fill:url(#SVGID_183_);}
	.st208{fill:url(#SVGID_184_);}
	.st209{fill:url(#SVGID_185_);}
	.st210{fill:url(#SVGID_186_);}
	.st211{fill:url(#SVGID_187_);}
	.st212{fill:url(#SVGID_188_);}
	.st213{fill:url(#SVGID_189_);}
	.st214{fill:url(#SVGID_190_);}
	.st215{fill:url(#SVGID_191_);}
	.st216{fill:url(#SVGID_192_);}
	.st217{fill:url(#SVGID_193_);}
	.st218{fill:url(#SVGID_194_);}
	.st219{fill:url(#SVGID_195_);}
	.st220{fill:url(#SVGID_196_);}
	.st221{fill:url(#SVGID_197_);}
	.st222{fill:url(#SVGID_198_);}
	.st223{fill:url(#SVGID_199_);}
	.st224{fill:url(#SVGID_200_);}
	.st225{fill:url(#SVGID_201_);}
	.st226{fill:url(#SVGID_202_);}
	.st227{fill:url(#SVGID_203_);}
	.st228{fill:none;stroke:#231F20;stroke-width:16;stroke-miterlimit:10;}
	.st229{fill:url(#SVGID_204_);}
	.st230{fill:url(#SVGID_205_);}
	.st231{fill:none;stroke:#231F20;stroke-width:6;stroke-miterlimit:10;}
	.st232{fill:url(#SVGID_206_);}
	.st233{fill:url(#SVGID_207_);}
	.st234{fill:url(#SVGID_208_);}
	.st235{fill:url(#SVGID_209_);}
	.st236{fill:url(#SVGID_210_);}
	.st237{fill:url(#SVGID_211_);}
	.st238{fill:url(#SVGID_212_);}
	.st239{fill:url(#SVGID_213_);}
	.st240{fill:url(#SVGID_214_);}
	.st241{fill:url(#SVGID_215_);}
	.st242{fill:url(#SVGID_216_);}
	.st243{fill:url(#SVGID_217_);}
	.st244{fill:url(#SVGID_218_);}
	.st245{fill:url(#SVGID_219_);}
	.st246{fill:url(#SVGID_220_);}
	.st247{fill:url(#SVGID_221_);}
</style>
<path class="st1" d="M30.2,24.2v2.3H13.9c-0.3-1.1-1.3-2-2.6-2s-2.3,0.8-2.6,2H2.8c-0.5,0-1-0.4-1-1v-1.4H30.2z"/>
<path class="st6" d="M19.6,24.2H8.4c-4.5,0-7.9-4.2-7-8.6l0,0C2.1,12.4,5,10,8.4,10h13.9c3.9,0,7.1,3.2,7.1,7.1v0
	c0,3.9-3.2,7.1-7.1,7.1H19.6z"/>
<linearGradient id="SVGID_1_" gradientUnits="userSpaceOnUse" x1="34.5219" y1="28.0902" x2="34.5219" y2="12.8242">
	<stop  offset="0" style="stop-color:#BD212F"/>
	<stop  offset="0.4302" style="stop-color:#EE412E"/>
</linearGradient>
<path class="st2" d="M39.6,21.3l-3.4-6.1c-0.1-0.2-0.4-0.4-0.6-0.4h-6.2V26c0,0.6,0.5,1.2,1.2,1.2h0c0.1-1.4,1.3-2.5,2.7-2.5
	c1.4,0,2.6,1.1,2.7,2.5h1.9v-0.9h1.9v-4.6C39.7,21.5,39.6,21.4,39.6,21.3z M36.4,20.4h-5.3c-0.3,0-0.6-0.3-0.6-0.6v-3.2
	c0-0.3,0.3-0.6,0.6-0.6h3.5c0.2,0,0.4,0.1,0.5,0.3l1.7,3.2C37.2,19.9,36.9,20.4,36.4,20.4z"/>
<path class="st1" d="M39.7,26.2h-1.9v1.4h1.9c0.2,0,0.3-0.1,0.3-0.3v-0.7C40,26.4,39.9,26.2,39.7,26.2z"/>
<path class="st1" d="M36.3,27.2h-0.4c-0.1-1.4-1.2-2.5-2.7-2.5c-1.4,0-2.6,1.1-2.7,2.5h-0.4c0.1-1.6,1.4-2.9,3.1-2.9
	S36.2,25.5,36.3,27.2z"/>
<circle class="st1" cx="11.3" cy="27.3" r="2.7"/>
<linearGradient id="SVGID_2_" gradientUnits="userSpaceOnUse" x1="11.2871" y1="29.9434" x2="11.2871" y2="24.602">
	<stop  offset="0" style="stop-color:#BD212F"/>
	<stop  offset="0.4302" style="stop-color:#EE412E"/>
</linearGradient>
<circle class="st3" cx="11.3" cy="27.3" r="1.7"/>
<circle class="st6" cx="11.3" cy="27.3" r="0.8"/>
<circle class="st1" cx="5.9" cy="27.3" r="2.7"/>
<linearGradient id="SVGID_3_" gradientUnits="userSpaceOnUse" x1="5.9292" y1="29.9434" x2="5.9292" y2="24.602">
	<stop  offset="0" style="stop-color:#BD212F"/>
	<stop  offset="0.4302" style="stop-color:#EE412E"/>
</linearGradient>
<circle class="st4" cx="5.9" cy="27.3" r="1.7"/>
<circle class="st6" cx="5.9" cy="27.3" r="0.8"/>
<circle class="st1" cx="33.2" cy="27.3" r="2.7"/>
<linearGradient id="SVGID_4_" gradientUnits="userSpaceOnUse" x1="33.2339" y1="29.9434" x2="33.2339" y2="24.602">
	<stop  offset="0" style="stop-color:#BD212F"/>
	<stop  offset="0.4302" style="stop-color:#EE412E"/>
</linearGradient>
<circle class="st5" cx="33.2" cy="27.3" r="1.7"/>
<circle class="st6" cx="33.2" cy="27.3" r="0.8"/>
<path class="st6" d="M32.1,21.7h-1.6c-0.1,0-0.1,0-0.1-0.1l-0.1-0.2c-0.1-0.1,0-0.2,0.1-0.2h1.9c0.1,0,0.2,0.1,0.1,0.2l-0.1,0.2
	C32.2,21.7,32.2,21.7,32.1,21.7z"/>
<path class="st6" d="M39.3,24.1h0.3v1.7h-0.3c-0.3,0-0.5-0.2-0.5-0.5v-0.6C38.8,24.3,39.1,24.1,39.3,24.1z"/>
<linearGradient id="SVGID_5_" gradientUnits="userSpaceOnUse" x1="4.7349" y1="24.5481" x2="4.7349" y2="19.5128">
	<stop  offset="0" style="stop-color:#BD212F"/>
	<stop  offset="0.4302" style="stop-color:#EE412E"/>
</linearGradient>
<path class="st8" d="M7.7,24.2H1.8v-4.1h1.8C5.8,20.2,7.7,22,7.7,24.2L7.7,24.2z"/>
</svg>
