<?xml version="1.0" encoding="utf-8"?>
<!-- Generator: Adobe Illustrator 25.2.3, SVG Export Plug-In . SVG Version: 6.00 Build 0)  -->
<svg version="1.1" id="Layer_1" xmlns="http://www.w3.org/2000/svg" xmlns:xlink="http://www.w3.org/1999/xlink" x="0px" y="0px"
	 width="40px" height="40px" viewBox="0 0 40 40" style="enable-background:new 0 0 40 40;" xml:space="preserve">
<style type="text/css">
	.st0{fill:#005129;}
	.st1{fill:#231F20;}
	.st2{fill:url(#SVGID_1_);}
	.st3{fill:url(#SVGID_2_);}
	.st4{fill:url(#SVGID_3_);}
	.st5{fill:url(#SVGID_4_);}
	.st6{fill:#7A0511;}
	.st7{fill:#006838;}
	.st8{fill:url(#SVGID_5_);}
	.st9{fill:url(#SVGID_6_);}
	.st10{fill:url(#SVGID_7_);}
	.st11{fill:url(#SVGID_8_);}
	.st12{fill:url(#SVGID_9_);}
	.st13{fill:url(#SVGID_10_);}
	.st14{fill:url(#SVGID_11_);}
	.st15{fill:url(#SVGID_12_);}
	.st16{fill:url(#SVGID_13_);}
	.st17{fill:url(#SVGID_14_);}
	.st18{fill:url(#SVGID_15_);}
	.st19{fill:url(#SVGID_16_);}
	.st20{fill:#3E6CB3;}
	.st21{fill:url(#SVGID_17_);}
	.st22{fill:url(#SVGID_18_);}
	.st23{fill:url(#SVGID_19_);}
	.st24{fill:none;stroke:#7A0511;stroke-width:1.038;stroke-miterlimit:10;}
	.st25{fill:none;stroke:#7A0511;stroke-width:0.9085;stroke-miterlimit:10;}
	.st26{fill:url(#SVGID_20_);}
	.st27{fill:#FCD4C1;}
	.st28{fill:url(#SVGID_21_);}
	.st29{fill:url(#SVGID_22_);}
	.st30{fill:url(#SVGID_23_);}
	.st31{fill:url(#SVGID_24_);}
	.st32{fill:url(#SVGID_25_);}
	.st33{fill:url(#SVGID_26_);}
	.st34{fill:url(#SVGID_27_);}
	.st35{fill:url(#SVGID_28_);}
	.st36{fill:url(#SVGID_29_);}
	.st37{fill:url(#SVGID_30_);}
	.st38{fill:url(#SVGID_31_);}
	.st39{fill:url(#SVGID_32_);}
	.st40{fill:url(#SVGID_33_);}
	.st41{fill:none;stroke:#231F20;stroke-width:0.322;stroke-linecap:round;stroke-linejoin:round;stroke-miterlimit:10;}
	.st42{fill:none;stroke:#7A0511;stroke-width:0.6439;stroke-linecap:round;stroke-linejoin:round;stroke-miterlimit:10;}
	.st43{fill:url(#SVGID_34_);}
	.st44{fill:#7A0511;stroke:#7A0511;stroke-width:0.6439;stroke-linecap:round;stroke-linejoin:round;stroke-miterlimit:10;}
	.st45{fill:url(#SVGID_35_);}
	.st46{fill:url(#SVGID_36_);}
	.st47{fill:url(#SVGID_37_);}
	.st48{fill:url(#SVGID_38_);}
	.st49{fill:url(#SVGID_39_);}
	.st50{fill:url(#SVGID_40_);}
	.st51{fill:url(#SVGID_41_);}
	.st52{fill:url(#SVGID_42_);}
	.st53{fill:url(#SVGID_43_);}
	.st54{fill:url(#SVGID_44_);}
	.st55{fill:url(#SVGID_45_);}
	.st56{fill:url(#SVGID_46_);}
	.st57{fill:url(#SVGID_47_);}
	.st58{fill:url(#SVGID_48_);}
	.st59{fill:url(#SVGID_49_);}
	.st60{fill:url(#SVGID_50_);}
	.st61{fill:url(#SVGID_51_);}
	.st62{fill:url(#SVGID_52_);}
	.st63{fill:url(#SVGID_53_);}
	.st64{fill:url(#SVGID_54_);}
	.st65{fill:url(#SVGID_55_);}
	.st66{fill:url(#SVGID_56_);}
	.st67{fill:url(#SVGID_57_);}
	.st68{fill:url(#SVGID_58_);}
	.st69{fill:url(#SVGID_59_);}
	.st70{fill:url(#SVGID_60_);}
	.st71{fill:url(#SVGID_61_);}
	.st72{fill:url(#SVGID_62_);}
	.st73{fill:url(#SVGID_63_);}
	.st74{fill:url(#SVGID_64_);}
	.st75{fill:url(#SVGID_65_);}
	.st76{fill:url(#SVGID_66_);}
	.st77{fill:url(#SVGID_67_);}
	.st78{fill:url(#SVGID_68_);}
	.st79{fill:url(#SVGID_69_);}
	.st80{fill:url(#SVGID_70_);}
	.st81{fill:url(#SVGID_71_);}
	.st82{fill:url(#SVGID_72_);}
	.st83{fill:url(#SVGID_73_);}
	.st84{fill:url(#SVGID_74_);}
	.st85{fill:url(#SVGID_75_);}
	.st86{fill:url(#SVGID_76_);}
	.st87{fill:url(#SVGID_77_);}
	.st88{fill:url(#SVGID_78_);}
	.st89{fill:url(#SVGID_79_);}
	.st90{fill:url(#SVGID_80_);}
	.st91{fill:url(#SVGID_81_);}
	.st92{fill:url(#SVGID_82_);}
	.st93{fill:#91ACB4;}
	.st94{fill:url(#SVGCleanerId_0_1_);}
	.st95{fill:url(#SVGID_83_);}
	.st96{fill:url(#SVGID_84_);}
	.st97{fill:url(#SVGID_85_);}
	.st98{fill:url(#SVGID_86_);}
	.st99{fill:url(#SVGID_87_);}
	.st100{fill:url(#SVGCleanerId_0_2_);}
	.st101{fill:url(#SVGID_88_);}
	.st102{fill:url(#SVGID_89_);}
	.st103{fill:url(#SVGID_90_);}
	.st104{fill:url(#SVGID_91_);}
	.st105{fill:url(#SVGID_92_);}
	.st106{fill:url(#SVGID_93_);}
	.st107{fill:url(#SVGID_94_);}
	.st108{fill:url(#SVGID_95_);}
	.st109{fill:url(#SVGID_96_);}
	.st110{fill:url(#SVGID_97_);}
	.st111{fill:url(#SVGID_98_);}
	.st112{fill:url(#SVGID_99_);}
	.st113{fill:url(#SVGID_100_);}
	.st114{fill:url(#SVGID_101_);}
	.st115{fill:url(#SVGID_102_);}
	.st116{fill:url(#SVGID_103_);}
	.st117{fill:url(#SVGID_104_);}
	.st118{fill:url(#SVGID_105_);}
	.st119{fill:url(#SVGID_106_);}
	.st120{fill:url(#SVGID_107_);}
	.st121{fill:url(#SVGID_108_);}
	.st122{fill:url(#SVGID_109_);}
	.st123{fill:url(#SVGID_110_);}
	.st124{fill:url(#SVGID_111_);}
	.st125{fill:url(#SVGID_112_);}
	.st126{fill:url(#SVGID_113_);}
	.st127{fill:url(#SVGID_114_);}
	.st128{fill:url(#SVGID_115_);}
	.st129{fill:url(#SVGID_116_);}
	.st130{fill:url(#SVGID_117_);}
	.st131{fill:url(#SVGID_118_);}
	.st132{fill:url(#SVGID_119_);}
	.st133{fill:url(#SVGID_120_);}
	.st134{fill:url(#SVGID_121_);}
	.st135{fill:url(#SVGID_122_);}
	.st136{fill:url(#SVGID_123_);}
	.st137{fill:url(#SVGID_124_);}
	.st138{fill:url(#SVGID_125_);}
	.st139{fill:url(#SVGID_126_);}
	.st140{fill:url(#SVGID_127_);}
	.st141{fill:url(#SVGID_128_);}
	.st142{fill:url(#SVGID_129_);}
	.st143{fill:url(#SVGID_130_);}
	.st144{fill:url(#SVGID_131_);}
	.st145{fill:url(#SVGID_132_);}
	.st146{fill:url(#SVGID_133_);}
	.st147{fill:url(#SVGID_134_);}
	.st148{fill:url(#SVGID_135_);}
	.st149{fill:url(#SVGID_136_);}
	.st150{fill:url(#SVGID_137_);}
	.st151{fill:url(#SVGID_138_);}
	.st152{fill:url(#SVGID_139_);}
	.st153{fill:url(#SVGID_140_);}
	.st154{fill:url(#SVGID_141_);}
	.st155{fill:url(#SVGID_142_);}
	.st156{fill:url(#SVGID_143_);}
	.st157{fill:url(#SVGID_144_);}
	.st158{fill:url(#SVGID_145_);}
	.st159{fill:url(#SVGID_146_);}
	.st160{fill:url(#SVGID_147_);}
	.st161{fill:url(#SVGID_148_);}
	.st162{fill:#535353;}
	.st163{fill:#A1A0A0;}
	.st164{fill:#CACCD0;}
	.st165{fill:url(#SVGID_149_);}
	.st166{fill:url(#SVGID_150_);}
	.st167{fill:url(#SVGID_151_);}
	.st168{fill:url(#SVGID_152_);}
	.st169{fill:url(#SVGID_153_);}
	.st170{fill:url(#SVGID_154_);}
	.st171{fill:url(#SVGID_155_);}
	.st172{fill:url(#SVGID_156_);}
	.st173{fill:url(#SVGID_157_);}
	.st174{fill:url(#SVGID_158_);}
	.st175{fill:url(#SVGID_159_);}
	.st176{fill:url(#SVGID_160_);}
	.st177{fill:url(#SVGID_161_);}
	.st178{fill:url(#SVGID_162_);}
	.st179{fill:url(#SVGID_163_);}
	.st180{fill:url(#SVGID_164_);}
	.st181{fill:url(#SVGID_165_);}
	.st182{fill:url(#SVGCleanerId_0_3_);}
	.st183{fill:url(#SVGCleanerId_0_16_);}
	.st184{fill:url(#SVGID_166_);}
	.st185{fill:url(#SVGID_167_);}
	.st186{fill:url(#SVGCleanerId_0_17_);}
	.st187{fill:url(#SVGCleanerId_0_18_);}
	.st188{fill:url(#SVGID_168_);}
	.st189{fill:url(#SVGID_169_);}
	.st190{fill:url(#SVGID_170_);}
	.st191{fill:url(#SVGID_171_);}
	.st192{fill:url(#SVGID_172_);}
	.st193{fill:url(#SVGID_173_);}
	.st194{fill:url(#SVGID_174_);}
	.st195{fill:url(#SVGID_175_);}
	.st196{fill:url(#SVGCleanerId_0_19_);}
	.st197{fill:url(#SVGCleanerId_0_20_);}
	.st198{fill:url(#SVGID_176_);}
	.st199{fill:url(#SVGID_177_);}
	.st200{fill:url(#SVGCleanerId_0_21_);}
	.st201{fill:url(#SVGCleanerId_0_22_);}
	.st202{fill:url(#SVGID_178_);}
	.st203{fill:url(#SVGID_179_);}
	.st204{fill:url(#SVGID_180_);}
	.st205{fill:url(#SVGID_181_);}
	.st206{fill:url(#SVGID_182_);}
	.st207{fill:url(#SVGID_183_);}
	.st208{fill:url(#SVGID_184_);}
	.st209{fill:url(#SVGID_185_);}
	.st210{fill:url(#SVGID_186_);}
	.st211{fill:url(#SVGID_187_);}
	.st212{fill:url(#SVGID_188_);}
	.st213{fill:url(#SVGID_189_);}
	.st214{fill:url(#SVGID_190_);}
	.st215{fill:url(#SVGID_191_);}
	.st216{fill:url(#SVGID_192_);}
	.st217{fill:url(#SVGID_193_);}
	.st218{fill:url(#SVGID_194_);}
	.st219{fill:url(#SVGID_195_);}
	.st220{fill:url(#SVGID_196_);}
	.st221{fill:url(#SVGID_197_);}
	.st222{fill:url(#SVGID_198_);}
	.st223{fill:url(#SVGID_199_);}
	.st224{fill:url(#SVGID_200_);}
	.st225{fill:url(#SVGID_201_);}
	.st226{fill:url(#SVGID_202_);}
	.st227{fill:url(#SVGID_203_);}
	.st228{fill:none;stroke:#231F20;stroke-width:16;stroke-miterlimit:10;}
	.st229{fill:url(#SVGID_204_);}
	.st230{fill:url(#SVGID_205_);}
	.st231{fill:none;stroke:#231F20;stroke-width:6;stroke-miterlimit:10;}
	.st232{fill:url(#SVGID_206_);}
	.st233{fill:url(#SVGID_207_);}
	.st234{fill:url(#SVGID_208_);}
	.st235{fill:url(#SVGID_209_);}
	.st236{fill:url(#SVGID_210_);}
	.st237{fill:url(#SVGID_211_);}
	.st238{fill:url(#SVGID_212_);}
	.st239{fill:url(#SVGID_213_);}
	.st240{fill:url(#SVGID_214_);}
	.st241{fill:url(#SVGID_215_);}
	.st242{fill:url(#SVGID_216_);}
	.st243{fill:url(#SVGID_217_);}
	.st244{fill:url(#SVGID_218_);}
	.st245{fill:url(#SVGID_219_);}
	.st246{fill:url(#SVGID_220_);}
	.st247{fill:url(#SVGID_221_);}
</style>
<rect x="25" y="10.6" transform="matrix(-1 4.447452e-11 -4.447452e-11 -1 50.9447 22.9647)" class="st1" width="0.9" height="1.8"/>
<rect x="24.9" y="11.4" transform="matrix(-0.7071 0.7071 -0.7071 -0.7071 56.4941 5.0808)" class="st6" width="4.6" height="5.6"/>
<path class="st1" d="M26,10.8l0.5-0.5l0,0c-0.4-0.4-1.2-0.4-1.6,0l-0.5,0.5l0,0C24.8,11.3,25.6,11.3,26,10.8z"/>
<rect x="5.2" y="15.1" transform="matrix(-0.9862 -0.1656 0.1656 -0.9862 17.3482 34.7294)" class="st1" width="9.9" height="3.1"/>
<rect x="5.2" y="14.4" transform="matrix(-0.9862 -0.1656 0.1656 -0.9862 9.4095 32.701)" class="st6" width="1.7" height="3.1"/>
<path class="st6" d="M35.3,23.3L35.3,23.3c0.3,0,0.5-0.2,0.5-0.5v-4.2c0-0.3-0.2-0.5-0.5-0.5l0,0c-0.3,0-0.5,0.2-0.5,0.5v4.2
	C34.8,23,35,23.3,35.3,23.3z"/>
<rect x="12.6" y="19.4" transform="matrix(-0.5008 -0.8655 0.8655 -0.5008 1.0126 45.495)" class="st6" width="2" height="6.2"/>
<path class="st1" d="M24.6,15h-2.9c-0.9,0-1.7,0.5-2,1.2h0h-4.8c-0.8-1.2-2.2-2-3.8-2v-1.4c2,0.4,4,0.6,6.2,0.6c2.7,0,5.3-0.4,7.8-1
	l1.1,1.1L24.6,15z"/>
<path class="st1" d="M31.2,15.2l-3.7,3.7l-1.2-1.2l2.3-2.3C29.3,14.7,30.4,14.7,31.2,15.2z"/>
<linearGradient id="SVGID_1_" gradientUnits="userSpaceOnUse" x1="29.6708" y1="20.2356" x2="29.6708" y2="12.5042">
	<stop  offset="0" style="stop-color:#BD212F"/>
	<stop  offset="0.4302" style="stop-color:#EE412E"/>
</linearGradient>
<path class="st2" d="M31.2,15.2c-0.8-0.6-1.8-0.5-2.5,0.2l-2.3,2.3l-0.7,0.7l-1-1v-1.3V15l1.5-1.5L25,12.4c0.3-0.1,0.8-0.2,1.3-0.4
	c1.4-0.5,3-0.1,4,1l4.3,4.3L34,18l-2.6-2.6C31.3,15.4,31.3,15.3,31.2,15.2z"/>
<linearGradient id="SVGID_2_" gradientUnits="userSpaceOnUse" x1="16.8976" y1="20.2356" x2="16.8976" y2="12.5042">
	<stop  offset="0" style="stop-color:#BD212F"/>
	<stop  offset="0.4302" style="stop-color:#EE412E"/>
</linearGradient>
<path class="st3" d="M19.7,16.2L19.7,16.2c-0.2,0.3-0.3,0.7-0.3,1.1h-5.4v-1h0.8c0,0,0,0,0,0H19.7z"/>
<path class="st6" d="M19,20.6l0,2.7h4.9v-0.8h-1.3V17L19,20.6z M19.3,21.4c0-0.8,0.7-1.5,1.5-1.5c0.8,0,1.5,0.7,1.5,1.5
	c0,0.8-0.7,1.5-1.5,1.5C19.9,22.8,19.3,22.2,19.3,21.4z"/>
<linearGradient id="SVGID_3_" gradientUnits="userSpaceOnUse" x1="29.8094" y1="24.8384" x2="29.8094" y2="13.7195">
	<stop  offset="0" style="stop-color:#BD212F"/>
	<stop  offset="0.4302" style="stop-color:#EE412E"/>
</linearGradient>
<path class="st4" d="M25.6,21.7v-3.3l0.7-0.7l1.2,1.2l3.7-3.7c0.1,0.1,0.2,0.1,0.2,0.2L34,18l-1.4,1.4v3.9h-7V21.7z"/>
<polygon class="st1" points="25.6,21.7 25.6,23.4 23.9,23.4 23.9,22.6 23.9,21.7 "/>
<linearGradient id="SVGID_4_" gradientUnits="userSpaceOnUse" x1="23.349" y1="25.7636" x2="23.349" y2="12.2899">
	<stop  offset="0" style="stop-color:#BD212F"/>
	<stop  offset="0.4302" style="stop-color:#EE412E"/>
</linearGradient>
<path class="st5" d="M19.4,17.3c0-0.4,0.1-0.8,0.3-1.1h2l-4,4v3.1H19h4.9h1.7h7v1.1h-7h-9.1c-1.3,0-2.4-1.1-2.4-2.4v-4.7H19.4z"/>
<path class="st1" d="M20.7,19.9c0.8,0,1.5,0.7,1.5,1.5c0,0.8-0.7,1.5-1.5,1.5c-0.8,0-1.5-0.7-1.5-1.5C19.3,20.6,19.9,19.9,20.7,19.9
	z"/>
<path class="st1" d="M27.1,24.5c0,3.1,2.5,5.5,5.5,5.5c3.1,0,5.5-2.5,5.5-5.5c0-3.1-2.5-5.5-5.5-5.5C29.6,19,27.1,21.4,27.1,24.5z"
	/>
<linearGradient id="SVGID_5_" gradientUnits="userSpaceOnUse" x1="32.5807" y1="27.9038" x2="32.7513" y2="18.6249">
	<stop  offset="0" style="stop-color:#BD212F"/>
	<stop  offset="0.4302" style="stop-color:#EE412E"/>
</linearGradient>
<path class="st8" d="M29.9,24.5c0,1.5,1.2,2.8,2.8,2.8c1.5,0,2.8-1.2,2.8-2.8s-1.2-2.8-2.8-2.8C31.1,21.7,29.9,23,29.9,24.5z"/>
<path class="st6" d="M31.7,24.5c0,0.5,0.4,1,1,1c0.5,0,1-0.4,1-1c0-0.5-0.4-1-1-1C32.1,23.5,31.7,23.9,31.7,24.5z"/>
<path class="st6" d="M32.4,23.1c0,0.1,0.1,0.2,0.2,0.2c0.1,0,0.2-0.1,0.2-0.2c0-0.1-0.1-0.2-0.2-0.2C32.5,22.9,32.4,23,32.4,23.1z"
	/>
<path class="st6" d="M33.4,23.4c-0.1,0.1-0.1,0.2,0,0.3c0.1,0.1,0.2,0.1,0.3,0c0.1-0.1,0.1-0.2,0-0.3C33.7,23.3,33.5,23.3,33.4,23.4
	z"/>
<path class="st6" d="M34,24.3c-0.1,0-0.2,0.1-0.2,0.2c0,0.1,0.1,0.2,0.2,0.2c0.1,0,0.2-0.1,0.2-0.2C34.2,24.4,34.1,24.3,34,24.3z"/>
<path class="st6" d="M33.7,25.3c-0.1-0.1-0.2-0.1-0.3,0c-0.1,0.1-0.1,0.2,0,0.3c0.1,0.1,0.2,0.1,0.3,0
	C33.8,25.5,33.8,25.4,33.7,25.3z"/>
<path class="st6" d="M32.9,25.8c0-0.1-0.1-0.2-0.2-0.2c-0.1,0-0.2,0.1-0.2,0.2c0,0.1,0.1,0.2,0.2,0.2C32.8,26,32.9,25.9,32.9,25.8z"
	/>
<path class="st6" d="M31.8,25.6c0.1-0.1,0.1-0.2,0-0.3c-0.1-0.1-0.2-0.1-0.3,0c-0.1,0.1-0.1,0.2,0,0.3
	C31.6,25.7,31.8,25.7,31.8,25.6z"/>
<path class="st6" d="M31.3,24.7c0.1,0,0.2-0.1,0.2-0.2c0-0.1-0.1-0.2-0.2-0.2c-0.1,0-0.2,0.1-0.2,0.2C31.1,24.6,31.2,24.7,31.3,24.7
	z"/>
<path class="st1" d="M32.6,24.7c0.1,0,0.2-0.1,0.2-0.2s-0.1-0.2-0.2-0.2c-0.1,0-0.2,0.1-0.2,0.2S32.5,24.7,32.6,24.7z"/>
<path class="st6" d="M31.5,23.7c0.1,0.1,0.2,0.1,0.3,0c0.1-0.1,0.1-0.2,0-0.3c-0.1-0.1-0.2-0.1-0.3,0C31.5,23.5,31.5,23.6,31.5,23.7
	z"/>
<path class="st1" d="M1.8,24.5c0,3.1,2.5,5.5,5.5,5.5c3.1,0,5.5-2.5,5.5-5.5c0-3.1-2.5-5.5-5.5-5.5C4.3,19,1.8,21.4,1.8,24.5z"/>
<linearGradient id="SVGID_6_" gradientUnits="userSpaceOnUse" x1="7.302" y1="27.4391" x2="7.4726" y2="18.1603">
	<stop  offset="0" style="stop-color:#BD212F"/>
	<stop  offset="0.4302" style="stop-color:#EE412E"/>
</linearGradient>
<path class="st9" d="M4.6,24.5c0,1.5,1.2,2.8,2.8,2.8c1.5,0,2.8-1.2,2.8-2.8s-1.2-2.8-2.8-2.8C5.8,21.7,4.6,23,4.6,24.5z"/>
<path class="st6" d="M6.4,24.5c0,0.5,0.4,1,1,1c0.5,0,1-0.4,1-1s-0.4-1-1-1C6.8,23.5,6.4,24,6.4,24.5z"/>
<path class="st6" d="M7.1,23.1c0,0.1,0.1,0.2,0.2,0.2c0.1,0,0.2-0.1,0.2-0.2c0-0.1-0.1-0.2-0.2-0.2C7.2,22.9,7.1,23,7.1,23.1z"/>
<path class="st6" d="M8.2,23.4c-0.1,0.1-0.1,0.2,0,0.3c0.1,0.1,0.2,0.1,0.3,0c0.1-0.1,0.1-0.2,0-0.3C8.4,23.3,8.2,23.3,8.2,23.4z"/>
<path class="st6" d="M8.7,24.3c-0.1,0-0.2,0.1-0.2,0.2s0.1,0.2,0.2,0.2c0.1,0,0.2-0.1,0.2-0.2S8.8,24.3,8.7,24.3z"/>
<path class="st6" d="M8.5,25.3c-0.1-0.1-0.2-0.1-0.3,0c-0.1,0.1-0.1,0.2,0,0.3c0.1,0.1,0.2,0.1,0.3,0C8.5,25.5,8.5,25.4,8.5,25.3z"
	/>
<path class="st6" d="M7.6,25.8c0-0.1-0.1-0.2-0.2-0.2c-0.1,0-0.2,0.1-0.2,0.2c0,0.1,0.1,0.2,0.2,0.2C7.5,26,7.6,25.9,7.6,25.8z"/>
<path class="st6" d="M6.6,25.6c0.1-0.1,0.1-0.2,0-0.3c-0.1-0.1-0.2-0.1-0.3,0c-0.1,0.1-0.1,0.2,0,0.3C6.3,25.7,6.5,25.7,6.6,25.6z"
	/>
<path class="st6" d="M6,24.7c0.1,0,0.2-0.1,0.2-0.2S6.1,24.3,6,24.3c-0.1,0-0.2,0.1-0.2,0.2S5.9,24.7,6,24.7z"/>
<path class="st1" d="M7.3,24.7c0.1,0,0.2-0.1,0.2-0.2s-0.1-0.2-0.2-0.2c-0.1,0-0.2,0.1-0.2,0.2S7.2,24.7,7.3,24.7z"/>
<path class="st6" d="M6.3,23.7c0.1,0.1,0.2,0.1,0.3,0c0.1-0.1,0.1-0.2,0-0.3c-0.1-0.1-0.2-0.1-0.3,0C6.2,23.5,6.2,23.6,6.3,23.7z"/>
<g>
	<linearGradient id="SVGID_7_" gradientUnits="userSpaceOnUse" x1="10.4069" y1="20.2356" x2="10.4069" y2="12.5042">
		<stop  offset="0" style="stop-color:#BD212F"/>
		<stop  offset="0.4302" style="stop-color:#EE412E"/>
	</linearGradient>
	<path class="st10" d="M14.1,20.5L14.1,20.5c1,0,1.8-0.8,1.8-1.8v-2.4c0-1.5-1.1-2.9-2.6-3.1L6,11.9c-0.5-0.1-1,0.2-1,0.7l0,0
		c-0.1,0.5,0.2,1,0.7,1l7.3,1.2c0.7,0.1,1.1,0.7,1.1,1.3V20.5z"/>
</g>
<path class="st6" d="M19.7,19.6h3.8c0.4,0,0.7-0.3,0.7-0.7l0,0c0-0.4-0.3-0.7-0.7-0.7h-3.3L19.7,19.6z"/>
<path class="st6" d="M21.7,16.2h-2c0.4-0.7,1.2-1.2,2-1.2h2.9v1.2h-1.3L22.5,17L19,20.6l0,2.7h-1.3v-3.1L21.7,16.2z"/>
</svg>
