<?xml version="1.0" encoding="utf-8"?>
<!-- Generator: Adobe Illustrator 19.0.1, SVG Export Plug-In . SVG Version: 6.00 Build 0)  -->
<svg version="1.1" id="Layer_1" xmlns="http://www.w3.org/2000/svg" xmlns:xlink="http://www.w3.org/1999/xlink" x="0px" y="0px"
	 width="45px" height="45px" viewBox="0 0 45 45" style="enable-background:new 0 0 45 45;" xml:space="preserve">
<style type="text/css">
	.st0{fill:#005129;}
	.st1{fill:url(#SVGID_1_);}
	.st2{fill:#7A0511;}
	.st3{fill:url(#SVGID_2_);}
	.st4{fill:url(#SVGID_3_);}
	.st5{fill:none;stroke:#7A0511;stroke-width:1.1677;stroke-miterlimit:10;}
	.st6{fill:none;stroke:#7A0511;stroke-width:1.022;stroke-miterlimit:10;}
	.st7{fill:url(#SVGID_4_);}
	.st8{fill:url(#SVGID_5_);}
	.st9{fill:url(#SVGID_6_);}
	.st10{fill:url(#SVGID_7_);}
	.st11{fill:url(#SVGID_8_);}
	.st12{fill:url(#SVGID_9_);}
	.st13{fill:url(#SVGID_10_);}
	.st14{fill:url(#SVGID_11_);}
	.st15{fill:#231F20;}
	.st16{fill:url(#SVGID_12_);}
	.st17{fill:url(#SVGID_13_);}
	.st18{fill:url(#SVGID_14_);}
	.st19{fill:url(#SVGID_15_);}
	.st20{fill:url(#SVGID_16_);}
	.st21{fill:url(#SVGID_17_);}
	.st22{fill:url(#SVGID_18_);}
	.st23{fill:url(#SVGID_19_);}
	.st24{fill:url(#SVGID_20_);}
	.st25{fill:url(#SVGID_21_);}
	.st26{fill:url(#SVGID_22_);}
	.st27{fill:#8CC63F;}
	.st28{fill:url(#SVGCleanerId_0_8_);}
	.st29{fill:url(#SVGCleanerId_0_9_);}
	.st30{fill:url(#SVGID_23_);}
	.st31{fill:url(#SVGID_24_);}
	.st32{fill:#EE412E;}
	.st33{fill:url(#SVGCleanerId_0_10_);}
	.st34{fill:url(#SVGID_25_);}
	.st35{fill:url(#SVGID_26_);}
	.st36{fill:url(#SVGID_27_);}
	.st37{fill:url(#SVGID_28_);}
	.st38{fill:url(#SVGID_29_);}
	.st39{fill:url(#SVGID_30_);}
	.st40{fill:url(#SVGID_31_);}
	.st41{fill:url(#SVGID_32_);}
	.st42{fill:url(#SVGID_33_);}
	.st43{fill:url(#SVGID_34_);}
	.st44{fill:#006838;}
	.st45{fill:url(#SVGID_35_);}
	.st46{fill:url(#SVGID_36_);}
	.st47{fill:url(#SVGID_37_);}
	.st48{fill:url(#SVGID_38_);}
	.st49{fill:url(#SVGID_39_);}
	.st50{fill:url(#SVGID_40_);}
	.st51{fill:url(#SVGID_41_);}
	.st52{fill:url(#SVGID_42_);}
	.st53{fill:url(#SVGID_43_);}
	.st54{fill:url(#SVGID_44_);}
	.st55{fill:url(#SVGID_45_);}
	.st56{fill:url(#SVGID_46_);}
	.st57{fill:url(#SVGID_47_);}
	.st58{fill:url(#SVGID_48_);}
	.st59{fill:url(#SVGID_49_);}
	.st60{fill:url(#SVGID_50_);}
	.st61{fill:url(#SVGID_51_);}
	.st62{fill:url(#SVGID_52_);}
	.st63{fill:url(#SVGID_53_);}
	.st64{fill:url(#SVGID_54_);}
	.st65{fill:url(#SVGID_55_);}
	.st66{fill:url(#SVGID_56_);}
	.st67{fill:url(#SVGID_57_);}
	.st68{fill:url(#SVGID_58_);}
	.st69{fill:url(#SVGID_59_);}
	.st70{fill:url(#SVGID_60_);}
	.st71{fill:url(#SVGID_61_);}
	.st72{fill:url(#SVGID_62_);}
	.st73{fill:url(#SVGID_63_);}
	.st74{fill:url(#SVGID_64_);}
	.st75{fill:url(#SVGID_65_);}
	.st76{fill:url(#SVGID_66_);}
	.st77{fill:url(#SVGID_67_);}
	.st78{fill:url(#SVGID_68_);}
	.st79{fill:url(#SVGID_69_);}
	.st80{fill:url(#SVGID_70_);}
	.st81{fill:url(#SVGID_71_);}
	.st82{fill:url(#SVGID_72_);}
	.st83{fill:url(#SVGID_73_);}
	.st84{fill:url(#SVGID_74_);}
	.st85{fill:url(#SVGID_75_);}
	.st86{fill:url(#SVGID_76_);}
	.st87{fill:url(#SVGID_77_);}
	.st88{fill:url(#SVGID_78_);}
	.st89{fill:url(#SVGID_79_);}
	.st90{fill:url(#SVGID_80_);}
	.st91{fill:url(#SVGID_81_);}
	.st92{fill:url(#SVGID_82_);}
	.st93{fill:url(#SVGID_83_);}
	.st94{fill:url(#SVGID_84_);}
	.st95{fill:url(#SVGID_85_);}
	.st96{fill:url(#SVGID_86_);}
	.st97{fill:url(#SVGID_87_);}
	.st98{fill:url(#SVGID_88_);}
	.st99{fill:#91ACB4;}
	.st100{fill:url(#SVGCleanerId_0_11_);}
	.st101{fill:url(#SVGID_89_);}
	.st102{fill:url(#SVGID_90_);}
	.st103{fill:url(#SVGID_91_);}
	.st104{fill:url(#SVGID_92_);}
	.st105{fill:url(#SVGID_93_);}
	.st106{fill:url(#SVGCleanerId_0_12_);}
	.st107{fill:url(#SVGID_94_);}
	.st108{fill:url(#SVGID_95_);}
	.st109{fill:url(#SVGID_96_);}
	.st110{fill:url(#SVGID_97_);}
	.st111{fill:url(#SVGID_98_);}
	.st112{fill:url(#SVGID_99_);}
	.st113{fill:url(#SVGID_100_);}
	.st114{fill:url(#SVGID_101_);}
	.st115{fill:url(#SVGID_102_);}
	.st116{fill:url(#SVGID_103_);}
	.st117{fill:url(#SVGID_104_);}
	.st118{fill:url(#SVGID_105_);}
	.st119{fill:url(#SVGID_106_);}
	.st120{fill:url(#SVGID_107_);}
	.st121{fill:url(#SVGID_108_);}
	.st122{fill:url(#SVGID_109_);}
	.st123{fill:url(#SVGID_110_);}
	.st124{fill:url(#SVGID_111_);}
	.st125{fill:url(#SVGID_112_);}
	.st126{fill:url(#SVGID_113_);}
	.st127{fill:url(#SVGID_114_);}
	.st128{fill:url(#SVGID_115_);}
	.st129{fill:url(#SVGID_116_);}
	.st130{fill:url(#SVGID_117_);}
	.st131{fill:url(#SVGID_118_);}
	.st132{fill:url(#SVGID_119_);}
	.st133{fill:url(#SVGID_120_);}
	.st134{fill:url(#SVGID_121_);}
	.st135{fill:url(#SVGID_122_);}
	.st136{fill:#535353;}
	.st137{fill:#A1A0A0;}
	.st138{fill:#CACCD0;}
	.st139{fill:url(#SVGID_123_);}
	.st140{fill:url(#SVGID_124_);}
	.st141{fill:url(#SVGID_125_);}
	.st142{fill:url(#SVGID_126_);}
	.st143{fill:url(#SVGID_127_);}
	.st144{fill:url(#SVGID_128_);}
	.st145{fill:url(#SVGID_129_);}
	.st146{fill:url(#SVGID_130_);}
	.st147{fill:url(#SVGID_131_);}
	.st148{fill-rule:evenodd;clip-rule:evenodd;fill:#8CC63F;}
	.st149{fill:url(#SVGID_132_);}
	.st150{fill:url(#SVGID_133_);}
	.st151{fill:url(#SVGID_134_);}
	.st152{fill:url(#SVGID_135_);}
	.st153{fill-rule:evenodd;clip-rule:evenodd;fill:#EE412E;}
	.st154{fill:url(#SVGID_136_);}
	.st155{fill:url(#SVGID_137_);}
	.st156{fill:url(#SVGID_138_);}
	.st157{fill:url(#SVGID_139_);}
	.st158{fill:url(#SVGID_140_);}
	.st159{fill:url(#SVGID_141_);}
	.st160{fill:url(#SVGID_142_);}
	.st161{fill:url(#SVGID_143_);}
	.st162{fill:url(#SVGID_144_);}
	.st163{fill:url(#SVGID_145_);}
	.st164{fill:url(#SVGID_146_);}
	.st165{fill:url(#SVGID_147_);}
	.st166{fill:url(#SVGID_148_);}
	.st167{fill:url(#SVGID_149_);}
	.st168{fill:url(#SVGID_150_);}
	.st169{fill:url(#SVGID_151_);}
	.st170{fill:url(#SVGID_152_);}
	.st171{fill:url(#SVGID_153_);}
	.st172{fill:url(#SVGID_154_);}
	.st173{fill:url(#SVGID_155_);}
	.st174{fill:url(#SVGID_156_);}
	.st175{fill:url(#SVGID_157_);}
	.st176{fill:url(#SVGID_158_);}
	.st177{fill:url(#SVGID_159_);}
	.st178{fill:url(#SVGID_160_);}
	.st179{fill:url(#SVGID_161_);}
	.st180{fill:url(#SVGID_162_);}
	.st181{fill:url(#SVGID_163_);}
	.st182{fill:url(#SVGID_164_);}
	.st183{fill:url(#SVGID_165_);}
	.st184{fill:url(#SVGID_166_);}
	.st185{fill:url(#SVGID_167_);}
	.st186{fill:url(#SVGID_168_);}
	.st187{fill:url(#SVGID_169_);}
	.st188{fill:url(#SVGID_170_);}
	.st189{fill:url(#SVGID_171_);}
	.st190{fill:url(#SVGID_172_);}
	.st191{fill:url(#SVGID_173_);}
	.st192{fill:url(#SVGID_174_);}
	.st193{fill:url(#SVGID_175_);}
	.st194{fill:url(#SVGID_176_);}
	.st195{fill:url(#SVGID_177_);}
</style>
<g>
	
		<linearGradient id="SVGID_1_" gradientUnits="userSpaceOnUse" x1="22.4061" y1="-309.8667" x2="22.4061" y2="-291.6008" gradientTransform="matrix(1 0 0 -1 0 -280)">
		<stop  offset="0" style="stop-color:#BD212F"/>
		<stop  offset="0.4302" style="stop-color:#EE412E"/>
	</linearGradient>
	<path class="st1" d="M41.708,19.562h-7.613l1.198-5.032l0.53-1.907c0-0.686-0.557-1.243-1.243-1.243H2.787
		c-1.027,0-1.86,0.832-1.86,1.86v16.57h35.37v-0.976h7.588v-7.095C43.884,20.536,42.91,19.562,41.708,19.562z"/>
	<path class="st2" d="M25.624,29.788H2.201c-0.704,0-1.275-0.57-1.275-1.275v-4.285h24.697v5.56H25.624z"/>
	<path class="st2" d="M43.868,23.891h-0.836c-0.22,0-0.435-0.179-0.48-0.399l-0.276-1.357c-0.045-0.22,0.098-0.399,0.318-0.399
		h1.289L43.868,23.891z"/>
	<rect x="0.926" y="24.229" class="st15" width="24.697" height="1.109"/>
	<path class="st2" d="M0.926,23.518L0.926,23.518v-2.386l0,0c0.434,0,0.785,0.352,0.785,0.785v0.814
		C1.712,23.167,1.36,23.518,0.926,23.518z"/>
	<path class="st15" d="M44.277,30.229h-31.45v-1.447h31.45c0.399,0,0.723,0.324,0.723,0.723l0,0
		C45,29.905,44.676,30.229,44.277,30.229z"/>
	<circle class="st15" cx="36.296" cy="29.81" r="3.391"/>
	
		<linearGradient id="SVGID_2_" gradientUnits="userSpaceOnUse" x1="36.2959" y1="-313.158" x2="36.2959" y2="-306.3971" gradientTransform="matrix(1 0 0 -1 0 -280)">
		<stop  offset="0" style="stop-color:#BD212F"/>
		<stop  offset="0.4302" style="stop-color:#EE412E"/>
	</linearGradient>
	<circle class="st3" cx="36.296" cy="29.81" r="2.202"/>
	<circle class="st2" cx="36.296" cy="29.81" r="1.006"/>
	<circle class="st15" cx="10.625" cy="30.229" r="3.391"/>
	<path class="st15" d="M0.723,30.229h8.895v-1.447H0.723C0.324,28.783,0,29.107,0,29.506l0,0C0,29.905,0.324,30.229,0.723,30.229z"
		/>
	
		<linearGradient id="SVGID_3_" gradientUnits="userSpaceOnUse" x1="10.6245" y1="-313.5775" x2="10.6245" y2="-306.8167" gradientTransform="matrix(1 0 0 -1 0 -280)">
		<stop  offset="0" style="stop-color:#BD212F"/>
		<stop  offset="0.4302" style="stop-color:#EE412E"/>
	</linearGradient>
	<circle class="st4" cx="10.625" cy="30.229" r="2.202"/>
	<circle class="st2" cx="10.625" cy="30.229" r="1.006"/>
	<g>
		<path class="st2" d="M35.292,14.531h-0.027H23.228c-0.554,0-1.003,0.449-1.003,1.003v3.009c0,0.553,0.449,1.003,1.003,1.003
			h13.068C36.296,19.493,35.292,14.531,35.292,14.531z"/>
	</g>
	<g>
		<path class="st15" d="M25.504,12.737h6.77c0.347,0,0.628,0.281,0.628,0.628v15.424h-8.026V13.364
			C24.877,13.017,25.157,12.737,25.504,12.737z"/>
	</g>
	<g>
		<path class="st2" d="M30.018,27.784h1.755c0.07,0,0.125-0.056,0.125-0.125V13.865c0-0.07-0.056-0.125-0.125-0.125h-1.755
			c-0.07,0-0.125,0.056-0.125,0.125v13.794C29.892,27.727,29.949,27.784,30.018,27.784z"/>
	</g>
	<g>
		<path class="st2" d="M26.006,27.784h2.758c0.07,0,0.125-0.056,0.125-0.125V13.865c0-0.07-0.056-0.125-0.125-0.125h-2.758
			c-0.07,0-0.125,0.056-0.125,0.125v13.794C25.88,27.727,25.936,27.784,26.006,27.784z"/>
	</g>
	<path class="st2" d="M4.908,14.531H0.926v5.015h3.983c0.554,0,1.003-0.449,1.003-1.003v-3.009
		C5.912,14.98,5.462,14.531,4.908,14.531z"/>
	<path class="st2" d="M11.994,19.577H8.701c-0.484,0-0.876-0.393-0.876-0.876v-3.293c0-0.484,0.393-0.876,0.876-0.876h3.293
		c0.484,0,0.876,0.393,0.876,0.876V18.7C12.87,19.184,12.477,19.577,11.994,19.577z"/>
	<path class="st2" d="M18.813,19.577h-3.293c-0.484,0-0.876-0.393-0.876-0.876v-3.293c0-0.484,0.393-0.876,0.876-0.876h3.293
		c0.484,0,0.876,0.393,0.876,0.876V18.7C19.691,19.184,19.298,19.577,18.813,19.577z"/>
</g>
</svg>
