<?xml version="1.0" encoding="UTF-8"?>
<svg xmlns="http://www.w3.org/2000/svg" xmlns:xlink="http://www.w3.org/1999/xlink" width="45pt" height="45pt" viewBox="0 0 45 45" version="1.1">
<defs>
<linearGradient id="linear0" gradientUnits="userSpaceOnUse" x1="282.683" y1="157.6705" x2="282.683" y2="292.779" gradientTransform="matrix(0.09,0,0,0.09,0,0)">
<stop offset="0" style="stop-color:rgb(2.745098%,57.254902%,27.843137%);stop-opacity:1;"/>
<stop offset="1" style="stop-color:rgb(54.509804%,76.470588%,25.882353%);stop-opacity:1;"/>
</linearGradient>
<linearGradient id="linear1" gradientUnits="userSpaceOnUse" x1="28.1867" y1="274.2004" x2="270.6362" y2="274.2004" gradientTransform="matrix(0.09,0,0,0.09,0,0)">
<stop offset="0" style="stop-color:rgb(2.745098%,57.254902%,27.843137%);stop-opacity:1;"/>
<stop offset="1" style="stop-color:rgb(54.509804%,76.470588%,25.882353%);stop-opacity:1;"/>
</linearGradient>
<linearGradient id="linear2" gradientUnits="userSpaceOnUse" x1="390.8507" y1="212.9439" x2="390.8507" y2="318.0735" gradientTransform="matrix(0.09,0,0,0.09,0,0)">
<stop offset="0" style="stop-color:rgb(2.745098%,57.254902%,27.843137%);stop-opacity:1;"/>
<stop offset="1" style="stop-color:rgb(54.509804%,76.470588%,25.882353%);stop-opacity:1;"/>
</linearGradient>
</defs>
<g id="surface1">
<path style=" stroke:none;fill-rule:nonzero;fill:url(#linear0);" d="M 29.539062 23.050781 L 29.539062 15.652344 L 21.761719 15.652344 L 21.382812 19.78125 C 21.375 19.90625 21.304688 21.511719 21.25 23.292969 C 21.230469 23.878906 21.589844 24.40625 22.148438 24.597656 L 28.324219 26.839844 L 28.78125 26.855469 C 28.90625 26.289062 29.203125 25.902344 29.628906 25.53125 C 29.582031 24.390625 29.539062 23.175781 29.539062 23.050781 Z M 29.539062 23.050781 "/>
<path style=" stroke:none;fill-rule:nonzero;fill:rgb(45.098039%,43.529412%,48.235294%);fill-opacity:1;" d="M 39.421875 20.484375 L 39.421875 18.367188 C 39.421875 18.261719 39.464844 18.152344 39.535156 18.082031 L 39.742188 17.875 C 39.835938 17.785156 39.835938 17.640625 39.742188 17.550781 L 39.492188 17.296875 C 39.402344 17.207031 39.257812 17.207031 39.167969 17.296875 L 38.960938 17.503906 C 38.726562 17.738281 38.601562 18.046875 38.601562 18.367188 L 38.601562 20.484375 Z M 39.421875 20.484375 "/>
<path style=" stroke:none;fill-rule:nonzero;fill:rgb(0%,31.764706%,16.078431%);fill-opacity:1;" d="M 28.296875 23.488281 L 34.738281 23.488281 L 34.738281 26.847656 L 28.484375 26.847656 C 28.386719 26.847656 28.296875 26.765625 28.296875 26.65625 Z M 28.296875 23.488281 "/>
<path style=" stroke:none;fill-rule:nonzero;fill:rgb(0%,31.764706%,16.078431%);fill-opacity:1;" d="M 35.054688 23.488281 L 41.5 23.488281 L 41.5 26.847656 L 35.054688 26.847656 Z M 35.054688 23.488281 "/>
<path style=" stroke:none;fill-rule:nonzero;fill:rgb(0%,31.764706%,16.078431%);fill-opacity:1;" d="M 22.984375 21.71875 L 22.167969 21.71875 C 21.941406 21.71875 21.761719 21.535156 21.761719 21.3125 C 21.761719 21.085938 21.941406 20.90625 22.167969 20.90625 L 22.984375 20.90625 C 23.210938 20.90625 23.390625 21.085938 23.390625 21.3125 C 23.398438 21.527344 23.21875 21.71875 22.984375 21.71875 Z M 22.984375 21.71875 "/>
<path style=" stroke:none;fill-rule:nonzero;fill:rgb(0%,31.764706%,16.078431%);fill-opacity:1;" d="M 22.984375 24.175781 L 22.167969 24.175781 C 21.941406 24.175781 21.761719 23.992188 21.761719 23.769531 C 21.761719 23.542969 21.941406 23.363281 22.167969 23.363281 L 22.984375 23.363281 C 23.210938 23.363281 23.390625 23.542969 23.390625 23.769531 C 23.398438 23.984375 23.21875 24.175781 22.984375 24.175781 Z M 22.984375 24.175781 "/>
<path style=" stroke:none;fill-rule:nonzero;fill:rgb(0%,31.764706%,16.078431%);fill-opacity:1;" d="M 22.984375 22.941406 L 22.167969 22.941406 C 21.941406 22.941406 21.761719 22.761719 21.761719 22.535156 C 21.761719 22.3125 21.941406 22.132812 22.167969 22.132812 L 22.984375 22.132812 C 23.210938 22.132812 23.390625 22.3125 23.390625 22.535156 C 23.398438 22.761719 23.21875 22.941406 22.984375 22.941406 Z M 22.984375 22.941406 "/>
<path style=" stroke:none;fill-rule:nonzero;fill:rgb(0%,31.764706%,16.078431%);fill-opacity:1;" d="M 29.539062 15.984375 L 21.761719 15.984375 C 21.535156 15.984375 21.355469 15.804688 21.355469 15.578125 C 21.355469 15.355469 21.535156 15.175781 21.761719 15.175781 L 29.539062 15.175781 C 29.761719 15.175781 29.941406 15.355469 29.941406 15.578125 C 29.941406 15.804688 29.761719 15.984375 29.539062 15.984375 Z M 29.539062 15.984375 "/>
<path style=" stroke:none;fill-rule:nonzero;fill:rgb(13.72549%,12.156863%,12.54902%);fill-opacity:1;" d="M 24.21875 16.398438 L 22.996094 16.398438 C 22.769531 16.398438 22.589844 16.578125 22.589844 16.804688 L 22.589844 18.59375 C 22.589844 18.746094 22.679688 18.890625 22.816406 18.964844 L 24.191406 19.65625 C 24.398438 19.753906 24.632812 19.609375 24.632812 19.386719 L 24.632812 16.8125 C 24.625 16.578125 24.445312 16.398438 24.21875 16.398438 Z M 24.21875 16.398438 "/>
<path style=" stroke:none;fill-rule:nonzero;fill:rgb(13.72549%,12.156863%,12.54902%);fill-opacity:1;" d="M 28.71875 20.078125 L 25.441406 20.078125 C 25.21875 20.078125 25.039062 19.898438 25.039062 19.675781 L 25.039062 16.8125 C 25.039062 16.585938 25.21875 16.40625 25.441406 16.40625 L 28.71875 16.40625 C 28.945312 16.40625 29.125 16.585938 29.125 16.8125 L 29.125 19.675781 C 29.132812 19.890625 28.945312 20.078125 28.71875 20.078125 Z M 28.71875 20.078125 "/>
<path style=" stroke:none;fill-rule:nonzero;fill:url(#linear1);" d="M 21.105469 25.316406 L 19.691406 20.824219 L 12.140625 20.824219 L 5.328125 22.984375 L 5.328125 22.996094 L 3.636719 24.6875 L 3.636719 23.921875 L 3.257812 23.921875 C 2.863281 23.921875 2.546875 24.238281 2.546875 24.632812 L 2.546875 27.808594 C 2.546875 28.207031 2.863281 28.519531 3.257812 28.519531 L 3.636719 28.519531 L 3.636719 26.226562 L 4.878906 24.984375 L 8.398438 24.984375 L 9.757812 26.386719 L 17.261719 26.386719 L 17.261719 25.234375 L 10.234375 25.234375 L 8.746094 23.75 L 12.078125 22.6875 L 18.394531 22.6875 L 19.808594 27.179688 L 24.355469 27.179688 L 24.355469 25.300781 L 21.105469 25.300781 Z M 21.105469 25.316406 "/>
<path style=" stroke:none;fill-rule:nonzero;fill:rgb(72.941176%,74.117647%,71.372549%);fill-opacity:1;" d="M 17.351562 27.558594 L 18.367188 27.558594 C 18.367188 28.988281 17.441406 30.203125 16.164062 30.644531 C 16.902344 29.824219 17.351562 28.746094 17.351562 27.558594 Z M 17.351562 27.558594 "/>
<path style=" stroke:none;fill-rule:nonzero;fill:rgb(0%,31.764706%,16.078431%);fill-opacity:1;" d="M 17.253906 25.253906 L 17.253906 26.40625 L 15.5625 26.40625 L 15.5625 26.847656 C 15.5625 27.242188 15.875 27.558594 16.273438 27.558594 L 18.261719 27.558594 C 18.65625 27.558594 18.972656 27.242188 18.972656 26.847656 L 18.972656 25.964844 C 18.972656 25.570312 18.65625 25.253906 18.261719 25.253906 Z M 17.253906 25.253906 "/>
<path style=" stroke:none;fill-rule:nonzero;fill:rgb(13.72549%,12.156863%,12.54902%);fill-opacity:1;" d="M 3.84375 27.945312 C 3.84375 29.539062 5.128906 30.824219 6.722656 30.824219 C 8.316406 30.824219 9.601562 29.539062 9.601562 27.945312 C 9.601562 26.351562 8.316406 25.066406 6.722656 25.066406 C 5.128906 25.066406 3.84375 26.351562 3.84375 27.945312 Z M 3.84375 27.945312 "/>
<path style=" stroke:none;fill-rule:nonzero;fill:rgb(72.941176%,74.117647%,71.372549%);fill-opacity:1;" d="M 4.941406 27.988281 C 4.941406 27.007812 5.742188 26.207031 6.722656 26.207031 C 7.703125 26.207031 8.503906 27.007812 8.503906 27.988281 C 8.503906 28.972656 7.703125 29.773438 6.722656 29.773438 C 5.742188 29.773438 4.941406 28.980469 4.941406 27.988281 Z M 4.941406 27.988281 "/>
<path style=" stroke:none;fill-rule:nonzero;fill:rgb(13.72549%,12.156863%,12.54902%);fill-opacity:1;" d="M 28.429688 27.945312 C 28.429688 29.539062 29.71875 30.824219 31.3125 30.824219 C 32.902344 30.824219 34.191406 29.539062 34.191406 27.945312 C 34.191406 26.351562 32.902344 25.066406 31.3125 25.066406 C 29.71875 25.066406 28.429688 26.351562 28.429688 27.945312 Z M 28.429688 27.945312 "/>
<path style=" stroke:none;fill-rule:nonzero;fill:rgb(72.941176%,74.117647%,71.372549%);fill-opacity:1;" d="M 29.527344 27.988281 C 29.527344 27.007812 30.328125 26.207031 31.3125 26.207031 C 32.292969 26.207031 33.09375 27.007812 33.09375 27.988281 C 33.09375 28.972656 32.292969 29.773438 31.3125 29.773438 C 30.320312 29.773438 29.527344 28.980469 29.527344 27.988281 Z M 29.527344 27.988281 "/>
<path style=" stroke:none;fill-rule:nonzero;fill:rgb(13.72549%,12.156863%,12.54902%);fill-opacity:1;" d="M 35.539062 27.945312 C 35.539062 29.539062 36.828125 30.824219 38.421875 30.824219 C 40.015625 30.824219 41.300781 29.539062 41.300781 27.945312 C 41.300781 26.351562 40.015625 25.066406 38.421875 25.066406 C 36.828125 25.066406 35.539062 26.351562 35.539062 27.945312 Z M 35.539062 27.945312 "/>
<path style=" stroke:none;fill-rule:nonzero;fill:rgb(72.941176%,74.117647%,71.372549%);fill-opacity:1;" d="M 36.640625 27.988281 C 36.640625 27.007812 37.441406 26.207031 38.421875 26.207031 C 39.402344 26.207031 40.203125 27.007812 40.203125 27.988281 C 40.203125 28.972656 39.402344 29.773438 38.421875 29.773438 C 37.441406 29.773438 36.640625 28.980469 36.640625 27.988281 Z M 36.640625 27.988281 "/>
<path style=" stroke:none;fill-rule:nonzero;fill:rgb(13.72549%,12.156863%,12.54902%);fill-opacity:1;" d="M 35.488281 20.089844 L 36.40625 20.089844 L 36.40625 20.492188 L 35.488281 20.492188 Z M 35.488281 20.089844 "/>
<path style=" stroke:none;fill-rule:nonzero;fill:rgb(13.72549%,12.156863%,12.54902%);fill-opacity:1;" d="M 35.351562 19.828125 L 36.558594 19.828125 L 36.558594 20.347656 L 35.351562 20.347656 Z M 35.351562 19.828125 "/>
<path style=" stroke:none;fill-rule:nonzero;fill:rgb(13.72549%,12.156863%,12.54902%);fill-opacity:1;" d="M 32.554688 20.089844 L 33.472656 20.089844 L 33.472656 20.492188 L 32.554688 20.492188 Z M 32.554688 20.089844 "/>
<path style=" stroke:none;fill-rule:nonzero;fill:rgb(13.72549%,12.156863%,12.54902%);fill-opacity:1;" d="M 32.417969 19.828125 L 33.625 19.828125 L 33.625 20.347656 L 32.417969 20.347656 Z M 32.417969 19.828125 "/>
<path style=" stroke:none;fill-rule:nonzero;fill:url(#linear2);" d="M 41.941406 20.484375 L 28.414062 20.484375 C 28.125 20.484375 27.890625 20.960938 27.890625 21.546875 L 27.890625 25.792969 C 27.890625 26.207031 28.007812 26.566406 28.179688 26.738281 C 28.664062 25.480469 29.878906 24.589844 31.3125 24.589844 C 32.777344 24.589844 34.027344 25.53125 34.480469 26.847656 L 35.101562 26.847656 C 35.550781 25.53125 36.800781 24.589844 38.269531 24.589844 C 39.734375 24.589844 40.984375 25.53125 41.4375 26.847656 L 41.929688 26.847656 C 42.21875 26.847656 42.453125 26.371094 42.453125 25.785156 L 42.453125 21.535156 C 42.460938 20.960938 42.226562 20.484375 41.941406 20.484375 Z M 41.941406 20.484375 "/>
<path style=" stroke:none;fill-rule:nonzero;fill:rgb(0%,31.764706%,16.078431%);fill-opacity:1;" d="M 41.851562 21.886719 L 38.59375 21.886719 C 38.492188 21.886719 38.421875 21.808594 38.421875 21.71875 C 38.421875 21.617188 38.503906 21.546875 38.59375 21.546875 L 41.851562 21.546875 C 41.949219 21.546875 42.019531 21.628906 42.019531 21.71875 C 42.019531 21.808594 41.941406 21.886719 41.851562 21.886719 Z M 41.851562 21.886719 "/>
<path style=" stroke:none;fill-rule:nonzero;fill:rgb(0%,31.764706%,16.078431%);fill-opacity:1;" d="M 41.851562 22.707031 L 38.59375 22.707031 C 38.492188 22.707031 38.421875 22.625 38.421875 22.535156 C 38.421875 22.4375 38.503906 22.363281 38.59375 22.363281 L 41.851562 22.363281 C 41.949219 22.363281 42.019531 22.445312 42.019531 22.535156 C 42.019531 22.625 41.941406 22.707031 41.851562 22.707031 Z M 41.851562 22.707031 "/>
<path style=" stroke:none;fill-rule:nonzero;fill:rgb(0%,31.764706%,16.078431%);fill-opacity:1;" d="M 41.851562 23.527344 L 38.59375 23.527344 C 38.492188 23.527344 38.421875 23.445312 38.421875 23.355469 C 38.421875 23.257812 38.503906 23.183594 38.59375 23.183594 L 41.851562 23.183594 C 41.949219 23.183594 42.019531 23.265625 42.019531 23.355469 C 42.019531 23.445312 41.941406 23.527344 41.851562 23.527344 Z M 41.851562 23.527344 "/>
<path style=" stroke:none;fill-rule:nonzero;fill:rgb(0%,31.764706%,16.078431%);fill-opacity:1;" d="M 23.328125 27.511719 L 25.171875 27.511719 C 25.488281 27.511719 25.75 27.253906 25.75 26.9375 L 25.75 25.902344 L 22.753906 24.8125 L 22.753906 26.929688 C 22.753906 27.253906 23.011719 27.511719 23.328125 27.511719 Z M 23.328125 27.511719 "/>
</g>
</svg>
