<?xml version="1.0" encoding="utf-8"?>
<!-- Generator: Adobe Illustrator 19.0.1, SVG Export Plug-In . SVG Version: 6.00 Build 0)  -->
<svg version="1.1" id="Layer_1" xmlns="http://www.w3.org/2000/svg" xmlns:xlink="http://www.w3.org/1999/xlink" x="0px" y="0px"
	 width="45px" height="45px" viewBox="0 0 45 45" style="enable-background:new 0 0 45 45;" xml:space="preserve">
<style type="text/css">
	.st0{fill:url(#SVGID_1_);}
	.st1{fill:url(#SVGID_2_);}
	.st2{fill:url(#SVGID_3_);}
	.st3{fill:url(#SVGID_4_);}
	.st4{opacity:0.8;}
	.st5{fill:url(#SVGID_5_);}
	.st6{fill:url(#SVGID_6_);}
	.st7{fill:url(#SVGID_7_);}
	.st8{fill:url(#SVGID_8_);}
	.st9{fill:url(#SVGID_9_);}
	.st10{fill:url(#SVGID_10_);}
	.st11{fill:url(#SVGID_11_);}
	.st12{fill:url(#SVGID_12_);}
	.st13{fill:#035129;}
	.st14{fill:#221F1F;}
	.st15{fill:url(#SVGID_13_);}
	.st16{clip-path:url(#SVGID_15_);}
	.st17{fill:none;}
	.st18{fill:#791315;}
	.st19{fill:url(#SVGID_16_);}
	.st20{clip-path:url(#SVGID_18_);}
</style>
<linearGradient id="SVGID_1_" gradientUnits="userSpaceOnUse" x1="22.5" y1="45" x2="22.5" y2="-0.3102">
	<stop  offset="0" style="stop-color:#BC2130"/>
	<stop  offset="0.4302" style="stop-color:#EE412D"/>
</linearGradient>
<circle class="st0" cx="22.5" cy="22.5" r="22.5"/>
<g class="st4">
	<path d="M29.5,25.712c0-1.327-0.405-2.411-1.216-3.253c-0.81-0.842-2.146-1.592-4.007-2.25c-0.918-0.312-1.635-0.586-2.151-0.822
		c-0.517-0.235-0.88-0.45-1.089-0.641s-0.313-0.434-0.313-0.728c0-0.338,0.145-0.595,0.434-0.768c0.289-0.174,0.79-0.26,1.502-0.26
		c1.347,0,2.841,0.339,4.483,1.017c0.304,0.125,0.656-0.008,0.783-0.311l1.128-2.7c0.128-0.307-0.019-0.667-0.329-0.788
		c-1.426-0.559-2.808-0.905-4.217-1.037C24.201,13.141,24,12.892,24,12.583V11.92c0-0.329-0.336-0.92-0.665-0.92H21.76
		C21.431,11,21,11.592,21,11.92v0.714c0,0.298-0.146,0.544-0.441,0.586c-1.629,0.231-2.829,0.722-3.684,1.472
		c-0.945,0.828-1.396,1.977-1.396,3.446c0,0.962,0.169,1.766,0.485,2.411c0.316,0.645,0.826,1.229,1.521,1.75
		c0.694,0.522,1.61,0.992,2.741,1.409c1.006,0.365,1.807,0.677,2.399,0.936s1.016,0.49,1.269,0.694
		c0.254,0.206,0.381,0.454,0.381,0.748c0,0.428-0.176,0.732-0.528,0.915c-0.352,0.183-0.907,0.274-1.663,0.274
		c-0.918,0-1.982-0.176-3.193-0.528c-0.896-0.261-1.507-0.568-2.306-0.924C16.199,25.652,16,25.948,16,26.373v3.091
		c0,0.243-0.089,0.468,0.137,0.56c1.521,0.616,2.891,0.989,4.513,1.118C20.959,31.166,21,31.416,21,31.727v1.352
		c0,0.329,0.431,0.92,0.76,0.92h1.575C23.664,34,24,33.408,24,33.08v-1.474c0-0.293,0.185-0.535,0.474-0.583
		c1.568-0.263,2.763-0.818,3.621-1.663C29.044,28.425,29.5,27.209,29.5,25.712z M14.005,17.54c0.122-1.647,0.75-2.984,1.881-3.976
		c0.215-0.189,0.448-0.361,0.692-0.522l-3.977-3.977c-0.977-0.977-2.559-0.977-3.535,0c-0.977,0.976-0.977,2.559,0,3.535
		L14.005,17.54z M30.433,13.941c0.22,0.519,0.222,1.113,0.006,1.632l-0.837,2.993c0.807-0.561,6.333-5.965,6.333-5.965
		c0.977-0.976,0.977-2.559,0-3.535c-0.977-0.977-2.559-0.977-3.535,0l-3.581,3.581c0.151,0.055,0.301,0.105,0.453,0.165
		C29.798,13.016,30.21,13.418,30.433,13.941z M30.835,27.3c-0.256,1.22-0.817,2.27-1.688,3.129
		c-0.376,0.371-0.815,0.685-1.288,0.966l4.54,4.54c0.488,0.488,1.128,0.732,1.768,0.732s1.279-0.244,1.768-0.732
		c0.977-0.977,0.977-2.559,0-3.535L30.835,27.3z M14.496,29.499l0.003-2.534l-5.434,5.434c-0.977,0.977-0.977,2.559,0,3.535
		c0.488,0.488,1.128,0.732,1.768,0.732s1.279-0.244,1.768-0.732l4.102-4.102c-0.368-0.125-0.742-0.262-1.129-0.419
		C15.212,31.267,14.386,30.787,14.496,29.499z"/>
</g>
</svg>
