<?xml version="1.0" encoding="utf-8"?>
<!-- Generator: Adobe Illustrator 19.0.1, SVG Export Plug-In . SVG Version: 6.00 Build 0)  -->
<svg version="1.1" id="Layer_1" xmlns="http://www.w3.org/2000/svg" xmlns:xlink="http://www.w3.org/1999/xlink" x="0px" y="0px"
	 width="45px" height="45px" viewBox="0 0 45 45" style="enable-background:new 0 0 45 45;" xml:space="preserve">
<style type="text/css">
	.st0{fill:#005129;}
	.st1{fill:url(#SVGID_1_);}
	.st2{fill:#7A0511;}
	.st3{fill:url(#SVGID_2_);}
	.st4{fill:url(#SVGID_3_);}
	.st5{fill:none;stroke:#7A0511;stroke-width:1.1677;stroke-miterlimit:10;}
	.st6{fill:none;stroke:#7A0511;stroke-width:1.022;stroke-miterlimit:10;}
	.st7{fill:url(#SVGID_4_);}
	.st8{fill:url(#SVGID_5_);}
	.st9{fill:url(#SVGID_6_);}
	.st10{fill:url(#SVGID_7_);}
	.st11{fill:url(#SVGID_8_);}
	.st12{fill:url(#SVGID_9_);}
	.st13{fill:url(#SVGID_10_);}
	.st14{fill:url(#SVGID_11_);}
	.st15{fill:#231F20;}
	.st16{fill:url(#SVGID_12_);}
	.st17{fill:url(#SVGID_13_);}
	.st18{fill:url(#SVGID_14_);}
	.st19{fill:url(#SVGID_15_);}
	.st20{fill:url(#SVGID_16_);}
	.st21{fill:url(#SVGID_17_);}
	.st22{fill:url(#SVGID_18_);}
	.st23{fill:url(#SVGID_19_);}
	.st24{fill:url(#SVGID_20_);}
	.st25{fill:url(#SVGID_21_);}
	.st26{fill:url(#SVGID_22_);}
	.st27{fill:#8CC63F;}
	.st28{fill:url(#SVGCleanerId_0_8_);}
	.st29{fill:url(#SVGCleanerId_0_9_);}
	.st30{fill:url(#SVGID_23_);}
	.st31{fill:url(#SVGID_24_);}
	.st32{fill:#EE412E;}
	.st33{fill:url(#SVGCleanerId_0_10_);}
	.st34{fill:url(#SVGID_25_);}
	.st35{fill:url(#SVGID_26_);}
	.st36{fill:url(#SVGID_27_);}
	.st37{fill:url(#SVGID_28_);}
	.st38{fill:url(#SVGID_29_);}
	.st39{fill:url(#SVGID_30_);}
	.st40{fill:url(#SVGID_31_);}
	.st41{fill:url(#SVGID_32_);}
	.st42{fill:url(#SVGID_33_);}
	.st43{fill:url(#SVGID_34_);}
	.st44{fill:#006838;}
	.st45{fill:url(#SVGID_35_);}
	.st46{fill:url(#SVGID_36_);}
	.st47{fill:url(#SVGID_37_);}
	.st48{fill:url(#SVGID_38_);}
	.st49{fill:url(#SVGID_39_);}
	.st50{fill:url(#SVGID_40_);}
	.st51{fill:url(#SVGID_41_);}
	.st52{fill:url(#SVGID_42_);}
	.st53{fill:url(#SVGID_43_);}
	.st54{fill:url(#SVGID_44_);}
	.st55{fill:url(#SVGID_45_);}
	.st56{fill:url(#SVGID_46_);}
	.st57{fill:url(#SVGID_47_);}
	.st58{fill:url(#SVGID_48_);}
	.st59{fill:url(#SVGID_49_);}
	.st60{fill:url(#SVGID_50_);}
	.st61{fill:url(#SVGID_51_);}
	.st62{fill:url(#SVGID_52_);}
	.st63{fill:url(#SVGID_53_);}
	.st64{fill:url(#SVGID_54_);}
	.st65{fill:url(#SVGID_55_);}
	.st66{fill:url(#SVGID_56_);}
	.st67{fill:url(#SVGID_57_);}
	.st68{fill:url(#SVGID_58_);}
	.st69{fill:url(#SVGID_59_);}
	.st70{fill:url(#SVGID_60_);}
	.st71{fill:url(#SVGID_61_);}
	.st72{fill:url(#SVGID_62_);}
	.st73{fill:url(#SVGID_63_);}
	.st74{fill:url(#SVGID_64_);}
	.st75{fill:url(#SVGID_65_);}
	.st76{fill:url(#SVGID_66_);}
	.st77{fill:url(#SVGID_67_);}
	.st78{fill:url(#SVGID_68_);}
	.st79{fill:url(#SVGID_69_);}
	.st80{fill:url(#SVGID_70_);}
	.st81{fill:url(#SVGID_71_);}
	.st82{fill:url(#SVGID_72_);}
	.st83{fill:url(#SVGID_73_);}
	.st84{fill:url(#SVGID_74_);}
	.st85{fill:url(#SVGID_75_);}
	.st86{fill:url(#SVGID_76_);}
	.st87{fill:url(#SVGID_77_);}
	.st88{fill:url(#SVGID_78_);}
	.st89{fill:url(#SVGID_79_);}
	.st90{fill:url(#SVGID_80_);}
	.st91{fill:url(#SVGID_81_);}
	.st92{fill:url(#SVGID_82_);}
	.st93{fill:url(#SVGID_83_);}
	.st94{fill:url(#SVGID_84_);}
	.st95{fill:url(#SVGID_85_);}
	.st96{fill:url(#SVGID_86_);}
	.st97{fill:url(#SVGID_87_);}
	.st98{fill:url(#SVGID_88_);}
	.st99{fill:#91ACB4;}
	.st100{fill:url(#SVGCleanerId_0_11_);}
	.st101{fill:url(#SVGID_89_);}
	.st102{fill:url(#SVGID_90_);}
	.st103{fill:url(#SVGID_91_);}
	.st104{fill:url(#SVGID_92_);}
	.st105{fill:url(#SVGID_93_);}
	.st106{fill:url(#SVGCleanerId_0_12_);}
	.st107{fill:url(#SVGID_94_);}
	.st108{fill:url(#SVGID_95_);}
	.st109{fill:url(#SVGID_96_);}
	.st110{fill:url(#SVGID_97_);}
	.st111{fill:url(#SVGID_98_);}
	.st112{fill:url(#SVGID_99_);}
	.st113{fill:url(#SVGID_100_);}
	.st114{fill:url(#SVGID_101_);}
	.st115{fill:url(#SVGID_102_);}
	.st116{fill:url(#SVGID_103_);}
	.st117{fill:url(#SVGID_104_);}
	.st118{fill:url(#SVGID_105_);}
	.st119{fill:url(#SVGID_106_);}
	.st120{fill:url(#SVGID_107_);}
	.st121{fill:url(#SVGID_108_);}
	.st122{fill:url(#SVGID_109_);}
	.st123{fill:url(#SVGID_110_);}
	.st124{fill:url(#SVGID_111_);}
	.st125{fill:url(#SVGID_112_);}
	.st126{fill:url(#SVGID_113_);}
	.st127{fill:url(#SVGID_114_);}
	.st128{fill:url(#SVGID_115_);}
	.st129{fill:url(#SVGID_116_);}
	.st130{fill:url(#SVGID_117_);}
	.st131{fill:url(#SVGID_118_);}
	.st132{fill:url(#SVGID_119_);}
	.st133{fill:url(#SVGID_120_);}
	.st134{fill:url(#SVGID_121_);}
	.st135{fill:url(#SVGID_122_);}
	.st136{fill:#535353;}
	.st137{fill:#A1A0A0;}
	.st138{fill:#CACCD0;}
	.st139{fill:url(#SVGID_123_);}
	.st140{fill:url(#SVGID_124_);}
	.st141{fill:url(#SVGID_125_);}
	.st142{fill:url(#SVGID_126_);}
	.st143{fill:url(#SVGID_127_);}
	.st144{fill:url(#SVGID_128_);}
	.st145{fill:url(#SVGID_129_);}
	.st146{fill:url(#SVGID_130_);}
	.st147{fill:url(#SVGID_131_);}
	.st148{fill-rule:evenodd;clip-rule:evenodd;fill:#8CC63F;}
	.st149{fill:url(#SVGID_132_);}
	.st150{fill:url(#SVGID_133_);}
	.st151{fill:url(#SVGID_134_);}
	.st152{fill:url(#SVGID_135_);}
	.st153{fill-rule:evenodd;clip-rule:evenodd;fill:#EE412E;}
	.st154{fill:url(#SVGID_136_);}
	.st155{fill:url(#SVGID_137_);}
	.st156{fill:url(#SVGID_138_);}
	.st157{fill:url(#SVGID_139_);}
	.st158{fill:url(#SVGID_140_);}
	.st159{fill:url(#SVGID_141_);}
	.st160{fill:url(#SVGID_142_);}
	.st161{fill:url(#SVGID_143_);}
	.st162{fill:url(#SVGID_144_);}
	.st163{fill:url(#SVGID_145_);}
	.st164{fill:url(#SVGID_146_);}
	.st165{fill:url(#SVGID_147_);}
	.st166{fill:url(#SVGID_148_);}
	.st167{fill:url(#SVGID_149_);}
	.st168{fill:url(#SVGID_150_);}
	.st169{fill:url(#SVGID_151_);}
	.st170{fill:url(#SVGID_152_);}
	.st171{fill:url(#SVGID_153_);}
	.st172{fill:url(#SVGID_154_);}
	.st173{fill:url(#SVGID_155_);}
	.st174{fill:url(#SVGID_156_);}
	.st175{fill:url(#SVGID_157_);}
	.st176{fill:url(#SVGID_158_);}
	.st177{fill:url(#SVGID_159_);}
	.st178{fill:url(#SVGID_160_);}
	.st179{fill:url(#SVGID_161_);}
	.st180{fill:url(#SVGID_162_);}
	.st181{fill:url(#SVGID_163_);}
	.st182{fill:url(#SVGID_164_);}
	.st183{fill:url(#SVGID_165_);}
	.st184{fill:url(#SVGID_166_);}
	.st185{fill:url(#SVGID_167_);}
	.st186{fill:url(#SVGID_168_);}
	.st187{fill:url(#SVGID_169_);}
	.st188{fill:url(#SVGID_170_);}
	.st189{fill:url(#SVGID_171_);}
	.st190{fill:url(#SVGID_172_);}
	.st191{fill:url(#SVGID_173_);}
	.st192{fill:url(#SVGID_174_);}
	.st193{fill:url(#SVGID_175_);}
	.st194{fill:url(#SVGID_176_);}
	.st195{fill:url(#SVGID_177_);}
</style>
<g>
	<path class="st2" d="M28.155,15.714l-1.157-5.94c-0.044-0.23-0.245-0.396-0.478-0.396H14.086c-0.234,0-0.434,0.166-0.478,0.396
		l-1.186,6.006L28.155,15.714z"/>
	<path class="st32" d="M13.994,11.38h0.988v3.154h1.095V11.38h0.986v-0.894h-3.067v0.894H13.994z M17.883,10.471l-1.321,4.066h1.203
		l0.205-0.758h1.315l0.199,0.758h1.197l-1.337-4.066H17.883z M18.29,12.879c0.167-0.634,0.276-1.061,0.325-1.276
		c0.049-0.217,0.081-0.37,0.098-0.465c0.018,0.102,0.057,0.27,0.114,0.504c0.059,0.234,0.108,0.425,0.148,0.573l0.175,0.666h-0.86
		V12.879z M24.915,10.486h-1.248l-0.703,1.252l-0.73-1.252h-1.213l1.262,1.977l-1.343,2.071h1.238l0.782-1.266l0.79,1.266h1.266
		l-1.38-1.985L24.915,10.486z M25.383,10.486v4.048h1.101v-4.048H25.383z"/>
	
		<linearGradient id="SVGCleanerId_0_8_" gradientUnits="userSpaceOnUse" x1="22.5583" y1="-96.0662" x2="22.5583" y2="-78.1127" gradientTransform="matrix(1 0 0 -1 0 -64)">
		<stop  offset="0" style="stop-color:#BD212F"/>
		<stop  offset="0.4302" style="stop-color:#EE412E"/>
	</linearGradient>
	<path id="SVGCleanerId_0_1_" class="st28" d="M35.191,22.581l-5.484-6.073c-0.585-0.647-1.418-1.017-2.29-1.017H13.072
		c-0.891,0-1.738,0.385-2.324,1.056l-5.135,5.984c-0.283,0.33-0.695,0.52-1.131,0.52H3.149c-0.623,0-1.138,0.486-1.174,1.107
		l-1.586,7.052h44.339l-1.144-7.205c-0.146-0.562-0.652-0.953-1.233-0.953h-6.104C35.846,23.05,35.462,22.879,35.191,22.581z"/>
	<g>
		<path class="st2" d="M43.981,26.636H42.56c-0.239,0-0.433,0.194-0.433,0.433v1.368c0,0.239,0.194,0.433,0.433,0.433h1.805
			L43.981,26.636z"/>
		<path class="st2" d="M2.912,26.636H1.417l-0.501,2.233h1.996c0.239,0,0.433-0.194,0.433-0.433v-1.368
			C3.345,26.829,3.15,26.636,2.912,26.636z"/>
	</g>
	<path class="st2" d="M34.502,31.623H13.999V29.5h20.503V31.623z"/>
	<g>
		<path class="st15" d="M22.088,22.814h8.788c0.534,0,0.815-0.632,0.457-1.028l-3.612-3.999c-0.117-0.129-0.282-0.203-0.457-0.203
			H22.07c-0.341,0-0.617,0.277-0.616,0.618l0.019,3.999C21.474,22.54,21.749,22.814,22.088,22.814z"/>
		<path class="st15" d="M18.568,17.585h-5.149c-0.18,0-0.351,0.078-0.467,0.215l-3.42,3.999c-0.342,0.399-0.057,1.015,0.467,1.015
			h8.569c0.339,0,0.616-0.275,0.616-0.616v-3.999C19.184,17.86,18.908,17.585,18.568,17.585z"/>
	</g>
	<path class="st2" d="M6.33,31.623H0.484c-0.586,0-0.449-0.475-0.449-1.062l0,0c0-0.586,0.135-1.062,0.721-1.062h6.19
		c0.586,0-0.184,0.475-0.184,1.062l0,0C6.762,31.147,6.917,31.623,6.33,31.623z"/>
	<path class="st2" d="M44.506,31.623h-6.655c-0.586,0-1.062-0.475-1.062-1.062l0,0c0-0.586,0.475-1.062,1.062-1.062h6.655
		c0.586,0,0.462,0.475,0.462,1.062l0,0C44.968,31.147,45.092,31.623,44.506,31.623z"/>
	<g>
		<rect x="11.16" y="24.624" class="st15" width="1.256" height="1.256"/>
	</g>
	<rect x="13.672" y="24.624" class="st15" width="1.256" height="1.256"/>
	<rect x="12.416" y="25.88" class="st15" width="1.256" height="1.256"/>
	<rect x="16.184" y="24.624" class="st15" width="1.256" height="1.256"/>
	<rect x="14.928" y="25.88" class="st15" width="1.256" height="1.256"/>
	<rect x="18.697" y="24.624" class="st15" width="1.256" height="1.256"/>
	<rect x="17.441" y="25.88" class="st15" width="1.256" height="1.256"/>
	<rect x="21.209" y="24.606" class="st15" width="1.256" height="1.256"/>
	<rect x="19.953" y="25.862" class="st15" width="1.256" height="1.256"/>
	<rect x="23.721" y="24.624" class="st15" width="1.256" height="1.256"/>
	<rect x="22.465" y="25.88" class="st15" width="1.256" height="1.256"/>
	<rect x="26.233" y="24.624" class="st15" width="1.256" height="1.256"/>
	<rect x="24.977" y="25.88" class="st15" width="1.256" height="1.256"/>
	<rect x="28.745" y="24.606" class="st15" width="1.256" height="1.256"/>
	<rect x="27.489" y="25.862" class="st15" width="1.256" height="1.256"/>
	<circle class="st15" cx="10.309" cy="31.408" r="4.213"/>
	
		<linearGradient id="SVGID_1_" gradientUnits="userSpaceOnUse" x1="10.3093" y1="-97.9201" x2="10.3093" y2="-92.6723" gradientTransform="matrix(1 0 0 -1 0 -64)">
		<stop  offset="0" style="stop-color:#BD212F"/>
		<stop  offset="0.4302" style="stop-color:#EE412E"/>
	</linearGradient>
	<circle class="st1" cx="10.309" cy="31.408" r="2.736"/>
	<circle class="st2" cx="10.309" cy="31.408" r="1.25"/>
	<circle class="st15" cx="34.252" cy="31.408" r="4.213"/>
	
		<linearGradient id="SVGID_2_" gradientUnits="userSpaceOnUse" x1="34.2525" y1="-97.9201" x2="34.2525" y2="-92.6723" gradientTransform="matrix(1 0 0 -1 0 -64)">
		<stop  offset="0" style="stop-color:#BD212F"/>
		<stop  offset="0.4302" style="stop-color:#EE412E"/>
	</linearGradient>
	<circle class="st3" cx="34.252" cy="31.408" r="2.736"/>
	<circle class="st2" cx="34.252" cy="31.408" r="1.25"/>
</g>
</svg>
