<?xml version="1.0" encoding="UTF-8"?>
<svg xmlns="http://www.w3.org/2000/svg" xmlns:xlink="http://www.w3.org/1999/xlink" width="45pt" height="45pt" viewBox="0 0 45 45" version="1.1">
<defs>
<linearGradient id="linear0" gradientUnits="userSpaceOnUse" x1="265.1541" y1="350.3696" x2="265.1541" y2="139.2937" gradientTransform="matrix(0.09,0,0,0.09,0,0)">
<stop offset="0" style="stop-color:rgb(2.745098%,57.254902%,27.843137%);stop-opacity:1;"/>
<stop offset="1" style="stop-color:rgb(54.509804%,76.470588%,25.882353%);stop-opacity:1;"/>
</linearGradient>
<linearGradient id="linear1" gradientUnits="userSpaceOnUse" x1="62.3959" y1="340.1127" x2="62.3959" y2="264.9512" gradientTransform="matrix(0.09,0,0,0.09,0,0)">
<stop offset="0" style="stop-color:rgb(2.745098%,57.254902%,27.843137%);stop-opacity:1;"/>
<stop offset="1" style="stop-color:rgb(54.509804%,76.470588%,25.882353%);stop-opacity:1;"/>
</linearGradient>
<linearGradient id="linear2" gradientUnits="userSpaceOnUse" x1="236.795" y1="130.6538" x2="368.784" y2="130.6538" gradientTransform="matrix(0.09,0,0,0.09,0,0)">
<stop offset="0" style="stop-color:rgb(2.745098%,57.254902%,27.843137%);stop-opacity:1;"/>
<stop offset="1" style="stop-color:rgb(54.509804%,76.470588%,25.882353%);stop-opacity:1;"/>
</linearGradient>
</defs>
<g id="surface1">
<path style=" stroke:none;fill-rule:evenodd;fill:url(#linear0);" d="M 28.972656 18.765625 C 27.917969 19.332031 26.414062 21.816406 25.8125 23.929688 L 21.277344 23.929688 L 21.3125 18.242188 C 17.738281 18.242188 6.910156 17.800781 6.910156 20.816406 L 8.972656 20.816406 C 9.640625 20.816406 10.269531 20.925781 10.484375 21.808594 L 10.953125 23.707031 L 11.617188 28.070312 L 13.355469 28.078125 L 20.71875 28.117188 L 27.414062 28.152344 C 28.882812 28.160156 29.519531 29.824219 30.949219 29.824219 C 33.355469 29.824219 35.226562 28.078125 35.675781 25.621094 C 36.296875 22.230469 40.714844 23.929688 40.816406 21.671875 C 40.851562 20.933594 37.277344 16.171875 28.972656 18.765625 Z M 28.972656 18.765625 "/>
<path style=" stroke:none;fill-rule:evenodd;fill:url(#linear1);" d="M 2.519531 25.109375 C 2.519531 25.765625 2.636719 28.285156 2.808594 28.46875 C 3.058594 28.738281 6.300781 28.90625 7.515625 28.90625 C 9.179688 28.90625 9.007812 24.390625 7.667969 24.390625 C 6.859375 24.390625 2.582031 24.742188 2.519531 25.109375 Z M 2.519531 25.109375 "/>
<path style=" stroke:none;fill-rule:evenodd;fill:rgb(25.098039%,25.098039%,25.490196%);fill-opacity:1;" d="M 9.703125 16.507812 L 10.476562 16.507812 L 10.476562 19.277344 L 9.703125 19.277344 Z M 9.703125 16.507812 "/>
<path style=" stroke:none;fill-rule:evenodd;fill:rgb(25.098039%,25.098039%,25.490196%);fill-opacity:1;" d="M 21.167969 23.183594 L 26.226562 23.183594 L 26.226562 24.289062 L 21.167969 24.289062 Z M 21.167969 23.183594 "/>
<path style=" stroke:none;fill-rule:evenodd;fill:rgb(0%,31.764706%,16.078431%);fill-opacity:1;" d="M 14.300781 27.882812 L 32.140625 27.882812 L 32.140625 30.796875 L 14.300781 30.796875 Z M 14.300781 27.882812 "/>
<path style=" stroke:none;fill-rule:evenodd;fill:rgb(25.098039%,25.098039%,25.490196%);fill-opacity:1;" d="M 29.042969 12.589844 L 29.042969 19.871094 L 28.46875 19.871094 L 28.46875 12.589844 L 21.203125 12.589844 L 21.3125 12.097656 L 32.371094 11.816406 L 32.371094 12.589844 Z M 29.042969 12.589844 "/>
<path style=" stroke:none;fill-rule:evenodd;fill:rgb(25.098039%,25.098039%,25.490196%);fill-opacity:1;" d="M 33.183594 12.527344 L 33.984375 18.648438 L 32.8125 18.683594 L 32.273438 12.601562 Z M 33.183594 12.527344 "/>
<path style=" stroke:none;fill-rule:evenodd;fill:rgb(25.098039%,25.098039%,25.490196%);fill-opacity:1;" d="M 33.011719 17.398438 C 31.941406 17.398438 29.132812 17.863281 28.546875 18.316406 C 27.40625 19.1875 25.136719 22.933594 25.398438 25.308594 C 25.667969 27.800781 31.050781 26.082031 31.933594 22.390625 C 32.039062 21.90625 34.507812 17.308594 33.011719 17.398438 Z M 33.011719 17.398438 "/>
<path style=" stroke:none;fill-rule:evenodd;fill:rgb(25.098039%,25.098039%,25.490196%);fill-opacity:1;" d="M 22.714844 12.429688 L 23.308594 12.429688 L 23.308594 25.210938 L 22.714844 25.210938 Z M 22.714844 12.429688 "/>
<path style=" stroke:none;fill-rule:evenodd;fill:rgb(13.72549%,12.156863%,12.54902%);fill-opacity:1;" d="M 6.910156 20.816406 L 7.515625 26.191406 L 12.609375 26.191406 L 10.988281 20.609375 Z M 6.910156 20.816406 "/>
<path style=" stroke:none;fill-rule:evenodd;fill:rgb(25.098039%,25.098039%,25.490196%);fill-opacity:1;" d="M 21.140625 18.648438 L 21.734375 18.648438 L 21.734375 23.929688 L 21.140625 23.929688 Z M 21.140625 18.648438 "/>
<path style=" stroke:none;fill-rule:evenodd;fill:url(#linear2);" d="M 21.3125 12.097656 C 21.3125 10.84375 28.285156 10.78125 31.84375 11.035156 C 33.09375 11.125 33.109375 11.90625 33.191406 12.589844 L 32.28125 12.589844 C 32.21875 12.3125 32.074219 12.097656 30.925781 12.097656 Z M 21.3125 12.097656 "/>
<path style=" stroke:none;fill-rule:evenodd;fill:rgb(25.098039%,25.098039%,25.490196%);fill-opacity:1;" d="M 20.914062 18.242188 L 28.636719 18.242188 L 28.636719 18.746094 L 20.835938 18.730469 Z M 20.914062 18.242188 "/>
<path style=" stroke:none;fill-rule:evenodd;fill:rgb(25.098039%,25.098039%,25.490196%);fill-opacity:1;" d="M 20.464844 13.636719 L 21.214844 13.636719 C 21.347656 13.636719 21.457031 13.742188 21.457031 13.878906 L 21.457031 16.398438 C 21.457031 16.53125 21.347656 16.640625 21.214844 16.640625 L 20.464844 16.640625 C 20.332031 16.640625 20.222656 16.53125 20.222656 16.398438 L 20.222656 13.878906 C 20.222656 13.742188 20.332031 13.636719 20.464844 13.636719 Z M 20.464844 13.636719 "/>
<path style=" stroke:none;fill-rule:nonzero;fill:rgb(25.098039%,25.098039%,25.490196%);fill-opacity:1;" d="M 20.90625 14.039062 L 20.683594 14.039062 L 20.683594 13.140625 C 20.683594 12.691406 21.050781 12.3125 21.511719 12.3125 L 22.652344 12.304688 L 22.652344 12.527344 L 21.511719 12.535156 C 21.175781 12.535156 20.90625 12.808594 20.90625 13.140625 Z M 20.90625 14.039062 "/>
<path style=" stroke:none;fill-rule:evenodd;fill:rgb(0%,31.764706%,16.078431%);fill-opacity:1;" d="M 41.535156 22.300781 C 41.175781 21.015625 36.332031 17.523438 32.003906 18.808594 C 28.0625 19.980469 25.882812 22.660156 25.820312 28.160156 L 30.925781 28.160156 Z M 41.535156 22.300781 "/>
<path style=" stroke:none;fill-rule:evenodd;fill:rgb(25.098039%,25.098039%,25.490196%);fill-opacity:1;" d="M 24.507812 24.625 L 24.21875 30.734375 L 25.335938 30.734375 L 25.675781 24.625 Z M 24.507812 24.625 "/>
<path style=" stroke:none;fill-rule:evenodd;fill:rgb(25.098039%,25.098039%,25.490196%);fill-opacity:1;" d="M 22.3125 24.625 L 22.015625 30.742188 L 23.128906 30.734375 L 23.472656 24.625 Z M 22.3125 24.625 "/>
<path style=" stroke:none;fill-rule:evenodd;fill:rgb(25.098039%,25.098039%,25.490196%);fill-opacity:1;" d="M 22.554688 25.804688 L 25.414062 25.804688 L 25.414062 26.101562 L 22.554688 26.101562 Z M 22.554688 25.804688 "/>
<path style=" stroke:none;fill-rule:evenodd;fill:rgb(25.098039%,25.098039%,25.490196%);fill-opacity:1;" d="M 22.429688 27.882812 L 25.28125 27.882812 L 25.28125 28.179688 L 22.429688 28.179688 Z M 22.429688 27.882812 "/>
<path style=" stroke:none;fill-rule:evenodd;fill:rgb(25.098039%,25.098039%,25.490196%);fill-opacity:1;" d="M 22.292969 30.4375 L 25.144531 30.4375 L 25.144531 30.734375 L 22.292969 30.734375 Z M 22.292969 30.4375 "/>
<path style=" stroke:none;fill-rule:evenodd;fill:rgb(0%,31.764706%,16.078431%);fill-opacity:1;" d="M 12.382812 24.335938 L 11.863281 21.382812 C 11.816406 21.140625 11.890625 20.914062 12.070312 20.726562 C 12.25 20.539062 12.484375 20.429688 12.769531 20.410156 L 13.714844 20.367188 C 14.21875 20.339844 14.652344 20.636719 14.742188 21.058594 L 15.34375 24.019531 C 15.398438 24.265625 15.328125 24.496094 15.136719 24.695312 C 14.957031 24.894531 14.707031 25.003906 14.417969 25.011719 L 13.390625 25.046875 C 12.886719 25.074219 12.457031 24.769531 12.382812 24.335938 Z M 12.382812 24.335938 "/>
<path style=" stroke:none;fill-rule:evenodd;fill:rgb(13.72549%,12.156863%,12.54902%);fill-opacity:1;" d="M 12.582031 24.101562 L 12.203125 21.589844 C 12.175781 21.382812 12.222656 21.195312 12.355469 21.03125 C 12.492188 20.871094 12.664062 20.78125 12.871094 20.773438 L 13.5625 20.726562 C 13.933594 20.710938 14.246094 20.960938 14.308594 21.320312 L 14.75 23.851562 C 14.785156 24.058594 14.734375 24.253906 14.605469 24.425781 C 14.472656 24.589844 14.292969 24.6875 14.074219 24.695312 L 13.328125 24.722656 C 12.960938 24.722656 12.636719 24.460938 12.582031 24.101562 Z M 12.582031 24.101562 "/>
<path style=" stroke:none;fill-rule:evenodd;fill:rgb(25.098039%,25.098039%,25.490196%);fill-opacity:1;" d="M 22.3125 23.183594 L 26.054688 23.183594 C 25.847656 23.8125 25.8125 24.226562 25.730469 24.640625 L 22.3125 24.640625 Z M 22.3125 23.183594 "/>
<path style=" stroke:none;fill-rule:evenodd;fill:rgb(34.509804%,34.901961%,35.686275%);fill-opacity:1;" d="M 11.25 24.328125 C 14.113281 24.328125 16.441406 26.648438 16.441406 29.519531 C 16.441406 32.382812 14.121094 34.714844 11.25 34.714844 C 8.386719 34.714844 6.058594 32.390625 6.058594 29.519531 C 6.066406 26.648438 8.386719 24.328125 11.25 24.328125 Z M 11.25 24.328125 "/>
<path style=" stroke:none;fill-rule:nonzero;fill:rgb(13.72549%,12.156863%,12.54902%);fill-opacity:1;" d="M 42.148438 27.179688 C 42.148438 31.472656 38.664062 34.957031 34.371094 34.957031 C 30.078125 34.957031 26.59375 31.472656 26.59375 27.179688 C 26.59375 22.886719 30.078125 19.402344 34.371094 19.402344 C 38.664062 19.402344 42.148438 22.886719 42.148438 27.179688 Z M 42.148438 27.179688 "/>
<path style=" stroke:none;fill-rule:nonzero;fill:rgb(72.54902%,71.764706%,74.117647%);fill-opacity:1;" d="M 39.230469 27.179688 C 39.230469 29.863281 37.054688 32.039062 34.371094 32.039062 C 31.6875 32.039062 29.511719 29.863281 29.511719 27.179688 C 29.511719 24.496094 31.6875 22.320312 34.371094 22.320312 C 37.054688 22.320312 39.230469 24.496094 39.230469 27.179688 Z M 39.230469 27.179688 "/>
<path style=" stroke:none;fill-rule:evenodd;fill:rgb(0%,31.764706%,16.078431%);fill-opacity:1;" d="M 17.171875 30.796875 C 17.261719 30.382812 17.308594 29.960938 17.308594 29.519531 C 17.308594 26.179688 14.597656 23.472656 11.257812 23.472656 C 7.921875 23.472656 5.210938 26.179688 5.210938 29.519531 C 5.210938 29.960938 5.257812 30.382812 5.347656 30.796875 Z M 17.171875 30.796875 "/>
<path style=" stroke:none;fill-rule:nonzero;fill:rgb(13.72549%,12.156863%,12.54902%);fill-opacity:1;" d="M 36.730469 27.164062 C 36.722656 25.863281 35.65625 24.8125 34.355469 24.824219 C 33.054688 24.832031 32.003906 25.894531 32.015625 27.195312 C 32.023438 28.5 33.085938 29.546875 34.386719 29.539062 C 35.691406 29.53125 36.738281 28.464844 36.730469 27.164062 Z M 36.730469 27.164062 "/>
<path style=" stroke:none;fill-rule:nonzero;fill:rgb(13.72549%,12.156863%,12.54902%);fill-opacity:1;" d="M 16.460938 29.539062 C 16.460938 32.414062 14.128906 34.75 11.25 34.75 C 8.371094 34.75 6.039062 32.414062 6.039062 29.539062 C 6.039062 26.660156 8.371094 24.328125 11.25 24.328125 C 14.128906 24.328125 16.460938 26.660156 16.460938 29.539062 Z M 16.460938 29.539062 "/>
<path style=" stroke:none;fill-rule:nonzero;fill:rgb(72.54902%,71.764706%,74.117647%);fill-opacity:1;" d="M 14.507812 29.539062 C 14.507812 31.335938 13.050781 32.796875 11.25 32.796875 C 9.449219 32.796875 7.992188 31.335938 7.992188 29.539062 C 7.992188 27.738281 9.449219 26.28125 11.25 26.28125 C 13.050781 26.28125 14.507812 27.738281 14.507812 29.539062 Z M 14.507812 29.539062 "/>
<path style=" stroke:none;fill-rule:nonzero;fill:rgb(13.72549%,12.156863%,12.54902%);fill-opacity:1;" d="M 12.824219 29.527344 C 12.820312 28.65625 12.109375 27.957031 11.238281 27.964844 C 10.371094 27.96875 9.667969 28.679688 9.675781 29.550781 C 9.679688 30.417969 10.390625 31.121094 11.261719 31.113281 C 12.132812 31.109375 12.832031 30.398438 12.824219 29.527344 Z M 12.824219 29.527344 "/>
</g>
</svg>
