<?xml version="1.0" encoding="utf-8"?>
<!-- Generator: Adobe Illustrator 19.0.1, SVG Export Plug-In . SVG Version: 6.00 Build 0)  -->
<svg version="1.1" id="Layer_1" xmlns="http://www.w3.org/2000/svg" xmlns:xlink="http://www.w3.org/1999/xlink" x="0px" y="0px"
	 width="45px" height="45px" viewBox="0 0 45 45" style="enable-background:new 0 0 45 45;" xml:space="preserve">
<style type="text/css">
	.st0{fill:#005129;}
	.st1{fill:url(#SVGID_1_);}
	.st2{fill:#7A0511;}
	.st3{fill:url(#SVGID_2_);}
	.st4{fill:url(#SVGID_3_);}
	.st5{fill:none;stroke:#7A0511;stroke-width:1.1677;stroke-miterlimit:10;}
	.st6{fill:none;stroke:#7A0511;stroke-width:1.022;stroke-miterlimit:10;}
	.st7{fill:url(#SVGID_4_);}
	.st8{fill:url(#SVGID_5_);}
	.st9{fill:url(#SVGID_6_);}
	.st10{fill:url(#SVGID_7_);}
	.st11{fill:url(#SVGID_8_);}
	.st12{fill:url(#SVGID_9_);}
	.st13{fill:url(#SVGID_10_);}
	.st14{fill:url(#SVGID_11_);}
	.st15{fill:#231F20;}
	.st16{fill:url(#SVGID_12_);}
	.st17{fill:url(#SVGID_13_);}
	.st18{fill:url(#SVGID_14_);}
	.st19{fill:url(#SVGID_15_);}
	.st20{fill:url(#SVGID_16_);}
	.st21{fill:url(#SVGID_17_);}
	.st22{fill:url(#SVGID_18_);}
	.st23{fill:url(#SVGID_19_);}
	.st24{fill:url(#SVGID_20_);}
	.st25{fill:url(#SVGID_21_);}
	.st26{fill:url(#SVGID_22_);}
	.st27{fill:#8CC63F;}
	.st28{fill:url(#SVGCleanerId_0_8_);}
	.st29{fill:url(#SVGCleanerId_0_9_);}
	.st30{fill:url(#SVGID_23_);}
	.st31{fill:url(#SVGID_24_);}
	.st32{fill:#EE412E;}
	.st33{fill:url(#SVGCleanerId_0_10_);}
	.st34{fill:url(#SVGID_25_);}
	.st35{fill:url(#SVGID_26_);}
	.st36{fill:url(#SVGID_27_);}
	.st37{fill:url(#SVGID_28_);}
	.st38{fill:url(#SVGID_29_);}
	.st39{fill:url(#SVGID_30_);}
	.st40{fill:url(#SVGID_31_);}
	.st41{fill:url(#SVGID_32_);}
	.st42{fill:url(#SVGID_33_);}
	.st43{fill:url(#SVGID_34_);}
	.st44{fill:#006838;}
	.st45{fill:url(#SVGID_35_);}
	.st46{fill:url(#SVGID_36_);}
	.st47{fill:url(#SVGID_37_);}
	.st48{fill:url(#SVGID_38_);}
	.st49{fill:url(#SVGID_39_);}
	.st50{fill:url(#SVGID_40_);}
	.st51{fill:url(#SVGID_41_);}
	.st52{fill:url(#SVGID_42_);}
	.st53{fill:url(#SVGID_43_);}
	.st54{fill:url(#SVGID_44_);}
	.st55{fill:url(#SVGID_45_);}
	.st56{fill:url(#SVGID_46_);}
	.st57{fill:url(#SVGID_47_);}
	.st58{fill:url(#SVGID_48_);}
	.st59{fill:url(#SVGID_49_);}
	.st60{fill:url(#SVGID_50_);}
	.st61{fill:url(#SVGID_51_);}
	.st62{fill:url(#SVGID_52_);}
	.st63{fill:url(#SVGID_53_);}
	.st64{fill:url(#SVGID_54_);}
	.st65{fill:url(#SVGID_55_);}
	.st66{fill:url(#SVGID_56_);}
	.st67{fill:url(#SVGID_57_);}
	.st68{fill:url(#SVGID_58_);}
	.st69{fill:url(#SVGID_59_);}
	.st70{fill:url(#SVGID_60_);}
	.st71{fill:url(#SVGID_61_);}
	.st72{fill:url(#SVGID_62_);}
	.st73{fill:url(#SVGID_63_);}
	.st74{fill:url(#SVGID_64_);}
	.st75{fill:url(#SVGID_65_);}
	.st76{fill:url(#SVGID_66_);}
	.st77{fill:url(#SVGID_67_);}
	.st78{fill:url(#SVGID_68_);}
	.st79{fill:url(#SVGID_69_);}
	.st80{fill:url(#SVGID_70_);}
	.st81{fill:url(#SVGID_71_);}
	.st82{fill:url(#SVGID_72_);}
	.st83{fill:url(#SVGID_73_);}
	.st84{fill:url(#SVGID_74_);}
	.st85{fill:url(#SVGID_75_);}
	.st86{fill:url(#SVGID_76_);}
	.st87{fill:url(#SVGID_77_);}
	.st88{fill:url(#SVGID_78_);}
	.st89{fill:url(#SVGID_79_);}
	.st90{fill:url(#SVGID_80_);}
	.st91{fill:url(#SVGID_81_);}
	.st92{fill:url(#SVGID_82_);}
	.st93{fill:url(#SVGID_83_);}
	.st94{fill:url(#SVGID_84_);}
	.st95{fill:url(#SVGID_85_);}
	.st96{fill:url(#SVGID_86_);}
	.st97{fill:url(#SVGID_87_);}
	.st98{fill:url(#SVGID_88_);}
	.st99{fill:#91ACB4;}
	.st100{fill:url(#SVGCleanerId_0_11_);}
	.st101{fill:url(#SVGID_89_);}
	.st102{fill:url(#SVGID_90_);}
	.st103{fill:url(#SVGID_91_);}
	.st104{fill:url(#SVGID_92_);}
	.st105{fill:url(#SVGID_93_);}
	.st106{fill:url(#SVGCleanerId_0_12_);}
	.st107{fill:url(#SVGID_94_);}
	.st108{fill:url(#SVGID_95_);}
	.st109{fill:url(#SVGID_96_);}
	.st110{fill:url(#SVGID_97_);}
	.st111{fill:url(#SVGID_98_);}
	.st112{fill:url(#SVGID_99_);}
	.st113{fill:url(#SVGID_100_);}
	.st114{fill:url(#SVGID_101_);}
	.st115{fill:url(#SVGID_102_);}
	.st116{fill:url(#SVGID_103_);}
	.st117{fill:url(#SVGID_104_);}
	.st118{fill:url(#SVGID_105_);}
	.st119{fill:url(#SVGID_106_);}
	.st120{fill:url(#SVGID_107_);}
	.st121{fill:url(#SVGID_108_);}
	.st122{fill:url(#SVGID_109_);}
	.st123{fill:url(#SVGID_110_);}
	.st124{fill:url(#SVGID_111_);}
	.st125{fill:url(#SVGID_112_);}
	.st126{fill:url(#SVGID_113_);}
	.st127{fill:url(#SVGID_114_);}
	.st128{fill:url(#SVGID_115_);}
	.st129{fill:url(#SVGID_116_);}
	.st130{fill:url(#SVGID_117_);}
	.st131{fill:url(#SVGID_118_);}
	.st132{fill:url(#SVGID_119_);}
	.st133{fill:url(#SVGID_120_);}
	.st134{fill:url(#SVGID_121_);}
	.st135{fill:url(#SVGID_122_);}
	.st136{fill:#535353;}
	.st137{fill:#A1A0A0;}
	.st138{fill:#CACCD0;}
	.st139{fill:url(#SVGID_123_);}
	.st140{fill:url(#SVGID_124_);}
	.st141{fill:url(#SVGID_125_);}
	.st142{fill:url(#SVGID_126_);}
	.st143{fill:url(#SVGID_127_);}
	.st144{fill:url(#SVGID_128_);}
	.st145{fill:url(#SVGID_129_);}
	.st146{fill:url(#SVGID_130_);}
	.st147{fill:url(#SVGID_131_);}
	.st148{fill-rule:evenodd;clip-rule:evenodd;fill:#8CC63F;}
	.st149{fill:url(#SVGID_132_);}
	.st150{fill:url(#SVGID_133_);}
	.st151{fill:url(#SVGID_134_);}
	.st152{fill:url(#SVGID_135_);}
	.st153{fill-rule:evenodd;clip-rule:evenodd;fill:#EE412E;}
	.st154{fill:url(#SVGID_136_);}
	.st155{fill:url(#SVGID_137_);}
	.st156{fill:url(#SVGID_138_);}
	.st157{fill:url(#SVGID_139_);}
	.st158{fill:url(#SVGID_140_);}
	.st159{fill:url(#SVGID_141_);}
	.st160{fill:url(#SVGID_142_);}
	.st161{fill:url(#SVGID_143_);}
	.st162{fill:url(#SVGID_144_);}
	.st163{fill:url(#SVGID_145_);}
	.st164{fill:url(#SVGID_146_);}
	.st165{fill:url(#SVGID_147_);}
	.st166{fill:url(#SVGID_148_);}
	.st167{fill:url(#SVGID_149_);}
	.st168{fill:url(#SVGID_150_);}
	.st169{fill:url(#SVGID_151_);}
	.st170{fill:url(#SVGID_152_);}
	.st171{fill:url(#SVGID_153_);}
	.st172{fill:url(#SVGID_154_);}
	.st173{fill:url(#SVGID_155_);}
	.st174{fill:url(#SVGID_156_);}
	.st175{fill:url(#SVGID_157_);}
	.st176{fill:url(#SVGID_158_);}
	.st177{fill:url(#SVGID_159_);}
	.st178{fill:url(#SVGID_160_);}
	.st179{fill:url(#SVGID_161_);}
	.st180{fill:url(#SVGID_162_);}
	.st181{fill:url(#SVGID_163_);}
	.st182{fill:url(#SVGID_164_);}
	.st183{fill:url(#SVGID_165_);}
	.st184{fill:url(#SVGID_166_);}
	.st185{fill:url(#SVGID_167_);}
	.st186{fill:url(#SVGID_168_);}
	.st187{fill:url(#SVGID_169_);}
	.st188{fill:url(#SVGID_170_);}
	.st189{fill:url(#SVGID_171_);}
	.st190{fill:url(#SVGID_172_);}
	.st191{fill:url(#SVGID_173_);}
	.st192{fill:url(#SVGID_174_);}
	.st193{fill:url(#SVGID_175_);}
	.st194{fill:url(#SVGID_176_);}
	.st195{fill:url(#SVGID_177_);}
</style>
<g>
	<path class="st15" d="M43.742,22.236l-8.464-1.497v-6.566l6.195,0.749c0.7,0.124,1.368,0.584,1.844,1.268l0.614,5.571
		C44.085,21.982,43.967,22.276,43.742,22.236z"/>
	<g>
		<path class="st2" d="M39.734,30.696H17.291c-0.619,0-1.12-0.502-1.12-1.121v-1.924h23.562v3.044H39.734z"/>
		<path class="st2" d="M11.162,28.156H1.626c-0.279,0-0.505-0.226-0.505-0.505l0,0h10.546l0,0
			C11.667,27.931,11.441,28.156,11.162,28.156z"/>
		<path class="st2" d="M39.639,15.126v-1.712c0-0.264-0.17-0.5-0.421-0.584l-5.534-1.845c-0.398-0.133-0.809,0.163-0.809,0.584
			v3.557H39.639z"/>
		
			<linearGradient id="SVGID_1_" gradientUnits="userSpaceOnUse" x1="38.5701" y1="-530.9657" x2="38.5701" y2="-509.1219" gradientTransform="matrix(1 0 0 -1 0 -498)">
			<stop  offset="0" style="stop-color:#BD212F"/>
			<stop  offset="0.4302" style="stop-color:#EE412E"/>
		</linearGradient>
		<path class="st1" d="M43.471,16.091c-0.188-1.234-1.25-2.147-2.499-2.147h-8.098v13.724c0,0,2.143-0.038,3.539-0.015
			c1.74,0.029,3.141,1.449,3.141,3.195c0,0.272,0.053,0.534-0.011,0.787h4.722v-10.34L43.471,16.091z M43.317,22.099l-7.12-1.761
			c-0.387-0.086-0.661-0.429-0.661-0.826v-3.005c0-0.457,0.37-0.827,0.827-0.827h6.303c0.116,0,0.214,0.087,0.228,0.201
			c0,0,0.562,4.629,0.708,5.968C43.618,22.01,43.472,22.137,43.317,22.099z"/>
		<circle class="st15" cx="36.36" cy="30.849" r="3.197"/>
		
			<linearGradient id="SVGID_2_" gradientUnits="userSpaceOnUse" x1="36.36" y1="-532.0057" x2="36.36" y2="-525.6313" gradientTransform="matrix(1 0 0 -1 0 -498)">
			<stop  offset="0" style="stop-color:#BD212F"/>
			<stop  offset="0.4302" style="stop-color:#EE412E"/>
		</linearGradient>
		<circle class="st3" cx="36.36" cy="30.849" r="2.076"/>
		<circle class="st2" cx="36.36" cy="30.849" r="0.948"/>
		<circle class="st15" cx="26.883" cy="30.849" r="3.197"/>
		
			<linearGradient id="SVGID_3_" gradientUnits="userSpaceOnUse" x1="26.883" y1="-532.0057" x2="26.883" y2="-525.6313" gradientTransform="matrix(1 0 0 -1 0 -498)">
			<stop  offset="0" style="stop-color:#BD212F"/>
			<stop  offset="0.4302" style="stop-color:#EE412E"/>
		</linearGradient>
		<circle class="st4" cx="26.883" cy="30.849" r="2.076"/>
		<circle class="st2" cx="26.883" cy="30.849" r="0.948"/>
		<circle class="st15" cx="20.489" cy="30.849" r="3.197"/>
		
			<linearGradient id="SVGID_4_" gradientUnits="userSpaceOnUse" x1="20.4885" y1="-532.0057" x2="20.4885" y2="-525.6313" gradientTransform="matrix(1 0 0 -1 0 -498)">
			<stop  offset="0" style="stop-color:#BD212F"/>
			<stop  offset="0.4302" style="stop-color:#EE412E"/>
		</linearGradient>
		<circle class="st7" cx="20.489" cy="30.849" r="2.076"/>
		<circle class="st2" cx="20.489" cy="30.849" r="0.948"/>
		<circle class="st15" cx="9.591" cy="30.849" r="3.197"/>
		
			<linearGradient id="SVGID_5_" gradientUnits="userSpaceOnUse" x1="9.5906" y1="-532.0057" x2="9.5906" y2="-525.6313" gradientTransform="matrix(1 0 0 -1 0 -498)">
			<stop  offset="0" style="stop-color:#BD212F"/>
			<stop  offset="0.4302" style="stop-color:#EE412E"/>
		</linearGradient>
		<circle class="st8" cx="9.591" cy="30.849" r="2.076"/>
		<circle class="st2" cx="9.591" cy="30.849" r="0.948"/>
		<circle class="st15" cx="3.197" cy="30.849" r="3.197"/>
		
			<linearGradient id="SVGID_6_" gradientUnits="userSpaceOnUse" x1="3.1972" y1="-532.0057" x2="3.1972" y2="-525.6313" gradientTransform="matrix(1 0 0 -1 0 -498)">
			<stop  offset="0" style="stop-color:#BD212F"/>
			<stop  offset="0.4302" style="stop-color:#EE412E"/>
		</linearGradient>
		<circle class="st9" cx="3.197" cy="30.849" r="2.076"/>
		<circle class="st2" cx="3.197" cy="30.849" r="0.948"/>
		<path class="st15" d="M44.592,30.696h-5.047v1.357c0,0.254,0.206,0.459,0.459,0.459h4.588c0.226,0,0.408-0.183,0.408-0.408v-0.953
			C45,30.878,44.819,30.696,44.592,30.696z"/>
		<path class="st2" d="M36.947,22.465h-1.125c-0.036,0-0.07-0.019-0.088-0.052l-0.089-0.159c-0.037-0.066,0.011-0.149,0.088-0.149
			h1.303c0.076,0,0.125,0.082,0.088,0.149l-0.089,0.159C37.017,22.446,36.983,22.465,36.947,22.465z"/>
		<path class="st2" d="M0.737,27.652h31.511V15.294c0-0.346-0.28-0.627-0.627-0.627H0.737c-0.346,0-0.627,0.28-0.627,0.627v11.731
			C0.11,27.372,0.391,27.652,0.737,27.652z"/>
		<path class="st2" d="M43.912,25.795h0.353v1.857h-0.353c-0.317,0-0.575-0.258-0.575-0.575V26.37
			C43.337,26.052,43.595,25.795,43.912,25.795z"/>
	</g>
</g>
</svg>
