<?xml version="1.0" encoding="utf-8"?>
<!-- Generator: Adobe Illustrator 19.0.1, SVG Export Plug-In . SVG Version: 6.00 Build 0)  -->
<svg version="1.1" id="Layer_1" xmlns="http://www.w3.org/2000/svg" xmlns:xlink="http://www.w3.org/1999/xlink" x="0px" y="0px"
	 width="45px" height="45px" viewBox="0 0 45 45" style="enable-background:new 0 0 45 45;" xml:space="preserve">
<style type="text/css">
	.st0{fill:#005129;}
	.st1{fill:url(#SVGID_1_);}
	.st2{fill:#7A0511;}
	.st3{fill:url(#SVGID_2_);}
	.st4{fill:url(#SVGID_3_);}
	.st5{fill:none;stroke:#7A0511;stroke-width:1.1677;stroke-miterlimit:10;}
	.st6{fill:none;stroke:#7A0511;stroke-width:1.022;stroke-miterlimit:10;}
	.st7{fill:url(#SVGID_4_);}
	.st8{fill:url(#SVGID_5_);}
	.st9{fill:url(#SVGID_6_);}
	.st10{fill:url(#SVGID_7_);}
	.st11{fill:url(#SVGID_8_);}
	.st12{fill:url(#SVGID_9_);}
	.st13{fill:url(#SVGID_10_);}
	.st14{fill:url(#SVGID_11_);}
	.st15{fill:#231F20;}
	.st16{fill:url(#SVGID_12_);}
	.st17{fill:url(#SVGID_13_);}
	.st18{fill:url(#SVGID_14_);}
	.st19{fill:url(#SVGID_15_);}
	.st20{fill:url(#SVGID_16_);}
	.st21{fill:url(#SVGID_17_);}
	.st22{fill:url(#SVGID_18_);}
	.st23{fill:url(#SVGID_19_);}
	.st24{fill:url(#SVGID_20_);}
	.st25{fill:url(#SVGID_21_);}
	.st26{fill:url(#SVGID_22_);}
	.st27{fill:#8CC63F;}
	.st28{fill:url(#SVGCleanerId_0_8_);}
	.st29{fill:url(#SVGCleanerId_0_9_);}
	.st30{fill:url(#SVGID_23_);}
	.st31{fill:url(#SVGID_24_);}
	.st32{fill:#EE412E;}
	.st33{fill:url(#SVGCleanerId_0_10_);}
	.st34{fill:url(#SVGID_25_);}
	.st35{fill:url(#SVGID_26_);}
	.st36{fill:url(#SVGID_27_);}
	.st37{fill:url(#SVGID_28_);}
	.st38{fill:url(#SVGID_29_);}
	.st39{fill:url(#SVGID_30_);}
	.st40{fill:url(#SVGID_31_);}
	.st41{fill:url(#SVGID_32_);}
	.st42{fill:url(#SVGID_33_);}
	.st43{fill:url(#SVGID_34_);}
	.st44{fill:#006838;}
	.st45{fill:url(#SVGID_35_);}
	.st46{fill:url(#SVGID_36_);}
	.st47{fill:url(#SVGID_37_);}
	.st48{fill:url(#SVGID_38_);}
	.st49{fill:url(#SVGID_39_);}
	.st50{fill:url(#SVGID_40_);}
	.st51{fill:url(#SVGID_41_);}
	.st52{fill:url(#SVGID_42_);}
	.st53{fill:url(#SVGID_43_);}
	.st54{fill:url(#SVGID_44_);}
	.st55{fill:url(#SVGID_45_);}
	.st56{fill:url(#SVGID_46_);}
	.st57{fill:url(#SVGID_47_);}
	.st58{fill:url(#SVGID_48_);}
	.st59{fill:url(#SVGID_49_);}
	.st60{fill:url(#SVGID_50_);}
	.st61{fill:url(#SVGID_51_);}
	.st62{fill:url(#SVGID_52_);}
	.st63{fill:url(#SVGID_53_);}
	.st64{fill:url(#SVGID_54_);}
	.st65{fill:url(#SVGID_55_);}
	.st66{fill:url(#SVGID_56_);}
	.st67{fill:url(#SVGID_57_);}
	.st68{fill:url(#SVGID_58_);}
	.st69{fill:url(#SVGID_59_);}
	.st70{fill:url(#SVGID_60_);}
	.st71{fill:url(#SVGID_61_);}
	.st72{fill:url(#SVGID_62_);}
	.st73{fill:url(#SVGID_63_);}
	.st74{fill:url(#SVGID_64_);}
	.st75{fill:url(#SVGID_65_);}
	.st76{fill:url(#SVGID_66_);}
	.st77{fill:url(#SVGID_67_);}
	.st78{fill:url(#SVGID_68_);}
	.st79{fill:url(#SVGID_69_);}
	.st80{fill:url(#SVGID_70_);}
	.st81{fill:url(#SVGID_71_);}
	.st82{fill:url(#SVGID_72_);}
	.st83{fill:url(#SVGID_73_);}
	.st84{fill:url(#SVGID_74_);}
	.st85{fill:url(#SVGID_75_);}
	.st86{fill:url(#SVGID_76_);}
	.st87{fill:url(#SVGID_77_);}
	.st88{fill:url(#SVGID_78_);}
	.st89{fill:url(#SVGID_79_);}
	.st90{fill:url(#SVGID_80_);}
	.st91{fill:url(#SVGID_81_);}
	.st92{fill:url(#SVGID_82_);}
	.st93{fill:url(#SVGID_83_);}
	.st94{fill:url(#SVGID_84_);}
	.st95{fill:url(#SVGID_85_);}
	.st96{fill:url(#SVGID_86_);}
	.st97{fill:url(#SVGID_87_);}
	.st98{fill:url(#SVGID_88_);}
	.st99{fill:#91ACB4;}
	.st100{fill:url(#SVGCleanerId_0_11_);}
	.st101{fill:url(#SVGID_89_);}
	.st102{fill:url(#SVGID_90_);}
	.st103{fill:url(#SVGID_91_);}
	.st104{fill:url(#SVGID_92_);}
	.st105{fill:url(#SVGID_93_);}
	.st106{fill:url(#SVGCleanerId_0_12_);}
	.st107{fill:url(#SVGID_94_);}
	.st108{fill:url(#SVGID_95_);}
	.st109{fill:url(#SVGID_96_);}
	.st110{fill:url(#SVGID_97_);}
	.st111{fill:url(#SVGID_98_);}
	.st112{fill:url(#SVGID_99_);}
	.st113{fill:url(#SVGID_100_);}
	.st114{fill:url(#SVGID_101_);}
	.st115{fill:url(#SVGID_102_);}
	.st116{fill:url(#SVGID_103_);}
	.st117{fill:url(#SVGID_104_);}
	.st118{fill:url(#SVGID_105_);}
	.st119{fill:url(#SVGID_106_);}
	.st120{fill:url(#SVGID_107_);}
	.st121{fill:url(#SVGID_108_);}
	.st122{fill:url(#SVGID_109_);}
	.st123{fill:url(#SVGID_110_);}
	.st124{fill:url(#SVGID_111_);}
	.st125{fill:url(#SVGID_112_);}
	.st126{fill:url(#SVGID_113_);}
	.st127{fill:url(#SVGID_114_);}
	.st128{fill:url(#SVGID_115_);}
	.st129{fill:url(#SVGID_116_);}
	.st130{fill:url(#SVGID_117_);}
	.st131{fill:url(#SVGID_118_);}
	.st132{fill:url(#SVGID_119_);}
	.st133{fill:url(#SVGID_120_);}
	.st134{fill:url(#SVGID_121_);}
	.st135{fill:url(#SVGID_122_);}
	.st136{fill:#535353;}
	.st137{fill:#A1A0A0;}
	.st138{fill:#CACCD0;}
	.st139{fill:url(#SVGID_123_);}
	.st140{fill:url(#SVGID_124_);}
	.st141{fill:url(#SVGID_125_);}
	.st142{fill:url(#SVGID_126_);}
	.st143{fill:url(#SVGID_127_);}
	.st144{fill:url(#SVGID_128_);}
	.st145{fill:url(#SVGID_129_);}
	.st146{fill:url(#SVGID_130_);}
	.st147{fill:url(#SVGID_131_);}
	.st148{fill-rule:evenodd;clip-rule:evenodd;fill:#8CC63F;}
	.st149{fill:url(#SVGID_132_);}
	.st150{fill:url(#SVGID_133_);}
	.st151{fill:url(#SVGID_134_);}
	.st152{fill:url(#SVGID_135_);}
	.st153{fill-rule:evenodd;clip-rule:evenodd;fill:#EE412E;}
	.st154{fill:url(#SVGID_136_);}
	.st155{fill:url(#SVGID_137_);}
	.st156{fill:url(#SVGID_138_);}
	.st157{fill:url(#SVGID_139_);}
	.st158{fill:url(#SVGID_140_);}
	.st159{fill:url(#SVGID_141_);}
	.st160{fill:url(#SVGID_142_);}
	.st161{fill:url(#SVGID_143_);}
	.st162{fill:url(#SVGID_144_);}
	.st163{fill:url(#SVGID_145_);}
	.st164{fill:url(#SVGID_146_);}
	.st165{fill:url(#SVGID_147_);}
	.st166{fill:url(#SVGID_148_);}
	.st167{fill:url(#SVGID_149_);}
	.st168{fill:url(#SVGID_150_);}
	.st169{fill:url(#SVGID_151_);}
	.st170{fill:url(#SVGID_152_);}
	.st171{fill:url(#SVGID_153_);}
	.st172{fill:url(#SVGID_154_);}
	.st173{fill:url(#SVGID_155_);}
	.st174{fill:url(#SVGID_156_);}
	.st175{fill:url(#SVGID_157_);}
	.st176{fill:url(#SVGID_158_);}
	.st177{fill:url(#SVGID_159_);}
	.st178{fill:url(#SVGID_160_);}
	.st179{fill:url(#SVGID_161_);}
	.st180{fill:url(#SVGID_162_);}
	.st181{fill:url(#SVGID_163_);}
	.st182{fill:url(#SVGID_164_);}
	.st183{fill:url(#SVGID_165_);}
	.st184{fill:url(#SVGID_166_);}
	.st185{fill:url(#SVGID_167_);}
	.st186{fill:url(#SVGID_168_);}
	.st187{fill:url(#SVGID_169_);}
	.st188{fill:url(#SVGID_170_);}
	.st189{fill:url(#SVGID_171_);}
	.st190{fill:url(#SVGID_172_);}
	.st191{fill:url(#SVGID_173_);}
	.st192{fill:url(#SVGID_174_);}
	.st193{fill:url(#SVGID_175_);}
	.st194{fill:url(#SVGID_176_);}
	.st195{fill:url(#SVGID_177_);}
</style>
<g>
	
		<linearGradient id="SVGID_1_" gradientUnits="userSpaceOnUse" x1="-4434.3579" y1="-194.3949" x2="-4434.3579" y2="-182.265" gradientTransform="matrix(-1 0 0 -1 -4411.2861 -172)">
		<stop  offset="0" style="stop-color:#079247"/>
		<stop  offset="1" style="stop-color:#8BC342"/>
	</linearGradient>
	<path class="st1" d="M11.939,21.095v-5.19l-5.61-2.631l0,0c0.454-1.647,1.953-2.788,3.661-2.788h10.878
		c0.555,0,1.099,0.149,1.577,0.431l20.604,12.16l-4.68,3.437L3.096,30.038v-4.776c0-1.442,1.026-2.682,2.442-2.951L11.939,21.095z"
		/>
	
		<linearGradient id="SVGID_2_" gradientUnits="userSpaceOnUse" x1="-4433.7861" y1="-204.4423" x2="-4433.7861" y2="-190.6719" gradientTransform="matrix(-1 0 0 -1 -4411.2861 -172)">
		<stop  offset="0" style="stop-color:#079247"/>
		<stop  offset="1" style="stop-color:#8BC342"/>
	</linearGradient>
	<path class="st3" d="M31.517,19.712H45l-6.49,11.169c-1.394,2.017-2.792,3.631-5.089,3.631H1.915L0,29.037
		C7.274,21.324,23.741,19.922,31.517,19.712z"/>
	<path class="st0" d="M30.583,31.246c4.078,0,7.824-2.427,10.468-4.737l-2.541,4.374c-1.394,2.017-2.792,3.631-5.089,3.631H1.919
		l-1.143-3.268C6.314,31.246,23.868,31.246,30.583,31.246z"/>
	<path class="st0" d="M0.485,30.421h30.898c3.791,0,7.29-2.09,9.774-4.095c0.15-0.228,0.165-0.275,0.307-0.529l0.261-0.451
		c-2.448,2.14-6.23,4.69-10.342,4.69H0.35L0.485,30.421z"/>
	<path class="st2" d="M41.158,26.326c0.132-0.212,0.165-0.275,0.307-0.529l0.261-0.451"/>
	<path class="st15" d="M19.311,18.607h16.135l-6.621-3.935l0,0C25.257,14.672,21.836,16.087,19.311,18.607L19.311,18.607z"/>
	<ellipse class="st44" cx="39.35" cy="22.219" rx="1.062" ry="0.556"/>
	<ellipse class="st44" cx="36.508" cy="22.219" rx="1.062" ry="0.556"/>
	<ellipse class="st44" cx="33.666" cy="22.219" rx="1.062" ry="0.556"/>
	<path class="st0" d="M7.732,27.878c0.07,0.07,0.183,0.07,0.253,0l0.043-0.043c0.041,0.772,0.678,1.387,1.46,1.387
		c0.778,0,1.415-0.612,1.459-1.38l0.043,0.043c0.035,0.035,0.081,0.053,0.126,0.053s0.091-0.018,0.126-0.053
		c0.07-0.07,0.07-0.183,0-0.253l-0.348-0.348c-0.034-0.034-0.079-0.053-0.126-0.053s-0.093,0.019-0.126,0.053l-0.34,0.34
		c-0.07,0.07-0.07,0.183,0,0.253s0.183,0.07,0.253,0l0.034-0.034c-0.039,0.511-0.425,0.924-0.923,1.006v-2.075
		c0.273-0.079,0.476-0.329,0.476-0.627c0-0.361-0.294-0.655-0.655-0.655s-0.655,0.294-0.655,0.655c0,0.298,0.202,0.548,0.476,0.627
		v2.075c-0.495-0.081-0.88-0.49-0.923-0.997l0.034,0.034c0.035,0.035,0.081,0.053,0.126,0.053s0.091-0.018,0.127-0.053
		c0.07-0.07,0.07-0.183,0-0.253l-0.348-0.348c-0.07-0.07-0.183-0.07-0.253,0l-0.34,0.34C7.662,27.694,7.662,27.808,7.732,27.878z
		 M9.487,26.444c-0.163,0-0.297-0.133-0.297-0.297c0-0.164,0.133-0.297,0.297-0.297c0.163,0,0.297,0.133,0.297,0.297
		C9.784,26.312,9.651,26.444,9.487,26.444z"/>
</g>
</svg>
